<?xml version="1.0" encoding="utf-8"?>
<!-- Generator: Adobe Illustrator 24.2.0, SVG Export Plug-In . SVG Version: 6.00 Build 0)  -->
<svg version="1.1" id="Layer_1" xmlns="http://www.w3.org/2000/svg" xmlns:xlink="http://www.w3.org/1999/xlink" x="0px" y="0px"
	 viewBox="0 0 100 100" style="enable-background:new 0 0 100 100;" xml:space="preserve">
<style type="text/css">
	.st0{fill:#AC7FFF;}
	.st1{fill:#FBA438;}
	.st2{fill:#341472;}
	.st3{fill:#FCA121;}
	.st4{fill:#380D75;}
	.st5{fill:#38F2AF;}
</style>
<g>
	<g>
		<path class="st5" d="M64.77,50.77l-4.11-4.11c-0.95-0.95-2.5-0.95-3.45,0L44.64,59.23l-4.8-4.8c-0.95-0.95-2.5-0.95-3.45,0
			l-4.11,4.11c-0.95,0.95-0.95,2.5,0,3.45l9.6,9.6c1.53,1.53,4,1.53,5.53,0l17.37-17.37C65.72,53.27,65.72,51.73,64.77,50.77z"/>
	</g>
	<g>
		<path class="st4" d="M78.79,92.92H9.92c-3.62,0-6.85-1.88-8.63-5.04s-1.73-6.89,0.15-10l34.78-57.58
			c0.71-1.18,2.25-1.56,3.43-0.85c1.18,0.71,1.56,2.25,0.85,3.43L5.72,80.47c-0.93,1.54-0.96,3.39-0.07,4.95
			c0.88,1.56,2.48,2.5,4.28,2.5h68.86c1.38,0,2.5,1.12,2.5,2.5S80.17,92.92,78.79,92.92z"/>
	</g>
	<g>
		<path class="st4" d="M90.08,92.92c-1.38,0-2.5-1.12-2.5-2.5s1.12-2.5,2.5-2.5c1.8,0,3.39-0.93,4.28-2.5
			c0.88-1.56,0.86-3.42-0.07-4.95L54.2,14.11c-0.9-1.49-2.47-2.37-4.2-2.37c-1.74,0-3.31,0.89-4.21,2.37
			c-0.71,1.18-2.25,1.56-3.43,0.85c-1.18-0.71-1.56-2.25-0.85-3.43c1.81-3,4.98-4.79,8.48-4.79c3.5,0,6.67,1.79,8.48,4.79
			l40.08,66.36c1.87,3.1,1.93,6.84,0.15,10C96.93,91.04,93.7,92.92,90.08,92.92z"/>
	</g>
	<g>
		<path class="st4" d="M44.64,75.24c-1.71,0-3.32-0.67-4.53-1.88l-9.6-9.6c-1.93-1.93-1.93-5.06,0-6.99l4.11-4.11
			c1.93-1.93,5.06-1.93,6.99,0l3.03,3.03l10.8-10.8c0.93-0.93,2.17-1.45,3.49-1.45s2.56,0.51,3.5,1.45l4.11,4.11
			c0.93,0.93,1.45,2.17,1.45,3.49c0,1.32-0.51,2.56-1.45,3.5L49.17,73.36C47.96,74.57,46.35,75.24,44.64,75.24z M38.08,56.2
			l-4.03,4.11l9.6,9.51c0.53,0.53,1.46,0.53,1.99,0L62.96,52.5l-4.07-4.07L46.41,61c-0.98,0.98-2.56,0.98-3.54,0L38.08,56.2z
			 M63,52.46L63,52.46L63,52.46L63,52.46z"/>
	</g>
</g>
</svg>
