<?xml version="1.0" encoding="utf-8"?>
<!-- Generator: Adobe Illustrator 24.2.3, SVG Export Plug-In . SVG Version: 6.00 Build 0)  -->
<svg version="1.1" id="Layer_1" xmlns="http://www.w3.org/2000/svg" xmlns:xlink="http://www.w3.org/1999/xlink" x="0px" y="0px"
	 viewBox="0 0 1010.13 893.88" style="enable-background:new 0 0 1010.13 893.88;" xml:space="preserve">
<style type="text/css">
	.st0{opacity:0.15;}
	
		.st1{fill:none;stroke:#341472;stroke-width:5;stroke-linecap:round;stroke-linejoin:round;stroke-miterlimit:10;stroke-dasharray:10,14;}
	.st2{fill:none;stroke:#341472;stroke-width:5;stroke-linecap:round;stroke-linejoin:round;stroke-miterlimit:10;}
	.st3{fill:#5AC4FF;}
	.st4{fill:#FC6D26;}
	.st5{fill:#AC7FFF;}
	.st6{fill:#E5E0FC;}
	.st7{fill:#18A3FF;}
	.st8{fill:#0B8ED6;}
	.st9{fill:none;stroke:#380D75;stroke-width:5;stroke-linecap:round;stroke-linejoin:round;stroke-miterlimit:10;}
	.st10{fill:#FCF7F2;}
	.st11{fill:#A686FF;}
	.st12{fill:#8C6EEA;}
	.st13{fill:#E5DAD1;}
	.st14{fill:#FF9769;}
	.st15{fill:#FFFFFF;}
	.st16{fill:#978ACE;}
	.st17{fill:#7971AD;}
	.st18{fill:#AFA3C6;}
	.st19{fill:#FFC46C;}
	.st20{fill:#E58615;}
	.st21{fill:#38F2AF;}
	.st22{fill:#FF675F;}
	.st23{fill:#E24329;}
	.st24{fill:#FCA326;}
	.st25{fill:#CAB5FF;}
	.st26{fill:none;stroke:#AFA3C6;stroke-width:5;stroke-linecap:round;stroke-linejoin:round;stroke-miterlimit:10;}
	.st27{fill:#E04733;}
	.st28{fill:#BC2922;}
	.st29{fill:#00DBB1;}
	.st30{fill:#F76F8C;}
	.st31{fill:#FF908D;}
	.st32{fill:#6E49CB;}
	.st33{fill:#FCA121;}
	.st34{fill:#E85929;}
	.st35{fill:#380D75;}
	.st36{fill:#7F6997;}
	.st37{opacity:0.25;fill:none;stroke:#341472;stroke-width:5;stroke-linecap:round;stroke-linejoin:round;stroke-miterlimit:10;}
	
		.st38{opacity:0.15;fill:none;stroke:#3C257B;stroke-width:5;stroke-linecap:round;stroke-linejoin:round;stroke-miterlimit:10;stroke-dasharray:12,20;}
	.st39{fill:#F9F7FF;}
	.st40{fill:#AFAAE5;}
	
		.st41{fill:none;stroke:#341472;stroke-width:5;stroke-linecap:round;stroke-linejoin:round;stroke-miterlimit:10;stroke-dasharray:12,20;}
	.st42{fill:none;stroke:#380D75;stroke-width:5;stroke-linecap:round;stroke-linejoin:round;}
	.st43{fill:none;stroke:#380D75;stroke-width:5;stroke-linecap:round;stroke-linejoin:round;stroke-dasharray:11.8865,11.8865;}
	.st44{fill:#341472;}
	.st45{fill:none;stroke:#380D75;stroke-width:5;stroke-linecap:round;stroke-linejoin:round;stroke-dasharray:10.6532,10.6532;}
</style>
<g>
	<path class="st44" d="M165.19,168.67c0-4.82,2.7-7.67,6.6-7.67s6.6,2.85,6.6,7.67c0,4.84-2.7,7.81-6.6,7.81
		S165.19,173.51,165.19,168.67z M175.6,168.67c0-3.31-1.51-5.3-3.81-5.3c-2.33,0-3.81,1.99-3.81,5.3c0,3.33,1.48,5.46,3.81,5.46
		C174.1,174.13,175.6,172,175.6,168.67z"/>
	<path class="st44" d="M181.43,161.27h2.9l4.48,8.22c0.55,1.01,1.05,2.19,1.53,3.38h0.09c-0.16-1.6-0.34-3.43-0.34-5.07v-6.53h2.54
		v14.94h-2.9l-4.48-8.22c-0.55-1.01-1.05-2.19-1.53-3.38h-0.09c0.16,1.55,0.34,3.4,0.34,5.07v6.53h-2.54V161.27z"/>
	<path class="st44" d="M196.47,161.27h9.02v2.28h-6.3v3.75h5.35v2.28h-5.35v4.34h6.53v2.28h-9.25V161.27z"/>
	<path class="st44" d="M213.44,161.27h4.73c3.31,0,5.8,1.17,5.8,4.64c0,3.33-2.49,4.84-5.71,4.84h-2.1v5.46h-2.72V161.27z
		 M218.06,168.58c2.19,0,3.22-0.87,3.22-2.67c0-1.83-1.14-2.47-3.31-2.47h-1.8v5.14H218.06z"/>
	<path class="st44" d="M226.81,161.27h9.02v2.28h-6.3v3.75h5.35v2.28h-5.35v4.34h6.53v2.28h-9.25V161.27z"/>
	<path class="st44" d="M239.17,161.27h5.05c3.13,0,5.53,1.1,5.53,4.45c0,2.26-1.17,3.65-2.95,4.27l3.54,6.21h-3.04l-3.2-5.8h-2.22
		v5.8h-2.72V161.27z M243.95,168.23c2.03,0,3.13-0.85,3.13-2.51c0-1.69-1.1-2.28-3.13-2.28h-2.06v4.8H243.95z"/>
	<path class="st44" d="M251.44,174.29l1.46-1.78c1.07,1.03,2.56,1.62,4,1.62c1.65,0,2.56-0.75,2.56-1.9c0-1.19-0.96-1.58-2.31-2.15
		l-2.03-0.89c-1.48-0.62-3.02-1.78-3.02-3.95c0-2.4,2.1-4.25,5.03-4.25c1.8,0,3.47,0.73,4.64,1.85l-1.46,1.78
		c-0.94-0.8-2.03-1.26-3.18-1.26c-1.39,0-2.28,0.64-2.28,1.71c0,1.14,1.12,1.55,2.35,2.08l2.01,0.82c1.78,0.75,3.02,1.87,3.02,4.04
		c0,2.42-2.01,4.45-5.39,4.45C254.78,176.48,252.86,175.73,251.44,174.29z"/>
	<path class="st44" d="M264.22,168.67c0-4.82,2.7-7.67,6.6-7.67s6.6,2.85,6.6,7.67c0,4.84-2.7,7.81-6.6,7.81
		S264.22,173.51,264.22,168.67z M274.63,168.67c0-3.31-1.51-5.3-3.81-5.3c-2.33,0-3.81,1.99-3.81,5.3c0,3.33,1.48,5.46,3.81,5.46
		C273.13,174.13,274.63,172,274.63,168.67z"/>
	<path class="st44" d="M280.46,161.27h2.9l4.48,8.22c0.55,1.01,1.05,2.19,1.53,3.38h0.09c-0.16-1.6-0.34-3.43-0.34-5.07v-6.53h2.54
		v14.94h-2.9l-4.48-8.22c-0.55-1.01-1.05-2.19-1.53-3.38h-0.09c0.16,1.55,0.34,3.4,0.34,5.07v6.53h-2.54V161.27z"/>
	<path class="st44" d="M300.11,161.27h9.02v2.28h-6.3v3.75h5.35v2.28h-5.35v4.34h6.53v2.28h-9.25V161.27z"/>
	<path class="st44" d="M312.47,161.27h4c4.57,0,7.31,2.44,7.31,7.4c0,4.98-2.74,7.54-7.17,7.54h-4.13V161.27z M316.29,174.01
		c2.97,0,4.68-1.67,4.68-5.35c0-3.65-1.71-5.19-4.68-5.19h-1.1v10.53H316.29z"/>
	<path class="st44" d="M326.82,161.27h2.72v14.94h-2.72V161.27z"/>
	<path class="st44" d="M336.35,163.55h-4.29v-2.28h11.31v2.28h-4.29v12.65h-2.72V163.55z"/>
	<path class="st44" d="M344.17,174.29l1.46-1.78c1.07,1.03,2.56,1.62,4,1.62c1.65,0,2.56-0.75,2.56-1.9c0-1.19-0.96-1.58-2.31-2.15
		l-2.03-0.89c-1.48-0.62-3.02-1.78-3.02-3.95c0-2.4,2.1-4.25,5.03-4.25c1.8,0,3.47,0.73,4.64,1.85l-1.46,1.78
		c-0.94-0.8-2.03-1.26-3.18-1.26c-1.39,0-2.28,0.64-2.28,1.71c0,1.14,1.12,1.55,2.35,2.08l2.01,0.82c1.78,0.75,3.02,1.87,3.02,4.04
		c0,2.42-2.01,4.45-5.39,4.45C347.5,176.48,345.58,175.73,344.17,174.29z"/>
	<path class="st44" d="M365.23,161.27h3.2l4.84,14.94h-2.88l-1.14-4h-4.96l-1.14,4h-2.76L365.23,161.27z M364.91,170.08h3.75
		l-0.5-1.78c-0.48-1.58-0.91-3.29-1.35-4.91h-0.09c-0.39,1.64-0.82,3.33-1.3,4.91L364.91,170.08z"/>
	<path class="st44" d="M376.68,163.55h-4.29v-2.28h11.31v2.28h-4.29v12.65h-2.72V163.55z"/>
	<path class="st44" d="M393.75,161.27h3.2l4.84,14.94h-2.88l-1.14-4h-4.96l-1.14,4h-2.76L393.75,161.27z M393.43,170.08h3.75
		l-0.5-1.78c-0.48-1.58-0.91-3.29-1.35-4.91h-0.09c-0.39,1.64-0.82,3.33-1.3,4.91L393.43,170.08z"/>
	<path class="st44" d="M411.3,163.55H407v-2.28h11.31v2.28h-4.29v12.65h-2.72V163.55z"/>
	<path class="st44" d="M420.85,161.27h2.72v14.94h-2.72V161.27z"/>
	<path class="st44" d="M427.36,161.27h3.2l2.56,7.31c0.32,0.96,0.59,1.83,0.87,2.92h0.09c0.27-1.1,0.5-1.96,0.82-2.92l2.56-7.31h3.2
		v14.94h-2.51v-6.81c0-1.42,0.23-3.47,0.41-4.84h-0.09l-1.19,3.61l-2.42,6.67h-1.78l-2.38-6.67l-1.19-3.61h-0.09
		c0.18,1.37,0.41,3.43,0.41,4.84v6.81h-2.47V161.27z"/>
	<path class="st44" d="M444.48,161.27h9.02v2.28h-6.3v3.75h5.35v2.28h-5.35v4.34h6.53v2.28h-9.25V161.27z"/>
</g>
<g>
	<path class="st44" d="M165.94,324.35h3.2l2.56,7.31c0.32,0.96,0.59,1.83,0.87,2.92h0.09c0.27-1.1,0.5-1.96,0.82-2.92l2.56-7.31h3.2
		v14.94h-2.51v-6.81c0-1.42,0.23-3.47,0.41-4.84h-0.09l-1.19,3.61l-2.42,6.67h-1.78l-2.38-6.67l-1.19-3.61H168
		c0.18,1.37,0.41,3.43,0.41,4.84v6.81h-2.47V324.35z"/>
	<path class="st44" d="M182.96,332.71v-8.36h2.72v8.57c0,3.22,1.19,4.29,2.99,4.29s3.04-1.07,3.04-4.29v-8.57h2.63v8.36
		c0,4.91-2.17,6.85-5.67,6.85S182.96,337.62,182.96,332.71z"/>
	<path class="st44" d="M198.09,324.35h2.72v12.65h6.17v2.28h-8.89V324.35z"/>
	<path class="st44" d="M209.88,326.64h-4.29v-2.28h11.31v2.28h-4.29v12.65h-2.72V326.64z"/>
	<path class="st44" d="M219.43,324.35h2.72v14.94h-2.72V324.35z"/>
	<path class="st44" d="M225.97,324.35h4.73c3.31,0,5.8,1.17,5.8,4.64c0,3.33-2.49,4.84-5.71,4.84h-2.1v5.46h-2.72V324.35z
		 M230.58,331.66c2.19,0,3.22-0.87,3.22-2.67c0-1.83-1.14-2.47-3.31-2.47h-1.8v5.14H230.58z"/>
	<path class="st44" d="M239.33,324.35h2.72v12.65h6.17v2.28h-8.89V324.35z"/>
	<path class="st44" d="M250.87,324.35h9.02v2.28h-6.3v3.75h5.35v2.28h-5.35v4.34h6.53v2.28h-9.25V324.35z"/>
	<path class="st44" d="M267.07,331.87c0-4.89,3.06-7.79,6.85-7.79c1.87,0,3.38,0.87,4.32,1.9l-1.44,1.67
		c-0.78-0.75-1.67-1.19-2.83-1.19c-2.38,0-4.11,2.01-4.11,5.35c0,3.36,1.58,5.41,4.07,5.41c1.3,0,2.33-0.53,3.15-1.44l1.46,1.62
		c-1.26,1.44-2.81,2.17-4.73,2.17C270.07,339.57,267.07,336.82,267.07,331.87z"/>
	<path class="st44" d="M279.55,331.75c0-4.82,2.7-7.67,6.6-7.67s6.6,2.85,6.6,7.67c0,4.84-2.7,7.81-6.6,7.81
		S279.55,336.6,279.55,331.75z M289.97,331.75c0-3.31-1.51-5.3-3.81-5.3c-2.33,0-3.81,1.99-3.81,5.3c0,3.33,1.48,5.46,3.81,5.46
		C288.46,337.21,289.97,335.09,289.97,331.75z"/>
	<path class="st44" d="M295.8,324.35h4.73c3.31,0,5.8,1.17,5.8,4.64c0,3.33-2.49,4.84-5.71,4.84h-2.1v5.46h-2.72V324.35z
		 M300.41,331.66c2.19,0,3.22-0.87,3.22-2.67c0-1.83-1.14-2.47-3.31-2.47h-1.8v5.14H300.41z"/>
	<path class="st44" d="M309.16,324.35h2.72v14.94h-2.72V324.35z"/>
	<path class="st44" d="M315.7,324.35h9.02v2.28h-6.3v3.75h5.35v2.28h-5.35v4.34h6.53v2.28h-9.25V324.35z"/>
	<path class="st44" d="M327.03,337.37l1.46-1.78c1.07,1.03,2.56,1.62,4,1.62c1.65,0,2.56-0.75,2.56-1.9c0-1.19-0.96-1.58-2.31-2.15
		l-2.03-0.89c-1.48-0.62-3.02-1.78-3.02-3.95c0-2.4,2.1-4.25,5.03-4.25c1.8,0,3.47,0.73,4.64,1.85l-1.46,1.78
		c-0.94-0.8-2.03-1.26-3.18-1.26c-1.39,0-2.28,0.64-2.28,1.71c0,1.14,1.12,1.55,2.35,2.08l2.01,0.82c1.78,0.75,3.02,1.87,3.02,4.04
		c0,2.42-2.01,4.45-5.39,4.45C330.37,339.57,328.45,338.81,327.03,337.37z"/>
	<path class="st44" d="M345.04,332.94c0-4.02,1.12-7.31,3.02-10.42l1.69,0.73c-1.71,2.95-2.49,6.35-2.49,9.69s0.78,6.74,2.49,9.69
		l-1.69,0.73C346.16,340.25,345.04,336.96,345.04,332.94z"/>
	<path class="st44" d="M352.69,324.35h2.72v5.98h5.94v-5.98h2.72v14.94h-2.72v-6.58h-5.94v6.58h-2.72V324.35z"/>
	<path class="st44" d="M370.81,324.35h3.2l4.84,14.94h-2.88l-1.14-4h-4.96l-1.14,4h-2.76L370.81,324.35z M370.49,333.17h3.75
		l-0.5-1.78c-0.48-1.58-0.91-3.29-1.35-4.91h-0.09c-0.39,1.64-0.82,3.33-1.3,4.91L370.49,333.17z"/>
	<path class="st44" d="M380.75,324.35h2.9l4.48,8.22c0.55,1.01,1.05,2.19,1.53,3.38h0.09c-0.16-1.6-0.34-3.43-0.34-5.07v-6.53h2.54
		v14.94h-2.9l-4.48-8.22c-0.55-1.01-1.05-2.19-1.53-3.38h-0.09c0.16,1.55,0.34,3.4,0.34,5.07v6.53h-2.54V324.35z"/>
	<path class="st44" d="M395.78,324.35h4c4.57,0,7.31,2.44,7.31,7.4c0,4.98-2.74,7.54-7.17,7.54h-4.13V324.35z M399.6,337.1
		c2.97,0,4.68-1.67,4.68-5.35c0-3.65-1.71-5.19-4.68-5.19h-1.1v10.53H399.6z"/>
	<path class="st44" d="M409.11,337.37l1.46-1.78c1.07,1.03,2.56,1.62,4,1.62c1.65,0,2.56-0.75,2.56-1.9c0-1.19-0.96-1.58-2.31-2.15
		l-2.03-0.89c-1.48-0.62-3.02-1.78-3.02-3.95c0-2.4,2.1-4.25,5.03-4.25c1.8,0,3.47,0.73,4.64,1.85l-1.46,1.78
		c-0.94-0.8-2.03-1.26-3.18-1.26c-1.39,0-2.28,0.64-2.28,1.71c0,1.14,1.12,1.55,2.35,2.08l2.01,0.82c1.78,0.75,3.02,1.87,3.02,4.04
		c0,2.42-2.01,4.45-5.39,4.45C412.44,339.57,410.52,338.81,409.11,337.37z"/>
	<path class="st44" d="M426.49,331.75c0-4.82,2.7-7.67,6.6-7.67s6.6,2.85,6.6,7.67c0,4.84-2.7,7.81-6.6,7.81
		S426.49,336.6,426.49,331.75z M436.91,331.75c0-3.31-1.51-5.3-3.81-5.3c-2.33,0-3.81,1.99-3.81,5.3c0,3.33,1.48,5.46,3.81,5.46
		C435.4,337.21,436.91,335.09,436.91,331.75z"/>
	<path class="st44" d="M442.74,324.35h9.05v2.28h-6.33v4.18h5.39v2.28h-5.39v6.19h-2.72V324.35z"/>
	<path class="st44" d="M454.46,324.35h9.05v2.28h-6.33v4.18h5.39v2.28h-5.39v6.19h-2.72V324.35z"/>
	<path class="st44" d="M465.29,342.63c1.71-2.95,2.49-6.35,2.49-9.69s-0.78-6.74-2.49-9.69l1.69-0.73c1.9,3.11,3.02,6.4,3.02,10.42
		c0,4.02-1.12,7.31-3.02,10.42L465.29,342.63z"/>
</g>
<g>
	<path class="st44" d="M163.98,486.91h2.88l1.99,7.47c0.46,1.69,0.8,3.15,1.3,4.84h0.09c0.5-1.69,0.82-3.15,1.3-4.84l2.12-7.47h2.79
		l-4.71,14.94h-3.22L163.98,486.91z"/>
	<path class="st44" d="M178.3,486.91h9.02v2.28h-6.3v3.75h5.35v2.28h-5.35v4.34h6.53v2.28h-9.25V486.91z"/>
	<path class="st44" d="M190.66,486.91h5.05c3.13,0,5.53,1.1,5.53,4.45c0,2.26-1.17,3.65-2.95,4.27l3.54,6.21h-3.04l-3.2-5.8h-2.22
		v5.8h-2.72V486.91z M195.44,493.88c2.03,0,3.13-0.85,3.13-2.51c0-1.69-1.1-2.28-3.13-2.28h-2.06v4.8H195.44z"/>
	<path class="st44" d="M202.94,499.93l1.46-1.78c1.07,1.03,2.56,1.62,4,1.62c1.65,0,2.56-0.75,2.56-1.9c0-1.19-0.96-1.58-2.31-2.15
		l-2.03-0.89c-1.48-0.62-3.02-1.78-3.02-3.95c0-2.4,2.1-4.25,5.03-4.25c1.8,0,3.47,0.73,4.64,1.85l-1.46,1.78
		c-0.94-0.8-2.03-1.26-3.18-1.26c-1.39,0-2.28,0.64-2.28,1.71c0,1.14,1.12,1.55,2.35,2.08l2.01,0.82c1.78,0.75,3.02,1.87,3.02,4.04
		c0,2.42-2.01,4.45-5.39,4.45C206.27,502.12,204.35,501.37,202.94,499.93z"/>
	<path class="st44" d="M216.48,486.91h2.72v14.94h-2.72V486.91z"/>
	<path class="st44" d="M222.24,494.31c0-4.82,2.7-7.67,6.6-7.67s6.6,2.86,6.6,7.67c0,4.84-2.7,7.81-6.6,7.81
		S222.24,499.15,222.24,494.31z M232.66,494.31c0-3.31-1.51-5.3-3.81-5.3c-2.33,0-3.81,1.99-3.81,5.3c0,3.33,1.48,5.46,3.81,5.46
		C231.15,499.77,232.66,497.65,232.66,494.31z"/>
	<path class="st44" d="M238.49,486.91h2.9l4.48,8.22c0.55,1,1.05,2.19,1.53,3.38h0.09c-0.16-1.6-0.34-3.43-0.34-5.07v-6.53h2.54
		v14.94h-2.9l-4.48-8.22c-0.55-1-1.05-2.19-1.53-3.38h-0.09c0.16,1.55,0.34,3.4,0.34,5.07v6.53h-2.54V486.91z"/>
	<path class="st44" d="M257.36,494.42c0-4.89,3.06-7.79,6.85-7.79c1.87,0,3.38,0.87,4.32,1.9l-1.44,1.67
		c-0.78-0.75-1.67-1.19-2.83-1.19c-2.38,0-4.11,2.01-4.11,5.35c0,3.36,1.58,5.41,4.07,5.41c1.3,0,2.33-0.53,3.15-1.44l1.46,1.62
		c-1.26,1.44-2.81,2.17-4.73,2.17C260.36,502.12,257.36,499.38,257.36,494.42z"/>
	<path class="st44" d="M269.84,494.31c0-4.82,2.7-7.67,6.6-7.67s6.6,2.86,6.6,7.67c0,4.84-2.7,7.81-6.6,7.81
		S269.84,499.15,269.84,494.31z M280.26,494.31c0-3.31-1.51-5.3-3.81-5.3c-2.33,0-3.81,1.99-3.81,5.3c0,3.33,1.48,5.46,3.81,5.46
		C278.75,499.77,280.26,497.65,280.26,494.31z"/>
	<path class="st44" d="M286.08,486.91h2.9l4.48,8.22c0.55,1,1.05,2.19,1.53,3.38h0.09c-0.16-1.6-0.34-3.43-0.34-5.07v-6.53h2.54
		v14.94h-2.9l-4.48-8.22c-0.55-1-1.05-2.19-1.53-3.38h-0.09c0.16,1.55,0.34,3.4,0.34,5.07v6.53h-2.54V486.91z"/>
	<path class="st44" d="M301.12,486.91h9.05v2.28h-6.33v4.18h5.39v2.28h-5.39v6.19h-2.72V486.91z"/>
	<path class="st44" d="M312.84,486.91h2.72v12.65h6.17v2.28h-8.89V486.91z"/>
	<path class="st44" d="M324.38,486.91h2.72v14.94h-2.72V486.91z"/>
	<path class="st44" d="M330.14,494.42c0-4.89,3.06-7.79,6.85-7.79c1.87,0,3.38,0.87,4.32,1.9l-1.44,1.67
		c-0.78-0.75-1.67-1.19-2.83-1.19c-2.38,0-4.11,2.01-4.11,5.35c0,3.36,1.58,5.41,4.07,5.41c1.3,0,2.33-0.53,3.15-1.44l1.46,1.62
		c-1.26,1.44-2.81,2.17-4.73,2.17C333.13,502.12,330.14,499.38,330.14,494.42z"/>
	<path class="st44" d="M346.79,489.19h-4.29v-2.28h11.31v2.28h-4.29v12.65h-2.72V489.19z"/>
	<path class="st44" d="M354.61,499.93l1.46-1.78c1.07,1.03,2.56,1.62,4,1.62c1.65,0,2.56-0.75,2.56-1.9c0-1.19-0.96-1.58-2.31-2.15
		l-2.03-0.89c-1.48-0.62-3.02-1.78-3.02-3.95c0-2.4,2.1-4.25,5.03-4.25c1.8,0,3.47,0.73,4.64,1.85l-1.46,1.78
		c-0.94-0.8-2.03-1.26-3.18-1.26c-1.39,0-2.28,0.64-2.28,1.71c0,1.14,1.12,1.55,2.35,2.08l2.01,0.82c1.78,0.75,3.02,1.87,3.02,4.04
		c0,2.42-2.01,4.45-5.39,4.45C357.95,502.12,356.03,501.37,354.61,499.93z"/>
</g>
<g>
	<path class="st44" d="M164.48,638.69h2.79l1.28,7.54c0.25,1.6,0.46,3.15,0.64,4.89h0.09c0.27-1.74,0.57-3.31,0.91-4.89l1.78-7.54
		h2.6l1.78,7.54c0.34,1.55,0.69,3.15,0.96,4.89h0.09c0.18-1.74,0.41-3.31,0.64-4.89l1.28-7.54h2.58l-2.86,14.94h-3.47l-1.78-7.86
		c-0.27-1.19-0.37-2.24-0.55-3.61h-0.09c-0.18,1.37-0.34,2.42-0.59,3.61l-1.69,7.86h-3.43L164.48,638.69z"/>
	<path class="st44" d="M187.19,638.69h3.2l4.84,14.94h-2.88l-1.14-4h-4.96l-1.14,4h-2.76L187.19,638.69z M186.87,647.51h3.75
		l-0.5-1.78c-0.48-1.58-0.91-3.29-1.35-4.91h-0.09c-0.39,1.64-0.82,3.33-1.3,4.91L186.87,647.51z"/>
	<path class="st44" d="M197.13,638.69h2.72v14.94h-2.72V638.69z"/>
	<path class="st44" d="M206.66,640.98h-4.29v-2.28h11.31v2.28h-4.29v12.65h-2.72V640.98z"/>
	<path class="st44" d="M216.21,638.69h2.72v14.94h-2.72V638.69z"/>
	<path class="st44" d="M222.75,638.69h2.9l4.48,8.22c0.55,1,1.05,2.19,1.53,3.38h0.09c-0.16-1.6-0.34-3.43-0.34-5.07v-6.53h2.54
		v14.94h-2.9l-4.48-8.22c-0.55-1-1.05-2.19-1.53-3.38h-0.09c0.16,1.55,0.34,3.4,0.34,5.07v6.53h-2.54V638.69z"/>
	<path class="st44" d="M237,646.21c0-4.89,3.11-7.79,7.08-7.79c2.12,0,3.59,0.91,4.52,1.9l-1.44,1.67
		c-0.75-0.73-1.62-1.19-2.99-1.19c-2.63,0-4.39,2.01-4.39,5.35c0,3.36,1.55,5.41,4.55,5.41c0.8,0,1.6-0.23,2.06-0.64v-3.18h-2.76
		v-2.22h5.21v6.6c-1,1-2.74,1.78-4.77,1.78C240.02,653.91,237,651.16,237,646.21z"/>
	<path class="st44" d="M256.81,638.69h9.05v2.28h-6.33v4.18h5.39v2.28h-5.39v6.19h-2.72V638.69z"/>
	<path class="st44" d="M267.53,646.09c0-4.82,2.7-7.67,6.6-7.67s6.6,2.86,6.6,7.67c0,4.84-2.7,7.81-6.6,7.81
		S267.53,650.94,267.53,646.09z M277.95,646.09c0-3.31-1.51-5.3-3.81-5.3c-2.33,0-3.81,1.99-3.81,5.3c0,3.33,1.48,5.46,3.81,5.46
		C276.44,651.55,277.95,649.43,277.95,646.09z"/>
	<path class="st44" d="M283.78,638.69h5.05c3.13,0,5.53,1.1,5.53,4.45c0,2.26-1.17,3.65-2.95,4.27l3.54,6.21h-3.04l-3.2-5.8h-2.22
		v5.8h-2.72V638.69z M288.55,645.66c2.03,0,3.13-0.85,3.13-2.51c0-1.69-1.1-2.28-3.13-2.28h-2.06v4.8H288.55z"/>
	<path class="st44" d="M302.01,638.69h9.05v2.28h-6.33v4.18h5.39v2.28h-5.39v6.19h-2.72V638.69z"/>
	<path class="st44" d="M313.73,638.69h9.02v2.28h-6.3v3.75h5.35v2.28h-5.35v4.34h6.53v2.28h-9.25V638.69z"/>
	<path class="st44" d="M326.09,638.69h9.02v2.28h-6.3v3.75h5.35v2.28h-5.35v4.34h6.53v2.28h-9.25V638.69z"/>
	<path class="st44" d="M338.46,638.69h4c4.57,0,7.31,2.44,7.31,7.4c0,4.98-2.74,7.54-7.17,7.54h-4.13V638.69z M342.27,651.44
		c2.97,0,4.68-1.67,4.68-5.34c0-3.65-1.71-5.19-4.68-5.19h-1.1v10.53H342.27z"/>
	<path class="st44" d="M352.8,638.69h4.8c3.08,0,5.35,0.94,5.35,3.68c0,1.42-0.78,2.79-2.06,3.24v0.09
		c1.65,0.37,2.86,1.53,2.86,3.54c0,2.99-2.47,4.39-5.76,4.39h-5.19V638.69z M357.37,644.84c2.03,0,2.92-0.8,2.92-2.08
		c0-1.42-0.96-1.94-2.88-1.94h-1.9v4.02H357.37z M357.72,651.51c2.17,0,3.36-0.75,3.36-2.42c0-1.53-1.17-2.22-3.36-2.22h-2.19v4.64
		H357.72z"/>
	<path class="st44" d="M369.42,638.69h3.2l4.84,14.94h-2.88l-1.14-4h-4.96l-1.14,4h-2.76L369.42,638.69z M369.1,647.51h3.75
		l-0.5-1.78c-0.48-1.58-0.91-3.29-1.35-4.91h-0.09c-0.39,1.64-0.82,3.33-1.3,4.91L369.1,647.51z"/>
	<path class="st44" d="M378.35,646.21c0-4.89,3.06-7.79,6.85-7.79c1.87,0,3.38,0.87,4.32,1.9l-1.44,1.67
		c-0.78-0.75-1.67-1.19-2.83-1.19c-2.38,0-4.11,2.01-4.11,5.35c0,3.36,1.58,5.41,4.07,5.41c1.3,0,2.33-0.53,3.15-1.44l1.46,1.62
		c-1.26,1.44-2.81,2.17-4.73,2.17C381.34,653.91,378.35,651.16,378.35,646.21z"/>
	<path class="st44" d="M392.36,638.69h2.72v6.71h0.07l5.23-6.71h3.02l-4.59,5.85l5.37,9.09h-2.99l-4-6.97l-2.1,2.65v4.32h-2.72
		V638.69z"/>
</g>
<g>
	<path class="st44" d="M164.94,809.69l1.46-1.78c1.07,1.03,2.56,1.62,4,1.62c1.65,0,2.56-0.75,2.56-1.9c0-1.19-0.96-1.58-2.31-2.15
		l-2.03-0.89c-1.48-0.62-3.02-1.78-3.02-3.95c0-2.4,2.1-4.25,5.03-4.25c1.8,0,3.47,0.73,4.64,1.85l-1.46,1.78
		c-0.94-0.8-2.03-1.26-3.18-1.26c-1.39,0-2.28,0.64-2.28,1.71c0,1.14,1.12,1.55,2.35,2.08l2.01,0.82c1.78,0.75,3.02,1.87,3.02,4.04
		c0,2.42-2.01,4.45-5.39,4.45C168.27,811.88,166.35,811.13,164.94,809.69z"/>
	<path class="st44" d="M178.49,796.67h9.02v2.28h-6.3v3.75h5.35v2.28h-5.35v4.34h6.53v2.28h-9.25V796.67z"/>
	<path class="st44" d="M195.42,811.77c-3.22-0.57-5.35-3.4-5.35-7.7c0-4.82,2.7-7.67,6.6-7.67s6.6,2.86,6.6,7.67
		c0,4.13-1.96,6.92-5,7.63c0.71,1.19,2.06,1.69,3.45,1.69c0.66,0,1.21-0.09,1.62-0.21l0.5,1.96c-0.5,0.25-1.37,0.43-2.42,0.43
		C198.45,815.58,196.37,813.98,195.42,811.77z M200.49,804.07c0-3.31-1.51-5.3-3.81-5.3c-2.33,0-3.81,1.99-3.81,5.3
		c0,3.47,1.48,5.57,3.81,5.57C198.98,809.64,200.49,807.54,200.49,804.07z"/>
	<path class="st44" d="M206.22,805.03v-8.36h2.72v8.57c0,3.22,1.19,4.29,2.99,4.29s3.04-1.07,3.04-4.29v-8.57h2.63v8.36
		c0,4.91-2.17,6.85-5.67,6.85S206.22,809.94,206.22,805.03z"/>
	<path class="st44" d="M221.35,796.67h9.02v2.28h-6.3v3.75h5.35v2.28h-5.35v4.34h6.53v2.28h-9.25V796.67z"/>
	<path class="st44" d="M233.71,796.67h2.9l4.48,8.22c0.55,1,1.05,2.19,1.53,3.38h0.09c-0.16-1.6-0.34-3.43-0.34-5.07v-6.53h2.54
		v14.94H242l-4.48-8.22c-0.55-1-1.05-2.19-1.53-3.38h-0.09c0.16,1.55,0.34,3.4,0.34,5.07v6.53h-2.54V796.67z"/>
	<path class="st44" d="M251.74,798.95h-4.29v-2.28h11.31v2.28h-4.29v12.65h-2.72V798.95z"/>
	<path class="st44" d="M261.29,796.67h2.72v14.94h-2.72V796.67z"/>
	<path class="st44" d="M270.73,796.67h3.2l4.84,14.94h-2.88l-1.14-4h-4.96l-1.14,4h-2.76L270.73,796.67z M270.41,805.48h3.75
		l-0.5-1.78c-0.48-1.58-0.91-3.29-1.35-4.91h-0.09c-0.39,1.64-0.82,3.33-1.3,4.91L270.41,805.48z"/>
	<path class="st44" d="M280.67,796.67h2.72v12.65h6.17v2.28h-8.89V796.67z"/>
</g>
<g>
	<path class="st44" d="M51.91,36.03h7.27l3.87,10.5c0.47,1.42,0.87,3,1.34,4.5h0.16c0.47-1.5,0.87-3.08,1.34-4.5l3.71-10.5h7.27
		V61.7h-6.16v-7.58c0-2.61,0.55-6.59,0.87-9.16h-0.16l-2.13,6.16l-3.16,8.49h-3.63l-3.16-8.49l-2.05-6.16h-0.16
		c0.32,2.57,0.87,6.56,0.87,9.16v7.58h-6.08V36.03z"/>
	<path class="st44" d="M82.55,36.03h6.79V61.7h-6.79V36.03z"/>
	<path class="st44" d="M93.93,49.07c0-8.61,5.92-13.51,12.4-13.51c3.4,0,6.16,1.58,7.98,3.4l-3.55,4.34
		c-1.26-1.11-2.53-1.9-4.26-1.9c-3,0-5.61,2.76-5.61,7.42c0,4.82,2.21,7.5,5.53,7.5c1.97,0,3.55-1.03,4.66-2.21l3.55,4.26
		c-2.17,2.53-5.13,3.79-8.45,3.79C99.61,62.18,93.93,57.83,93.93,49.07z"/>
	<path class="st44" d="M118.17,36.03h9.71c5.53,0,10.27,1.9,10.27,8.29c0,3.67-1.66,6.08-4.15,7.42l5.57,9.95H132l-4.42-8.61h-2.61
		v8.61h-6.79V36.03z M127.42,47.72c2.69,0,4.11-1.18,4.11-3.4s-1.42-2.92-4.11-2.92h-2.45v6.32H127.42z"/>
	<path class="st44" d="M141.95,48.75c0-8.45,4.82-13.19,11.93-13.19c7.11,0,11.93,4.78,11.93,13.19c0,8.45-4.82,13.43-11.93,13.43
		C146.77,62.18,141.95,57.2,141.95,48.75z M158.85,48.75c0-4.66-1.9-7.35-4.98-7.35s-4.98,2.69-4.98,7.35s1.9,7.58,4.98,7.58
		S158.85,53.41,158.85,48.75z"/>
	<path class="st44" d="M168.8,58.5l3.87-4.66c1.82,1.46,4.11,2.49,6,2.49c2.05,0,2.92-0.67,2.92-1.82c0-1.22-1.3-1.62-3.48-2.49
		l-3.2-1.34c-2.76-1.11-5.17-3.44-5.17-7.15c0-4.38,3.95-7.98,9.56-7.98c2.92,0,6.16,1.11,8.53,3.44l-3.4,4.26
		c-1.74-1.22-3.24-1.86-5.13-1.86c-1.66,0-2.69,0.59-2.69,1.74c0,1.22,1.46,1.66,3.79,2.57l3.12,1.22c3.2,1.26,5.02,3.48,5.02,7.03
		c0,4.34-3.63,8.21-10.03,8.21C175.28,62.18,171.56,60.99,168.8,58.5z"/>
	<path class="st44" d="M191.55,48.75c0-8.45,4.82-13.19,11.93-13.19c7.11,0,11.93,4.78,11.93,13.19c0,8.45-4.82,13.43-11.93,13.43
		C196.36,62.18,191.55,57.2,191.55,48.75z M208.45,48.75c0-4.66-1.9-7.35-4.98-7.35c-3.08,0-4.98,2.69-4.98,7.35s1.9,7.58,4.98,7.58
		C206.55,56.33,208.45,53.41,208.45,48.75z"/>
	<path class="st44" d="M219.98,36.03h16.74v5.69h-9.95v4.9h8.53v5.69h-8.53v9.4h-6.79V36.03z"/>
	<path class="st44" d="M246.04,41.72h-6.79v-5.69h20.38v5.69h-6.79V61.7h-6.79V41.72z"/>
	<path class="st44" d="M268.87,36.03h6.95l1.42,11.22c0.28,2.69,0.59,5.37,0.87,8.06h0.16c0.47-2.69,0.95-5.41,1.42-8.06l2.45-11.22
		h5.69l2.45,11.22c0.47,2.57,0.95,5.33,1.42,8.06h0.16c0.28-2.72,0.59-5.45,0.87-8.06l1.42-11.22h6.48l-4.26,25.67h-8.61
		l-1.97-10.19c-0.39-1.97-0.71-4.11-0.95-6h-0.16c-0.28,1.9-0.55,4.03-0.95,6l-1.9,10.19h-8.45L268.87,36.03z"/>
	<path class="st44" d="M302.75,48.75c0-8.45,4.82-13.19,11.93-13.19c7.11,0,11.93,4.78,11.93,13.19c0,8.45-4.82,13.43-11.93,13.43
		C307.57,62.18,302.75,57.2,302.75,48.75z M319.65,48.75c0-4.66-1.9-7.35-4.98-7.35s-4.98,2.69-4.98,7.35s1.9,7.58,4.98,7.58
		S319.65,53.41,319.65,48.75z"/>
	<path class="st44" d="M331.18,36.03h9.71c5.53,0,10.27,1.9,10.27,8.29c0,3.67-1.66,6.08-4.15,7.42l5.57,9.95H345l-4.42-8.61h-2.61
		v8.61h-6.79V36.03z M340.42,47.72c2.69,0,4.11-1.18,4.11-3.4s-1.42-2.92-4.11-2.92h-2.45v6.32H340.42z"/>
	<path class="st44" d="M356.06,36.03h7.58c7.82,0,13.19,3.63,13.19,12.72s-5.37,12.95-12.79,12.95h-7.98V36.03z M363.25,56.25
		c3.71,0,6.63-1.5,6.63-7.5s-2.92-7.27-6.63-7.27h-0.4v14.77H363.25z"/>
</g>
<g>
	<path class="st44" d="M577.37,49.07c0-8.61,5.92-13.51,12.79-13.51c3.79,0,6.55,1.58,8.37,3.4l-3.55,4.34
		c-1.26-1.11-2.53-1.9-4.58-1.9c-3.47,0-6.08,2.76-6.08,7.42c0,4.82,2.13,7.5,6.71,7.5c0.71,0,1.5-0.16,1.97-0.47V52.3h-3.79v-5.53
		h9.79v12.24c-1.82,1.74-5.05,3.16-8.69,3.16C583.13,62.18,577.37,57.83,577.37,49.07z"/>
	<path class="st44" d="M602.88,48.75c0-8.45,4.82-13.19,11.93-13.19s11.93,4.78,11.93,13.19c0,8.45-4.82,13.43-11.93,13.43
		S602.88,57.2,602.88,48.75z M619.78,48.75c0-4.66-1.9-7.35-4.98-7.35s-4.98,2.69-4.98,7.35s1.9,7.58,4.98,7.58
		S619.78,53.41,619.78,48.75z"/>
	<path class="st44" d="M630.2,48.75c0-8.45,4.82-13.19,11.93-13.19c7.11,0,11.93,4.78,11.93,13.19c0,8.45-4.82,13.43-11.93,13.43
		C635.02,62.18,630.2,57.2,630.2,48.75z M647.11,48.75c0-4.66-1.9-7.35-4.98-7.35c-3.08,0-4.98,2.69-4.98,7.35s1.9,7.58,4.98,7.58
		C645.21,56.33,647.11,53.41,647.11,48.75z"/>
	<path class="st44" d="M657.53,49.07c0-8.61,5.92-13.51,12.79-13.51c3.79,0,6.55,1.58,8.37,3.4l-3.55,4.34
		c-1.26-1.11-2.53-1.9-4.58-1.9c-3.47,0-6.08,2.76-6.08,7.42c0,4.82,2.13,7.5,6.71,7.5c0.71,0,1.5-0.16,1.97-0.47V52.3h-3.79v-5.53
		h9.79v12.24c-1.82,1.74-5.05,3.16-8.69,3.16C663.3,62.18,657.53,57.83,657.53,49.07z"/>
	<path class="st44" d="M684.15,36.03h6.79v19.98h9.71v5.69h-16.51V36.03z"/>
	<path class="st44" d="M705.08,36.03h16.59v5.69h-9.79v4.03h8.37v5.69h-8.37v4.58h10.19v5.69h-16.98V36.03z"/>
	<path class="st44" d="M734.93,36.03h7.58c7.82,0,13.19,3.63,13.19,12.72s-5.37,12.95-12.79,12.95h-7.98V36.03z M742.12,56.25
		c3.71,0,6.63-1.5,6.63-7.5s-2.92-7.27-6.63-7.27h-0.39v14.77H742.12z"/>
	<path class="st44" d="M759.18,48.75c0-8.45,4.82-13.19,11.93-13.19c7.11,0,11.93,4.78,11.93,13.19c0,8.45-4.82,13.43-11.93,13.43
		C764,62.18,759.18,57.2,759.18,48.75z M776.08,48.75c0-4.66-1.9-7.35-4.98-7.35c-3.08,0-4.98,2.69-4.98,7.35s1.9,7.58,4.98,7.58
		C774.18,56.33,776.08,53.41,776.08,48.75z"/>
	<path class="st44" d="M786.51,49.07c0-8.61,5.92-13.51,12.4-13.51c3.4,0,6.16,1.58,7.98,3.4l-3.55,4.34
		c-1.26-1.11-2.53-1.9-4.26-1.9c-3,0-5.61,2.76-5.61,7.42c0,4.82,2.21,7.5,5.53,7.5c1.97,0,3.55-1.03,4.66-2.21l3.55,4.26
		c-2.17,2.53-5.13,3.79-8.45,3.79C792.19,62.18,786.51,57.83,786.51,49.07z"/>
	<path class="st44" d="M807.99,58.5l3.87-4.66c1.82,1.46,4.11,2.49,6,2.49c2.05,0,2.92-0.67,2.92-1.82c0-1.22-1.3-1.62-3.47-2.49
		l-3.2-1.34c-2.76-1.11-5.17-3.44-5.17-7.15c0-4.38,3.95-7.98,9.56-7.98c2.92,0,6.16,1.11,8.53,3.44l-3.4,4.26
		c-1.74-1.22-3.24-1.86-5.13-1.86c-1.66,0-2.69,0.59-2.69,1.74c0,1.22,1.46,1.66,3.79,2.57l3.12,1.22c3.2,1.26,5.01,3.48,5.01,7.03
		c0,4.34-3.63,8.21-10.03,8.21C814.46,62.18,810.75,60.99,807.99,58.5z"/>
</g>
<g>
	<path class="st18" d="M940.31,99.92H575.63c-1.38,0-2.5-1.12-2.5-2.5s1.12-2.5,2.5-2.5h364.68c1.38,0,2.5,1.12,2.5,2.5
		S941.69,99.92,940.31,99.92z"/>
</g>
<g>
	<path class="st18" d="M407.52,99.92H42.84c-1.38,0-2.5-1.12-2.5-2.5s1.12-2.5,2.5-2.5h364.68c1.38,0,2.5,1.12,2.5,2.5
		S408.9,99.92,407.52,99.92z"/>
</g>
<g>
	<path class="st18" d="M505.57,853.96c-1.38,0-2.5-1.12-2.5-2.5V40.07c0-1.38,1.12-2.5,2.5-2.5s2.5,1.12,2.5,2.5v811.39
		C508.07,852.84,506.95,853.96,505.57,853.96z"/>
</g>
<g>
	<g>
		<rect x="55.79" y="125.28" class="st10" width="63.73" height="83.8"/>
	</g>
	<g>
		<circle class="st11" cx="112.28" cy="200.82" r="23.42"/>
	</g>
	<g>
		<path class="st14" d="M96.74,219.83c4.15,3.82,9.58,5.91,15.55,5.91c5.97,0,11.41-2.24,15.55-5.91
			c-4.14-3.67-9.58-5.91-15.55-5.91C106.32,213.92,100.87,216.15,96.74,219.83z"/>
	</g>
	<g>
		<circle class="st14" cx="112.28" cy="198.63" r="7.49"/>
	</g>
	<g>
		<path class="st35" d="M79.16,211.58H55.79c-1.38,0-2.5-1.12-2.5-2.5v-83.8c0-1.38,1.12-2.5,2.5-2.5h64.27c1.38,0,2.5,1.12,2.5,2.5
			v43.04c0,1.38-1.12,2.5-2.5,2.5s-2.5-1.12-2.5-2.5v-40.54H58.29v78.8h20.87c1.38,0,2.5,1.12,2.5,2.5S80.54,211.58,79.16,211.58z"
			/>
	</g>
	<g>
		<path class="st18" d="M83.92,149.59H69.49c-1.38,0-2.5-1.12-2.5-2.5s1.12-2.5,2.5-2.5h14.43c1.38,0,2.5,1.12,2.5,2.5
			S85.3,149.59,83.92,149.59z"/>
	</g>
	<g>
		<path class="st18" d="M106.36,162.98H69.49c-1.38,0-2.5-1.12-2.5-2.5s1.12-2.5,2.5-2.5h36.87c1.38,0,2.5,1.12,2.5,2.5
			S107.74,162.98,106.36,162.98z"/>
	</g>
	<g>
		<path class="st18" d="M106.36,176.38H69.49c-1.38,0-2.5-1.12-2.5-2.5s1.12-2.5,2.5-2.5h36.87c1.38,0,2.5,1.12,2.5,2.5
			S107.74,176.38,106.36,176.38z"/>
	</g>
	<g>
		<path class="st18" d="M83.92,189.77H69.49c-1.38,0-2.5-1.12-2.5-2.5s1.12-2.5,2.5-2.5h14.43c1.38,0,2.5,1.12,2.5,2.5
			S85.3,189.77,83.92,189.77z"/>
	</g>
	<g>
		<path class="st35" d="M112.28,227.71c-6.63,0-12.87-2.38-17.56-6.69c-0.52-0.48-0.81-1.15-0.81-1.86
			c0.01-0.71,0.31-1.38,0.84-1.85c4.84-4.3,11.06-6.66,17.53-6.66c6.47,0,12.69,2.37,17.53,6.66c0.53,0.47,0.84,1.15,0.84,1.87
			s-0.31,1.39-0.84,1.87C124.98,225.34,118.75,227.71,112.28,227.71z M100.47,219.2c3.4,2.3,7.43,3.5,11.82,3.5
			c4.21,0,8.3-1.24,11.78-3.53c-3.48-2.29-7.56-3.53-11.78-3.53C108.05,215.64,103.95,216.89,100.47,219.2z"/>
	</g>
	<g>
		<path class="st35" d="M112.28,208.11c-5.37,0-9.74-4.37-9.74-9.74s4.37-9.74,9.74-9.74s9.74,4.37,9.74,9.74
			S117.65,208.11,112.28,208.11z M112.28,193.64c-2.61,0-4.74,2.12-4.74,4.74s2.12,4.74,4.74,4.74s4.74-2.12,4.74-4.74
			S114.9,193.64,112.28,193.64z"/>
	</g>
	<g>
		<path class="st35" d="M133.55,214.73c-0.39,0-0.78-0.09-1.14-0.28c-1.23-0.63-1.71-2.14-1.08-3.37c1.57-3.05,2.36-6.34,2.36-9.78
			c0-11.8-9.6-21.41-21.41-21.41c-11.8,0-21.41,9.6-21.41,21.41c0,3.42,0.78,6.68,2.33,9.71c0.63,1.23,0.14,2.74-1.09,3.36
			c-1.23,0.63-2.74,0.14-3.36-1.09c-1.91-3.73-2.87-7.77-2.87-11.98c0-14.56,11.85-26.41,26.41-26.41
			c14.56,0,26.41,11.85,26.41,26.41c0,4.19-1.01,8.37-2.92,12.07C135.33,214.24,134.45,214.73,133.55,214.73z"/>
	</g>
</g>
<g>
	<g>
		<polygon class="st10" points="136.51,341.5 136.02,283.19 77.53,283.19 77.53,294.22 66.49,294.22 66.49,305.25 55.47,305.25 
			55.47,382.15 106.46,382.15 106.46,371.12 117.48,371.12 117.48,360.09 117.91,360.1 		"/>
	</g>
	<g>
		<polygon class="st13" points="117.48,359.51 77.53,359.51 77.53,294.22 66.49,294.22 66.49,305.25 55.47,305.25 55.47,381.22 
			106.46,381.22 106.46,370.54 117.48,370.19 		"/>
	</g>
	<g>
		<g>
			<path class="st35" d="M117.91,362.6H77.53c-1.38,0-2.5-1.12-2.5-2.5v-76.9c0-1.38,1.12-2.5,2.5-2.5h58.98
				c1.38,0,2.5,1.12,2.5,2.5v47.79c0,1.38-1.12,2.5-2.5,2.5s-2.5-1.12-2.5-2.5v-45.29H80.03v71.9h37.88c1.38,0,2.5,1.12,2.5,2.5
				S119.29,362.6,117.91,362.6z"/>
		</g>
		<g>
			<path class="st35" d="M106.46,384.65H55.47c-1.38,0-2.5-1.12-2.5-2.5v-76.9c0-1.38,1.12-2.5,2.5-2.5h3.18
				c1.38,0,2.5,1.12,2.5,2.5s-1.12,2.5-2.5,2.5h-0.68v71.9h45.99v-0.04c0-1.38,1.12-2.5,2.5-2.5s2.5,1.12,2.5,2.5v2.54
				C108.96,383.53,107.85,384.65,106.46,384.65z"/>
		</g>
		<g>
			<path class="st35" d="M117.48,373.62H66.49c-1.38,0-2.5-1.12-2.5-2.5v-76.9c0-1.38,1.12-2.5,2.5-2.5h3.18
				c1.38,0,2.5,1.12,2.5,2.5s-1.12,2.5-2.5,2.5h-0.68v71.9h45.99v-0.04c0-1.38,1.12-2.5,2.5-2.5s2.5,1.12,2.5,2.5v2.54
				C119.98,372.5,118.86,373.62,117.48,373.62z"/>
		</g>
		<g>
			<path class="st35" d="M117.91,362.6c-0.32,0-0.65-0.06-0.96-0.19c-0.93-0.39-1.54-1.3-1.54-2.31v-18.6c0-1.38,1.12-2.5,2.5-2.5
				h18.6c1.01,0,1.92,0.61,2.31,1.54c0.39,0.93,0.17,2.01-0.54,2.72l-18.6,18.6C119.2,362.34,118.56,362.6,117.91,362.6z
				 M120.41,344v10.06L130.47,344H120.41z"/>
		</g>
		<g>
			<path class="st18" d="M105.86,300.15H90.1c-1.38,0-2.5-1.12-2.5-2.5s1.12-2.5,2.5-2.5h15.77c1.38,0,2.5,1.12,2.5,2.5
				S107.25,300.15,105.86,300.15z"/>
		</g>
		<g>
			<path class="st18" d="M123.94,312.44H90.1c-1.38,0-2.5-1.12-2.5-2.5s1.12-2.5,2.5-2.5h33.84c1.38,0,2.5,1.12,2.5,2.5
				S125.32,312.44,123.94,312.44z"/>
		</g>
		<g>
			<path class="st18" d="M123.94,324.73H90.1c-1.38,0-2.5-1.12-2.5-2.5s1.12-2.5,2.5-2.5h33.84c1.38,0,2.5,1.12,2.5,2.5
				S125.32,324.73,123.94,324.73z"/>
		</g>
		<g>
			<path class="st18" d="M105.86,337.03H90.1c-1.38,0-2.5-1.12-2.5-2.5s1.12-2.5,2.5-2.5h15.77c1.38,0,2.5,1.12,2.5,2.5
				S107.25,337.03,105.86,337.03z"/>
		</g>
	</g>
</g>
<g>
	<g>
		<rect x="57.54" y="438.98" class="st10" width="42.1" height="54.89"/>
	</g>
	<g>
		<polygon class="st10" points="124.82,540.77 95.99,540.98 95.99,486.09 138.09,486.09 138.09,527.5 		"/>
	</g>
	<g>
		<path class="st13" d="M138.09,519.72h-14.5c-3.62,0-6.55,2.93-6.55,6.55v14.5h7.78V527.5h13.27V519.72z"/>
	</g>
	<g>
		<g>
			<circle class="st22" cx="132.56" cy="446.16" r="13.65"/>
		</g>
	</g>
	<g>
		<g>
			<circle class="st22" cx="59.42" cy="533.51" r="13.65"/>
		</g>
	</g>
	<g>
		<g>
			<path class="st35" d="M86.44,496.37h-28.9c-1.38,0-2.5-1.12-2.5-2.5v-54.89c0-1.38,1.12-2.5,2.5-2.5h42.1
				c1.38,0,2.5,1.12,2.5,2.5v37.35c0,1.38-1.12,2.5-2.5,2.5s-2.5-1.12-2.5-2.5v-34.85h-37.1v49.89h26.4c1.38,0,2.5,1.12,2.5,2.5
				S87.82,496.37,86.44,496.37z"/>
		</g>
		<g>
			<path class="st18" d="M78.59,459.22H66.51c-1.38,0-2.5-1.12-2.5-2.5s1.12-2.5,2.5-2.5h12.08c1.38,0,2.5,1.12,2.5,2.5
				S79.97,459.22,78.59,459.22z"/>
		</g>
		<g>
			<path class="st18" d="M90.67,468.93H66.51c-1.38,0-2.5-1.12-2.5-2.5s1.12-2.5,2.5-2.5h24.15c1.38,0,2.5,1.12,2.5,2.5
				S92.05,468.93,90.67,468.93z"/>
		</g>
		<g>
			<path class="st18" d="M78.59,478.63H66.51c-1.38,0-2.5-1.12-2.5-2.5s1.12-2.5,2.5-2.5h12.08c1.38,0,2.5,1.12,2.5,2.5
				S79.97,478.63,78.59,478.63z"/>
		</g>
	</g>
	<g>
		<g>
			<path class="st35" d="M124.82,543.27H95.99c-1.38,0-2.5-1.12-2.5-2.5v-54.89c0-1.38,1.12-2.5,2.5-2.5h42.1
				c1.38,0,2.5,1.12,2.5,2.5v32.95c0,1.38-1.12,2.5-2.5,2.5s-2.5-1.12-2.5-2.5v-30.45h-37.1v49.89h26.33c1.38,0,2.5,1.12,2.5,2.5
				S126.2,543.27,124.82,543.27z"/>
		</g>
		<g>
			<path class="st35" d="M124.82,543.27c-0.32,0-0.65-0.06-0.96-0.19c-0.93-0.39-1.54-1.3-1.54-2.31V527.5c0-1.38,1.12-2.5,2.5-2.5
				h13.27c1.01,0,1.92,0.61,2.31,1.54c0.39,0.93,0.17,2.01-0.54,2.72l-13.27,13.27C126.11,543.02,125.47,543.27,124.82,543.27z
				 M127.32,530v4.74l4.74-4.74H127.32z"/>
		</g>
		<g>
			<path class="st18" d="M117.04,506.12h-12.08c-1.38,0-2.5-1.12-2.5-2.5s1.12-2.5,2.5-2.5h12.08c1.38,0,2.5,1.12,2.5,2.5
				S118.42,506.12,117.04,506.12z"/>
		</g>
		<g>
			<path class="st18" d="M129.12,515.83h-24.15c-1.38,0-2.5-1.12-2.5-2.5s1.12-2.5,2.5-2.5h24.15c1.38,0,2.5,1.12,2.5,2.5
				S130.5,515.83,129.12,515.83z"/>
		</g>
		<g>
			<path class="st18" d="M117.04,525.53h-12.08c-1.38,0-2.5-1.12-2.5-2.5s1.12-2.5,2.5-2.5h12.08c1.38,0,2.5,1.12,2.5,2.5
				S118.42,525.53,117.04,525.53z"/>
		</g>
	</g>
	<g>
		<g>
			<g>
				<path class="st35" d="M132.56,462.31c-8.91,0-16.15-7.25-16.15-16.15S123.66,430,132.56,430c8.91,0,16.15,7.25,16.15,16.15
					S141.47,462.31,132.56,462.31z M132.56,435c-6.15,0-11.15,5-11.15,11.15s5,11.15,11.15,11.15c6.15,0,11.15-5,11.15-11.15
					S138.71,435,132.56,435z"/>
			</g>
			<g>
				<path class="st35" d="M132.56,447.26c-1.38,0-2.5-1.12-2.5-2.5v-4.33c0-1.38,1.12-2.5,2.5-2.5s2.5,1.12,2.5,2.5v4.33
					C135.06,446.14,133.94,447.26,132.56,447.26z"/>
			</g>
			<g>
				<path class="st35" d="M132.56,454.39c-0.66,0-1.3-0.27-1.77-0.74c-0.46-0.46-0.73-1.11-0.73-1.76c0-0.66,0.27-1.31,0.73-1.77
					c0.12-0.12,0.24-0.22,0.38-0.31c0.14-0.09,0.28-0.17,0.43-0.23c0.15-0.07,0.31-0.11,0.47-0.15c0.32-0.06,0.66-0.06,0.98,0
					c0.16,0.04,0.31,0.08,0.46,0.15c0.16,0.06,0.3,0.14,0.44,0.23c0.13,0.09,0.26,0.19,0.38,0.31c0.46,0.46,0.73,1.11,0.73,1.77
					c0,0.65-0.27,1.3-0.73,1.76C133.86,454.12,133.21,454.39,132.56,454.39z"/>
			</g>
		</g>
		<g>
			<path class="st35" d="M118.91,448.66h-10.1c-1.38,0-2.5-1.12-2.5-2.5s1.12-2.5,2.5-2.5h10.1c1.38,0,2.5,1.12,2.5,2.5
				S120.29,448.66,118.91,448.66z"/>
		</g>
		<g>
			<path class="st35" d="M132.56,474.71c-1.38,0-2.5-1.12-2.5-2.5v-12.15c0-1.38,1.12-2.5,2.5-2.5s2.5,1.12,2.5,2.5v12.15
				C135.06,473.59,133.94,474.71,132.56,474.71z"/>
		</g>
		<g>
			<path class="st35" d="M132.56,478.02L132.56,478.02c-0.66,0-1.3-0.26-1.77-0.73l-5.53-5.53c-0.98-0.98-0.98-2.56,0-3.54
				c0.98-0.98,2.56-0.98,3.54,0l3.76,3.77l3.77-3.77c0.98-0.98,2.56-0.98,3.54,0c0.98,0.98,0.98,2.56,0,3.54l-5.53,5.53
				C133.86,477.76,133.23,478.02,132.56,478.02z"/>
		</g>
	</g>
	<g>
		<g>
			<g>
				<path class="st35" d="M59.42,549.67c-8.91,0-16.15-7.25-16.15-16.15s7.25-16.15,16.15-16.15s16.15,7.25,16.15,16.15
					S68.32,549.67,59.42,549.67z M59.42,522.36c-6.15,0-11.15,5-11.15,11.15s5,11.15,11.15,11.15s11.15-5,11.15-11.15
					S65.57,522.36,59.42,522.36z"/>
			</g>
			<g>
				<path class="st35" d="M59.42,541.74c-1.38,0-2.5-1.12-2.5-2.5v-4.33c0-1.38,1.12-2.5,2.5-2.5s2.5,1.12,2.5,2.5v4.33
					C61.92,540.62,60.8,541.74,59.42,541.74z"/>
			</g>
			<g>
				<path class="st35" d="M59.41,530.28c-0.65,0-1.3-0.27-1.77-0.73c-0.46-0.47-0.73-1.11-0.73-1.77c0-0.16,0.02-0.33,0.05-0.49
					c0.03-0.16,0.08-0.32,0.14-0.47c0.07-0.15,0.14-0.29,0.23-0.43c0.09-0.13,0.2-0.26,0.31-0.38c0.58-0.58,1.45-0.85,2.26-0.68
					c0.16,0.03,0.32,0.08,0.47,0.14c0.15,0.06,0.29,0.14,0.43,0.23c0.14,0.09,0.27,0.2,0.38,0.31c0.12,0.12,0.22,0.25,0.31,0.38
					c0.09,0.14,0.17,0.28,0.23,0.43s0.11,0.31,0.14,0.47c0.04,0.16,0.05,0.33,0.05,0.49c0,0.66-0.26,1.3-0.73,1.77
					C60.71,530.01,60.07,530.28,59.41,530.28z"/>
			</g>
		</g>
		<g>
			<path class="st35" d="M83.17,536.01h-10.1c-1.38,0-2.5-1.12-2.5-2.5s1.12-2.5,2.5-2.5h10.1c1.38,0,2.5,1.12,2.5,2.5
				S84.55,536.01,83.17,536.01z"/>
		</g>
		<g>
			<path class="st35" d="M59.42,522.11c-1.38,0-2.5-1.12-2.5-2.5v-12.15c0-1.38,1.12-2.5,2.5-2.5s2.5,1.12,2.5,2.5v12.15
				C61.92,520.99,60.8,522.11,59.42,522.11z"/>
		</g>
		<g>
			<path class="st35" d="M64.95,512.18c-0.64,0-1.28-0.24-1.77-0.73l-3.77-3.76l-3.77,3.76c-0.98,0.98-2.56,0.98-3.54,0
				c-0.98-0.98-0.98-2.56,0-3.54l5.53-5.53c0.98-0.98,2.56-0.98,3.54,0l5.53,5.53c0.98,0.98,0.98,2.56,0,3.54
				C66.23,511.94,65.59,512.18,64.95,512.18z"/>
		</g>
	</g>
</g>
<g>
	<g>
		<rect x="55.79" y="597.03" class="st10" width="63.73" height="83.8"/>
	</g>
	<g>
		<circle class="st19" cx="112.28" cy="673.05" r="23.91"/>
	</g>
	<g>
		<path class="st35" d="M79.16,683.33H55.79c-1.38,0-2.5-1.12-2.5-2.5v-83.8c0-1.38,1.12-2.5,2.5-2.5h64.27c1.38,0,2.5,1.12,2.5,2.5
			v43.04c0,1.38-1.12,2.5-2.5,2.5s-2.5-1.12-2.5-2.5v-40.54H58.29v78.8h20.87c1.38,0,2.5,1.12,2.5,2.5S80.54,683.33,79.16,683.33z"
			/>
	</g>
	<g>
		<path class="st18" d="M83.92,621.34H69.49c-1.38,0-2.5-1.12-2.5-2.5s1.12-2.5,2.5-2.5h14.43c1.38,0,2.5,1.12,2.5,2.5
			S85.3,621.34,83.92,621.34z"/>
	</g>
	<g>
		<path class="st18" d="M106.36,634.73H69.49c-1.38,0-2.5-1.12-2.5-2.5s1.12-2.5,2.5-2.5h36.87c1.38,0,2.5,1.12,2.5,2.5
			S107.74,634.73,106.36,634.73z"/>
	</g>
	<g>
		<path class="st18" d="M106.36,648.13H69.49c-1.38,0-2.5-1.12-2.5-2.5s1.12-2.5,2.5-2.5h36.87c1.38,0,2.5,1.12,2.5,2.5
			S107.74,648.13,106.36,648.13z"/>
	</g>
	<g>
		<path class="st18" d="M83.92,661.53H69.49c-1.38,0-2.5-1.12-2.5-2.5s1.12-2.5,2.5-2.5h14.43c1.38,0,2.5,1.12,2.5,2.5
			S85.3,661.53,83.92,661.53z"/>
	</g>
	<g>
		<path class="st35" d="M112.28,699.46c-14.56,0-26.41-11.85-26.41-26.41s11.85-26.41,26.41-26.41s26.41,11.85,26.41,26.41
			S126.84,699.46,112.28,699.46z M112.28,651.65c-11.8,0-21.41,9.6-21.41,21.41s9.6,21.41,21.41,21.41s21.41-9.6,21.41-21.41
			S124.09,651.65,112.28,651.65z"/>
	</g>
	<g>
		<path class="st35" d="M120.06,680.5c-0.46,0-0.92-0.13-1.34-0.39l-7.78-4.94c-0.72-0.46-1.16-1.25-1.16-2.11v-12.97
			c0-1.38,1.12-2.5,2.5-2.5s2.5,1.12,2.5,2.5v11.6l6.62,4.21c1.17,0.74,1.51,2.29,0.77,3.45
			C121.69,680.09,120.88,680.5,120.06,680.5z"/>
	</g>
</g>
<g>
	<g>
		<polygon class="st10" points="84.38,796.55 54.06,796.71 53.81,756.86 84.38,756.86 84.38,783.85 		"/>
	</g>
	<g>
		<path class="st11" d="M106.33,831.3H84.38c-1.38,0-2.5-1.12-2.5-2.5s1.12-2.5,2.5-2.5h21.96c1.38,0,2.5,1.12,2.5,2.5
			S107.71,831.3,106.33,831.3z"/>
	</g>
	<g>
		<path class="st11" d="M85.52,813.91c-0.81,0-1.6-0.39-2.08-1.11c-0.77-1.15-0.46-2.7,0.69-3.47l22.03-14.7
			c1.15-0.76,2.7-0.45,3.47,0.69c0.77,1.15,0.46,2.7-0.69,3.47l-22.03,14.7C86.48,813.77,85.99,813.91,85.52,813.91z"/>
	</g>
	<g>
		<path class="st11" d="M106.33,776.21H84.38c-1.38,0-2.5-1.12-2.5-2.5s1.12-2.5,2.5-2.5h21.96c1.38,0,2.5,1.12,2.5,2.5
			S107.71,776.21,106.33,776.21z"/>
	</g>
	<g>
		<g>
			<path class="st35" d="M84.38,799.21H53.81c-1.38,0-2.5-1.12-2.5-2.5v-39.86c0-1.38,1.12-2.5,2.5-2.5h30.57
				c1.38,0,2.5,1.12,2.5,2.5v39.86C86.88,798.09,85.76,799.21,84.38,799.21z M56.31,794.21h25.57v-34.86H56.31V794.21z"/>
		</g>
	</g>
	<g>
		<path class="st11" d="M94.31,780.57c-0.37,0-0.74-0.08-1.08-0.25c-0.87-0.42-1.42-1.29-1.42-2.25v-8.72
			c0-0.96,0.55-1.84,1.42-2.25c0.87-0.41,1.9-0.3,2.65,0.31l5.42,4.36c0.59,0.47,0.93,1.19,0.93,1.95s-0.34,1.47-0.93,1.95
			l-5.42,4.36C95.42,780.38,94.87,780.57,94.31,780.57z"/>
	</g>
	<g>
		<path class="st11" d="M94.31,835.66c-0.37,0-0.74-0.08-1.08-0.25c-0.87-0.42-1.42-1.29-1.42-2.25v-8.72
			c0-0.96,0.55-1.84,1.42-2.25c0.87-0.41,1.9-0.29,2.65,0.31l5.42,4.36c0.59,0.47,0.93,1.19,0.93,1.95s-0.34,1.47-0.93,1.95
			l-5.42,4.36C95.42,835.47,94.87,835.66,94.31,835.66z"/>
	</g>
	<g>
		<path class="st11" d="M101.1,808.64c-0.06,0-0.11,0-0.17-0.01l-6.94-0.47c-0.76-0.05-1.45-0.44-1.88-1.06
			c-0.43-0.62-0.56-1.4-0.35-2.13l1.94-6.68c0.27-0.92,1.04-1.61,1.99-1.77c0.95-0.16,1.9,0.25,2.46,1.03l5,7.15
			c0.55,0.79,0.6,1.82,0.13,2.66C102.83,808.16,102,808.64,101.1,808.64z"/>
	</g>
	<g>
		<path class="st18" d="M69.09,770.98h-5.85c-1.38,0-2.5-1.12-2.5-2.5s1.12-2.5,2.5-2.5h5.85c1.38,0,2.5,1.12,2.5,2.5
			S70.47,770.98,69.09,770.98z"/>
	</g>
	<g>
		<path class="st18" d="M74.95,779.29H63.24c-1.38,0-2.5-1.12-2.5-2.5s1.12-2.5,2.5-2.5h11.71c1.38,0,2.5,1.12,2.5,2.5
			S76.33,779.29,74.95,779.29z"/>
	</g>
	<g>
		<path class="st18" d="M69.09,787.59h-5.85c-1.38,0-2.5-1.12-2.5-2.5s1.12-2.5,2.5-2.5h5.85c1.38,0,2.5,1.12,2.5,2.5
			S70.47,787.59,69.09,787.59z"/>
	</g>
	<g>
		<polygon class="st10" points="138.17,796.55 107.85,796.71 107.61,756.86 138.17,756.86 138.17,783.85 		"/>
	</g>
	<g>
		<g>
			<path class="st35" d="M138.17,799.21h-30.57c-1.38,0-2.5-1.12-2.5-2.5v-39.86c0-1.38,1.12-2.5,2.5-2.5h30.57
				c1.38,0,2.5,1.12,2.5,2.5v39.86C140.67,798.09,139.55,799.21,138.17,799.21z M110.11,794.21h25.57v-34.86h-25.57V794.21z"/>
		</g>
	</g>
	<g>
		<path class="st18" d="M122.89,770.98h-5.85c-1.38,0-2.5-1.12-2.5-2.5s1.12-2.5,2.5-2.5h5.85c1.38,0,2.5,1.12,2.5,2.5
			S124.27,770.98,122.89,770.98z"/>
	</g>
	<g>
		<path class="st18" d="M128.74,779.29h-11.71c-1.38,0-2.5-1.12-2.5-2.5s1.12-2.5,2.5-2.5h11.71c1.38,0,2.5,1.12,2.5,2.5
			S130.12,779.29,128.74,779.29z"/>
	</g>
	<g>
		<path class="st18" d="M122.89,787.59h-5.85c-1.38,0-2.5-1.12-2.5-2.5s1.12-2.5,2.5-2.5h5.85c1.38,0,2.5,1.12,2.5,2.5
			S124.27,787.59,122.89,787.59z"/>
	</g>
	<g>
		<polygon class="st10" points="84.38,851.3 54.06,851.46 53.81,811.61 84.38,811.61 84.38,838.6 		"/>
	</g>
	<g>
		<g>
			<path class="st35" d="M84.38,853.96H53.81c-1.38,0-2.5-1.12-2.5-2.5v-39.86c0-1.38,1.12-2.5,2.5-2.5h30.57
				c1.38,0,2.5,1.12,2.5,2.5v39.86C86.88,852.84,85.76,853.96,84.38,853.96z M56.31,848.96h25.57v-34.86H56.31V848.96z"/>
		</g>
	</g>
	<g>
		<path class="st18" d="M69.09,825.73h-5.85c-1.38,0-2.5-1.12-2.5-2.5s1.12-2.5,2.5-2.5h5.85c1.38,0,2.5,1.12,2.5,2.5
			S70.47,825.73,69.09,825.73z"/>
	</g>
	<g>
		<path class="st18" d="M74.95,834.03H63.24c-1.38,0-2.5-1.12-2.5-2.5s1.12-2.5,2.5-2.5h11.71c1.38,0,2.5,1.12,2.5,2.5
			S76.33,834.03,74.95,834.03z"/>
	</g>
	<g>
		<path class="st18" d="M69.09,842.34h-5.85c-1.38,0-2.5-1.12-2.5-2.5s1.12-2.5,2.5-2.5h5.85c1.38,0,2.5,1.12,2.5,2.5
			S70.47,842.34,69.09,842.34z"/>
	</g>
	<g>
		<polygon class="st10" points="138.17,851.3 107.85,851.46 107.61,811.61 138.17,811.61 138.17,838.6 		"/>
	</g>
	<g>
		<g>
			<path class="st35" d="M138.17,853.96h-30.57c-1.38,0-2.5-1.12-2.5-2.5v-39.86c0-1.38,1.12-2.5,2.5-2.5h30.57
				c1.38,0,2.5,1.12,2.5,2.5v39.86C140.67,852.84,139.55,853.96,138.17,853.96z M110.11,848.96h25.57v-34.86h-25.57V848.96z"/>
		</g>
	</g>
	<g>
		<path class="st18" d="M122.89,825.73h-5.85c-1.38,0-2.5-1.12-2.5-2.5s1.12-2.5,2.5-2.5h5.85c1.38,0,2.5,1.12,2.5,2.5
			S124.27,825.73,122.89,825.73z"/>
	</g>
	<g>
		<path class="st18" d="M128.74,834.03h-11.71c-1.38,0-2.5-1.12-2.5-2.5s1.12-2.5,2.5-2.5h11.71c1.38,0,2.5,1.12,2.5,2.5
			S130.12,834.03,128.74,834.03z"/>
	</g>
	<g>
		<path class="st18" d="M122.89,842.34h-5.85c-1.38,0-2.5-1.12-2.5-2.5s1.12-2.5,2.5-2.5h5.85c1.38,0,2.5,1.12,2.5,2.5
			S124.27,842.34,122.89,842.34z"/>
	</g>
</g>
<g>
	<path class="st44" d="M687.89,331.75c0-4.82,2.7-7.67,6.6-7.67s6.6,2.85,6.6,7.67c0,4.84-2.7,7.81-6.6,7.81
		S687.89,336.6,687.89,331.75z M698.31,331.75c0-3.31-1.51-5.3-3.82-5.3c-2.33,0-3.81,1.99-3.81,5.3c0,3.33,1.48,5.46,3.81,5.46
		C696.8,337.21,698.31,335.09,698.31,331.75z"/>
	<path class="st44" d="M704.14,324.35h2.9l4.48,8.22c0.55,1.01,1.05,2.19,1.53,3.38h0.09c-0.16-1.6-0.34-3.43-0.34-5.07v-6.53h2.54
		v14.94h-2.9l-4.48-8.22c-0.55-1.01-1.05-2.19-1.53-3.38h-0.09c0.16,1.55,0.34,3.4,0.34,5.07v6.53h-2.54V324.35z"/>
	<path class="st44" d="M719.17,324.35h9.02v2.28h-6.3v3.75h5.35v2.28h-5.35v4.34h6.53v2.28h-9.25V324.35z"/>
	<path class="st44" d="M735.37,331.87c0-4.89,3.06-7.79,6.85-7.79c1.87,0,3.38,0.87,4.32,1.9l-1.44,1.67
		c-0.78-0.75-1.67-1.19-2.83-1.19c-2.38,0-4.11,2.01-4.11,5.35c0,3.36,1.58,5.41,4.07,5.41c1.3,0,2.33-0.53,3.15-1.44l1.46,1.62
		c-1.26,1.44-2.81,2.17-4.73,2.17C738.37,339.57,735.37,336.82,735.37,331.87z"/>
	<path class="st44" d="M747.85,331.75c0-4.82,2.7-7.67,6.6-7.67s6.6,2.85,6.6,7.67c0,4.84-2.7,7.81-6.6,7.81
		S747.85,336.6,747.85,331.75z M758.27,331.75c0-3.31-1.51-5.3-3.81-5.3c-2.33,0-3.81,1.99-3.81,5.3c0,3.33,1.48,5.46,3.81,5.46
		C756.76,337.21,758.27,335.09,758.27,331.75z"/>
	<path class="st44" d="M764.1,324.35h4.73c3.31,0,5.8,1.17,5.8,4.64c0,3.33-2.49,4.84-5.71,4.84h-2.1v5.46h-2.72V324.35z
		 M768.71,331.66c2.19,0,3.22-0.87,3.22-2.67c0-1.83-1.14-2.47-3.31-2.47h-1.8v5.14H768.71z"/>
	<path class="st44" d="M779.72,333.76l-4.5-9.41h2.9l1.6,3.79c0.43,1.1,0.87,2.15,1.32,3.29h0.09c0.48-1.14,0.94-2.19,1.37-3.29
		l1.6-3.79h2.83l-4.5,9.41v5.53h-2.72V333.76z"/>
</g>
<g>
	<path class="st44" d="M688.67,486.91h2.9l4.48,8.22c0.55,1,1.05,2.19,1.53,3.38h0.09c-0.16-1.6-0.34-3.43-0.34-5.07v-6.53h2.54
		v14.94h-2.9l-4.48-8.22c-0.55-1-1.05-2.19-1.53-3.38h-0.09c0.16,1.55,0.34,3.4,0.34,5.07v6.53h-2.54V486.91z"/>
	<path class="st44" d="M702.93,494.31c0-4.82,2.7-7.67,6.6-7.67s6.6,2.86,6.6,7.67c0,4.84-2.7,7.81-6.6,7.81
		S702.93,499.15,702.93,494.31z M713.34,494.31c0-3.31-1.51-5.3-3.82-5.3c-2.33,0-3.81,1.99-3.81,5.3c0,3.33,1.48,5.46,3.81,5.46
		C711.84,499.77,713.34,497.65,713.34,494.31z"/>
	<path class="st44" d="M723.01,494.42c0-4.89,3.06-7.79,6.85-7.79c1.87,0,3.38,0.87,4.32,1.9l-1.44,1.67
		c-0.78-0.75-1.67-1.19-2.83-1.19c-2.38,0-4.11,2.01-4.11,5.35c0,3.36,1.58,5.41,4.07,5.41c1.3,0,2.33-0.53,3.15-1.44l1.46,1.62
		c-1.26,1.44-2.81,2.17-4.73,2.17C726.01,502.12,723.01,499.38,723.01,494.42z"/>
	<path class="st44" d="M735.49,494.31c0-4.82,2.7-7.67,6.6-7.67s6.6,2.86,6.6,7.67c0,4.84-2.7,7.81-6.6,7.81
		S735.49,499.15,735.49,494.31z M745.91,494.31c0-3.31-1.51-5.3-3.82-5.3c-2.33,0-3.81,1.99-3.81,5.3c0,3.33,1.48,5.46,3.81,5.46
		C744.4,499.77,745.91,497.65,745.91,494.31z"/>
	<path class="st44" d="M751.73,486.91h2.9l4.48,8.22c0.55,1,1.05,2.19,1.53,3.38h0.09c-0.16-1.6-0.34-3.43-0.34-5.07v-6.53h2.54
		v14.94h-2.9l-4.48-8.22c-0.55-1-1.05-2.19-1.53-3.38h-0.09c0.16,1.55,0.34,3.4,0.34,5.07v6.53h-2.54V486.91z"/>
	<path class="st44" d="M766.77,486.91h9.05v2.28h-6.33v4.18h5.39v2.28h-5.39v6.19h-2.72V486.91z"/>
	<path class="st44" d="M778.49,486.91h2.72v12.65h6.17v2.28h-8.89V486.91z"/>
	<path class="st44" d="M790.03,486.91h2.72v14.94h-2.72V486.91z"/>
	<path class="st44" d="M795.79,494.42c0-4.89,3.06-7.79,6.85-7.79c1.87,0,3.38,0.87,4.32,1.9l-1.44,1.67
		c-0.78-0.75-1.67-1.19-2.83-1.19c-2.38,0-4.11,2.01-4.11,5.35c0,3.36,1.58,5.41,4.07,5.41c1.3,0,2.33-0.53,3.15-1.44l1.46,1.62
		c-1.26,1.44-2.81,2.17-4.73,2.17C798.78,502.12,795.79,499.38,795.79,494.42z"/>
	<path class="st44" d="M812.44,489.19h-4.29v-2.28h11.31v2.28h-4.29v12.65h-2.72V489.19z"/>
	<path class="st44" d="M820.26,499.93l1.46-1.78c1.07,1.03,2.56,1.62,4,1.62c1.65,0,2.56-0.75,2.56-1.9c0-1.19-0.96-1.58-2.31-2.15
		l-2.03-0.89c-1.48-0.62-3.02-1.78-3.02-3.95c0-2.4,2.1-4.25,5.03-4.25c1.8,0,3.47,0.73,4.64,1.85l-1.46,1.78
		c-0.94-0.8-2.03-1.26-3.18-1.26c-1.39,0-2.28,0.64-2.28,1.71c0,1.14,1.12,1.55,2.35,2.08l2.01,0.82c1.78,0.75,3.01,1.87,3.01,4.04
		c0,2.42-2.01,4.45-5.39,4.45C823.6,502.12,821.68,501.37,820.26,499.93z"/>
</g>
<g>
	<path class="st44" d="M688.67,638.69h5.05c3.13,0,5.53,1.1,5.53,4.45c0,2.26-1.17,3.65-2.95,4.27l3.54,6.21h-3.04l-3.2-5.8h-2.22
		v5.8h-2.72V638.69z M693.44,645.66c2.03,0,3.13-0.85,3.13-2.51c0-1.69-1.1-2.28-3.13-2.28h-2.06v4.8H693.44z"/>
	<path class="st44" d="M702.29,638.69h9.02v2.28h-6.3v3.75h5.35v2.28h-5.35v4.34h6.53v2.28h-9.25V638.69z"/>
	<path class="st44" d="M717.55,638.69h3.2l4.84,14.94h-2.88l-1.14-4h-4.96l-1.14,4h-2.76L717.55,638.69z M717.23,647.51h3.75
		l-0.5-1.78c-0.48-1.58-0.91-3.29-1.35-4.91h-0.09c-0.39,1.64-0.82,3.33-1.3,4.91L717.23,647.51z"/>
	<path class="st44" d="M727.49,638.69h2.72v12.65h6.17v2.28h-8.89V638.69z"/>
	<path class="st44" d="M739.28,640.98h-4.29v-2.28h11.31v2.28H742v12.65h-2.72V640.98z"/>
	<path class="st44" d="M748.83,638.69h2.72v14.94h-2.72V638.69z"/>
	<path class="st44" d="M755.34,638.69h3.2l2.56,7.31c0.32,0.96,0.59,1.83,0.87,2.92h0.09c0.27-1.1,0.5-1.96,0.82-2.92l2.56-7.31h3.2
		v14.94h-2.51v-6.81c0-1.42,0.23-3.47,0.41-4.84h-0.09l-1.19,3.61l-2.42,6.67h-1.78l-2.38-6.67l-1.19-3.61h-0.09
		c0.18,1.37,0.41,3.43,0.41,4.84v6.81h-2.47V638.69z"/>
	<path class="st44" d="M772.46,638.69h9.02v2.28h-6.3v3.75h5.34v2.28h-5.34v4.34h6.53v2.28h-9.25V638.69z"/>
	<path class="st44" d="M789.44,638.69h9.04v2.28h-6.33v4.18h5.39v2.28h-5.39v6.19h-2.72V638.69z"/>
	<path class="st44" d="M801.16,638.69h9.02v2.28h-6.3v3.75h5.35v2.28h-5.35v4.34h6.53v2.28h-9.25V638.69z"/>
	<path class="st44" d="M813.52,638.69h9.02v2.28h-6.3v3.75h5.35v2.28h-5.35v4.34h6.53v2.28h-9.25V638.69z"/>
	<path class="st44" d="M825.88,638.69h4c4.57,0,7.31,2.44,7.31,7.4c0,4.98-2.74,7.54-7.17,7.54h-4.13V638.69z M829.7,651.44
		c2.97,0,4.68-1.67,4.68-5.34c0-3.65-1.71-5.19-4.68-5.19h-1.1v10.53H829.7z"/>
	<path class="st44" d="M840.23,638.69h4.8c3.08,0,5.34,0.94,5.34,3.68c0,1.42-0.78,2.79-2.06,3.24v0.09
		c1.64,0.37,2.86,1.53,2.86,3.54c0,2.99-2.47,4.39-5.76,4.39h-5.18V638.69z M844.8,644.84c2.03,0,2.92-0.8,2.92-2.08
		c0-1.42-0.96-1.94-2.88-1.94h-1.9v4.02H844.8z M845.14,651.51c2.17,0,3.36-0.75,3.36-2.42c0-1.53-1.17-2.22-3.36-2.22h-2.19v4.64
		H845.14z"/>
	<path class="st44" d="M856.84,638.69h3.2l4.84,14.94H862l-1.14-4h-4.96l-1.14,4H852L856.84,638.69z M856.52,647.51h3.75l-0.5-1.78
		c-0.48-1.58-0.91-3.29-1.35-4.91h-0.09c-0.39,1.64-0.82,3.33-1.3,4.91L856.52,647.51z"/>
	<path class="st44" d="M865.78,646.21c0-4.89,3.06-7.79,6.85-7.79c1.87,0,3.38,0.87,4.32,1.9l-1.44,1.67
		c-0.78-0.75-1.67-1.19-2.83-1.19c-2.38,0-4.11,2.01-4.11,5.35c0,3.36,1.58,5.41,4.07,5.41c1.3,0,2.33-0.53,3.15-1.44l1.46,1.62
		c-1.26,1.44-2.81,2.17-4.73,2.17C868.77,653.91,865.78,651.16,865.78,646.21z"/>
	<path class="st44" d="M879.78,638.69h2.72v6.71h0.07l5.23-6.71h3.02l-4.59,5.85l5.37,9.09h-2.99l-4-6.97l-2.1,2.65v4.32h-2.72
		V638.69z"/>
</g>
<g>
	<path class="st44" d="M687.89,804.18c0-4.89,3.06-7.79,6.85-7.79c1.87,0,3.38,0.87,4.32,1.9l-1.44,1.67
		c-0.78-0.75-1.67-1.19-2.83-1.19c-2.38,0-4.11,2.01-4.11,5.35c0,3.36,1.58,5.41,4.07,5.41c1.3,0,2.33-0.53,3.15-1.44l1.46,1.62
		c-1.26,1.44-2.81,2.17-4.73,2.17C690.89,811.88,687.89,809.14,687.89,804.18z"/>
	<path class="st44" d="M700.37,804.07c0-4.82,2.7-7.67,6.6-7.67s6.6,2.86,6.6,7.67c0,4.84-2.7,7.81-6.6,7.81
		S700.37,808.91,700.37,804.07z M710.79,804.07c0-3.31-1.51-5.3-3.81-5.3c-2.33,0-3.81,1.99-3.81,5.3c0,3.33,1.48,5.46,3.81,5.46
		C709.28,809.53,710.79,807.4,710.79,804.07z"/>
	<path class="st44" d="M716.62,796.67h2.9l4.48,8.22c0.55,1,1.05,2.19,1.53,3.38h0.09c-0.16-1.6-0.34-3.43-0.34-5.07v-6.53h2.54
		v14.94h-2.9l-4.48-8.22c-0.55-1-1.05-2.19-1.53-3.38h-0.09c0.16,1.55,0.34,3.4,0.34,5.07v6.53h-2.54V796.67z"/>
	<path class="st44" d="M730.87,804.18c0-4.89,3.06-7.79,6.85-7.79c1.87,0,3.38,0.87,4.32,1.9l-1.44,1.67
		c-0.78-0.75-1.67-1.19-2.83-1.19c-2.38,0-4.11,2.01-4.11,5.35c0,3.36,1.58,5.41,4.07,5.41c1.3,0,2.33-0.53,3.15-1.44l1.46,1.62
		c-1.26,1.44-2.81,2.17-4.73,2.17C733.87,811.88,730.87,809.14,730.87,804.18z"/>
	<path class="st44" d="M744.42,805.03v-8.36h2.72v8.57c0,3.22,1.19,4.29,2.99,4.29s3.04-1.07,3.04-4.29v-8.57h2.63v8.36
		c0,4.91-2.17,6.85-5.67,6.85S744.42,809.94,744.42,805.03z"/>
	<path class="st44" d="M759.55,796.67h5.05c3.13,0,5.53,1.1,5.53,4.45c0,2.26-1.17,3.65-2.95,4.27l3.54,6.21h-3.04l-3.2-5.8h-2.22
		v5.8h-2.72V796.67z M764.32,803.63c2.03,0,3.13-0.85,3.13-2.51c0-1.69-1.1-2.28-3.13-2.28h-2.06v4.8H764.32z"/>
	<path class="st44" d="M773.17,796.67h5.05c3.13,0,5.53,1.1,5.53,4.45c0,2.26-1.17,3.65-2.95,4.27l3.54,6.21h-3.04l-3.2-5.8h-2.22
		v5.8h-2.72V796.67z M777.94,803.63c2.03,0,3.13-0.85,3.13-2.51c0-1.69-1.1-2.28-3.13-2.28h-2.06v4.8H777.94z"/>
	<path class="st44" d="M786.79,796.67h9.02v2.28h-6.3v3.75h5.34v2.28h-5.34v4.34h6.53v2.28h-9.25V796.67z"/>
	<path class="st44" d="M799.15,796.67h2.9l4.48,8.22c0.55,1,1.05,2.19,1.53,3.38h0.09c-0.16-1.6-0.34-3.43-0.34-5.07v-6.53h2.54
		v14.94h-2.9l-4.48-8.22c-0.55-1-1.05-2.19-1.53-3.38h-0.09c0.16,1.55,0.34,3.4,0.34,5.07v6.53h-2.54V796.67z"/>
	<path class="st44" d="M817.17,798.95h-4.29v-2.28h11.31v2.28h-4.29v12.65h-2.72V798.95z"/>
</g>
<g>
	<g>
		<rect x="578.91" y="130.29" class="st10" width="63.73" height="83.8"/>
	</g>
	<g>
		<circle class="st19" cx="642.71" cy="197.83" r="17.94"/>
	</g>
	<g>
		<path class="st14" d="M630.8,212.39c3.18,2.92,7.34,4.53,11.91,4.53c4.57,0,8.74-1.71,11.91-4.53c-3.17-2.81-7.34-4.53-11.91-4.53
			C638.14,207.87,633.97,209.58,630.8,212.39z"/>
	</g>
	<g>
		<circle class="st14" cx="642.71" cy="196.15" r="5.74"/>
	</g>
	<g>
		<path class="st35" d="M642.82,174.38c-1.38,0-2.5-1.12-2.5-2.5v-39.1h-39.49c-1.38,0-2.5-1.12-2.5-2.5s1.12-2.5,2.5-2.5h41.99
			c1.38,0,2.5,1.12,2.5,2.5v41.6C645.32,173.27,644.2,174.38,642.82,174.38z"/>
	</g>
	<g>
		<path class="st35" d="M618.96,216.58h-40.41c-1.38,0-2.5-1.12-2.5-2.5v-41.6c0-1.38,1.12-2.5,2.5-2.5s2.5,1.12,2.5,2.5v39.1h37.91
			c1.38,0,2.5,1.12,2.5,2.5S620.34,216.58,618.96,216.58z"/>
	</g>
	<g>
		<path class="st18" d="M629.12,168.99h-36.87c-1.38,0-2.5-1.12-2.5-2.5s1.12-2.5,2.5-2.5h36.87c1.38,0,2.5,1.12,2.5,2.5
			S630.5,168.99,629.12,168.99z"/>
	</g>
	<g>
		<path class="st18" d="M629.12,181.38h-36.87c-1.38,0-2.5-1.12-2.5-2.5s1.12-2.5,2.5-2.5h36.87c1.38,0,2.5,1.12,2.5,2.5
			S630.5,181.38,629.12,181.38z"/>
	</g>
	<g>
		<path class="st18" d="M606.68,193.78h-14.43c-1.38,0-2.5-1.12-2.5-2.5s1.12-2.5,2.5-2.5h14.43c1.38,0,2.5,1.12,2.5,2.5
			S608.06,193.78,606.68,193.78z"/>
	</g>
	<g>
		<path class="st18" d="M629.04,156.33h-14.43c-1.38,0-2.5-1.12-2.5-2.5s1.12-2.5,2.5-2.5h14.43c1.38,0,2.5,1.12,2.5,2.5
			S630.42,156.33,629.04,156.33z"/>
	</g>
	<g>
		<path class="st35" d="M642.71,219.02c-5.23,0-10.15-1.88-13.85-5.28c-0.52-0.48-0.81-1.15-0.81-1.86
			c0.01-0.71,0.31-1.38,0.84-1.85c3.81-3.39,8.72-5.25,13.82-5.25s10,1.87,13.82,5.25c0.53,0.47,0.84,1.15,0.84,1.87
			s-0.31,1.39-0.84,1.87C652.71,217.15,647.81,219.02,642.71,219.02z M634.76,211.92c2.34,1.38,5.04,2.1,7.95,2.1
			c2.8,0,5.52-0.74,7.91-2.12c-2.39-1.38-5.11-2.12-7.91-2.12C639.89,209.77,637.16,210.52,634.76,211.92z"/>
	</g>
	<g>
		<path class="st35" d="M642.71,202.72c-4.14,0-7.5-3.36-7.5-7.5s3.36-7.5,7.5-7.5s7.5,3.36,7.5,7.5S646.84,202.72,642.71,202.72z
			 M642.71,192.72c-1.38,0-2.5,1.12-2.5,2.5s1.12,2.5,2.5,2.5s2.5-1.12,2.5-2.5S644.09,192.72,642.71,192.72z"/>
	</g>
	<g>
		<path class="st35" d="M659,209.08c-0.39,0-0.78-0.09-1.14-0.28c-1.23-0.63-1.71-2.14-1.08-3.37c1.16-2.25,1.75-4.68,1.75-7.23
			c0-8.72-7.09-15.81-15.81-15.81s-15.81,7.09-15.81,15.81c0,2.52,0.58,4.94,1.72,7.17c0.63,1.23,0.14,2.74-1.09,3.36
			c-1.23,0.63-2.73,0.14-3.36-1.09c-1.5-2.94-2.26-6.12-2.26-9.44c0-11.48,9.34-20.81,20.81-20.81s20.81,9.34,20.81,20.81
			c0,3.3-0.8,6.6-2.3,9.52C660.78,208.58,659.9,209.08,659,209.08z"/>
	</g>
	<g>
		<circle class="st11" cx="578.66" cy="144.39" r="17.94"/>
	</g>
	<g>
		<path class="st14" d="M566.75,158.95c3.18,2.92,7.34,4.53,11.91,4.53c4.57,0,8.74-1.71,11.91-4.53
			c-3.17-2.81-7.34-4.53-11.91-4.53C574.09,154.42,569.92,156.13,566.75,158.95z"/>
	</g>
	<g>
		<circle class="st14" cx="578.66" cy="142.19" r="5.22"/>
	</g>
	<g>
		<path class="st35" d="M578.66,165.57c-5.23,0-10.15-1.88-13.85-5.28c-0.52-0.48-0.81-1.15-0.81-1.86
			c0.01-0.71,0.31-1.38,0.84-1.85c3.81-3.39,8.72-5.25,13.82-5.25c5.1,0,10,1.87,13.82,5.25c0.53,0.47,0.84,1.15,0.84,1.87
			s-0.31,1.39-0.84,1.87C588.67,163.71,583.76,165.57,578.66,165.57z M570.71,158.48c2.34,1.38,5.04,2.1,7.95,2.1
			c2.8,0,5.52-0.74,7.91-2.12c-2.39-1.38-5.11-2.12-7.91-2.12C575.85,156.33,573.11,157.08,570.71,158.48z"/>
	</g>
	<g>
		<path class="st35" d="M578.66,150.02c-4.14,0-7.5-3.36-7.5-7.5s3.36-7.5,7.5-7.5s7.5,3.36,7.5,7.5S582.8,150.02,578.66,150.02z
			 M578.66,140.02c-1.38,0-2.5,1.12-2.5,2.5s1.12,2.5,2.5,2.5s2.5-1.12,2.5-2.5S580.04,140.02,578.66,140.02z"/>
	</g>
	<g>
		<path class="st35" d="M594.95,155.63c-0.39,0-0.78-0.09-1.14-0.28c-1.23-0.63-1.71-2.14-1.08-3.37c1.16-2.25,1.75-4.68,1.75-7.23
			c0-8.72-7.09-15.81-15.81-15.81c-8.72,0-15.81,7.09-15.81,15.81c0,2.52,0.58,4.94,1.72,7.17c0.63,1.23,0.14,2.74-1.09,3.36
			c-1.23,0.63-2.74,0.14-3.36-1.09c-1.5-2.94-2.26-6.12-2.26-9.44c0-11.48,9.34-20.81,20.81-20.81c11.48,0,20.81,9.34,20.81,20.81
			c0,3.3-0.8,6.59-2.3,9.52C596.73,155.14,595.86,155.63,594.95,155.63z"/>
	</g>
</g>
<g>
	<g>
		<rect x="578.86" y="445.75" class="st10" width="63.73" height="83.8"/>
	</g>
	<g>
		<circle class="st21" cx="578.61" cy="456.43" r="18.51"/>
	</g>
	<g>
		<circle class="st21" cx="642.76" cy="517.3" r="18.51"/>
	</g>
	<g>
		<path class="st35" d="M642.76,491.85c-1.38,0-2.5-1.12-2.5-2.5v-41.1h-36.49c-1.38,0-2.5-1.12-2.5-2.5s1.12-2.5,2.5-2.5h38.99
			c1.38,0,2.5,1.12,2.5,2.5v43.6C645.26,490.73,644.14,491.85,642.76,491.85z"/>
	</g>
	<g>
		<path class="st35" d="M616.9,532.05h-38.4c-1.38,0-2.5-1.12-2.5-2.5v-44.6c0-1.38,1.12-2.5,2.5-2.5s2.5,1.12,2.5,2.5v42.1h35.9
			c1.38,0,2.5,1.12,2.5,2.5S618.28,532.05,616.9,532.05z"/>
	</g>
	<g>
		<path class="st18" d="M629.07,484.45h-36.87c-1.38,0-2.5-1.12-2.5-2.5s1.12-2.5,2.5-2.5h36.87c1.38,0,2.5,1.12,2.5,2.5
			S630.45,484.45,629.07,484.45z"/>
	</g>
	<g>
		<path class="st18" d="M629.07,496.85h-36.87c-1.38,0-2.5-1.12-2.5-2.5s1.12-2.5,2.5-2.5h36.87c1.38,0,2.5,1.12,2.5,2.5
			S630.45,496.85,629.07,496.85z"/>
	</g>
	<g>
		<path class="st18" d="M606.63,509.24h-14.43c-1.38,0-2.5-1.12-2.5-2.5s1.12-2.5,2.5-2.5h14.43c1.38,0,2.5,1.12,2.5,2.5
			S608.01,509.24,606.63,509.24z"/>
	</g>
	<g>
		<path class="st18" d="M628.99,471.8h-14.43c-1.38,0-2.5-1.12-2.5-2.5s1.12-2.5,2.5-2.5h14.43c1.38,0,2.5,1.12,2.5,2.5
			S630.37,471.8,628.99,471.8z"/>
	</g>
	<g>
		<path class="st35" d="M578.61,477.44c-11.59,0-21.01-9.43-21.01-21.01s9.43-21.01,21.01-21.01s21.01,9.43,21.01,21.01
			S590.2,477.44,578.61,477.44z M578.61,440.41c-8.83,0-16.01,7.18-16.01,16.01s7.18,16.01,16.01,16.01s16.01-7.18,16.01-16.01
			S587.44,440.41,578.61,440.41z"/>
	</g>
	<g>
		<path class="st35" d="M642.76,538.32c-11.59,0-21.01-9.43-21.01-21.01s9.43-21.01,21.01-21.01s21.02,9.43,21.02,21.01
			S654.35,538.32,642.76,538.32z M642.76,501.29c-8.83,0-16.01,7.18-16.01,16.01s7.18,16.01,16.01,16.01
			c8.83,0,16.02-7.18,16.02-16.01S651.59,501.29,642.76,501.29z"/>
	</g>
	<g>
		<path class="st35" d="M575.99,463.45c-0.64,0-1.28-0.24-1.77-0.73l-3.8-3.8c-0.98-0.98-0.98-2.56,0-3.54
			c0.97-0.98,2.56-0.98,3.54,0l2.03,2.03l7.27-7.27c0.98-0.98,2.56-0.98,3.54,0s0.98,2.56,0,3.54l-9.04,9.04
			C577.27,463.2,576.63,463.45,575.99,463.45z"/>
	</g>
	<g>
		<path class="st35" d="M640.14,524.32L640.14,524.32c-0.66,0-1.3-0.26-1.77-0.73l-3.8-3.8c-0.98-0.98-0.98-2.56,0-3.54
			c0.98-0.98,2.56-0.98,3.54,0l2.03,2.03l7.28-7.27c0.98-0.98,2.56-0.98,3.54,0s0.98,2.56,0,3.54l-9.04,9.04
			C641.44,524.06,640.81,524.32,640.14,524.32z"/>
	</g>
</g>
<g>
	<g>
		<polygon class="st10" points="640.18,349.13 639.69,290.82 581.2,290.82 581.2,367.72 621.58,367.72 		"/>
	</g>
	<g>
		<path class="st13" d="M640.18,342.16h-19.1c-3.62,0-6.55,2.93-6.55,6.55v18.73h7.78v-17.5h17.87V342.16z"/>
	</g>
	<g>
		<g>
			<path class="st35" d="M621.58,370.22H581.2c-1.38,0-2.5-1.12-2.5-2.5v-76.9c0-1.38,1.12-2.5,2.5-2.5h58.98
				c1.38,0,2.5,1.12,2.5,2.5v47.79c0,1.38-1.12,2.5-2.5,2.5s-2.5-1.12-2.5-2.5v-45.29H583.7v71.9h37.88c1.38,0,2.5,1.12,2.5,2.5
				S622.96,370.22,621.58,370.22z"/>
		</g>
		<g>
			<path class="st35" d="M621.58,370.22c-0.32,0-0.65-0.06-0.96-0.19c-0.93-0.39-1.54-1.3-1.54-2.31v-18.6c0-1.38,1.12-2.5,2.5-2.5
				h18.6c1.01,0,1.92,0.61,2.31,1.54c0.39,0.93,0.17,2.01-0.54,2.72l-18.6,18.6C622.87,369.97,622.23,370.22,621.58,370.22z
				 M624.08,351.63v10.06l10.06-10.06H624.08z"/>
		</g>
		<g>
			<path class="st18" d="M609.53,307.77h-15.77c-1.38,0-2.5-1.12-2.5-2.5s1.12-2.5,2.5-2.5h15.77c1.38,0,2.5,1.12,2.5,2.5
				S610.91,307.77,609.53,307.77z"/>
		</g>
		<g>
			<path class="st18" d="M627.61,320.07h-33.84c-1.38,0-2.5-1.12-2.5-2.5s1.12-2.5,2.5-2.5h33.84c1.38,0,2.5,1.12,2.5,2.5
				S628.99,320.07,627.61,320.07z"/>
		</g>
		<g>
			<path class="st18" d="M627.61,332.36h-33.84c-1.38,0-2.5-1.12-2.5-2.5s1.12-2.5,2.5-2.5h33.84c1.38,0,2.5,1.12,2.5,2.5
				S628.99,332.36,627.61,332.36z"/>
		</g>
		<g>
			<path class="st18" d="M609.53,344.66h-15.77c-1.38,0-2.5-1.12-2.5-2.5s1.12-2.5,2.5-2.5h15.77c1.38,0,2.5,1.12,2.5,2.5
				S610.91,344.66,609.53,344.66z"/>
		</g>
	</g>
</g>
<g>
	<path class="st44" d="M688.65,151.26h3.2l2.56,7.31c0.32,0.96,0.59,1.83,0.87,2.92h0.09c0.27-1.1,0.5-1.96,0.82-2.92l2.56-7.31h3.2
		v14.94h-2.51v-6.81c0-1.42,0.23-3.47,0.41-4.84h-0.09l-1.19,3.61l-2.42,6.67h-1.78l-2.38-6.67l-1.19-3.61h-0.09
		c0.18,1.37,0.41,3.43,0.41,4.84v6.81h-2.47V151.26z"/>
	<path class="st44" d="M708.66,151.26h3.2l4.84,14.94h-2.88l-1.14-4h-4.96l-1.14,4h-2.76L708.66,151.26z M708.34,160.08h3.75
		l-0.5-1.78c-0.48-1.58-0.91-3.29-1.35-4.91h-0.09c-0.39,1.64-0.82,3.33-1.3,4.91L708.34,160.08z"/>
	<path class="st44" d="M718.6,151.26h2.9l4.48,8.22c0.55,1.01,1.05,2.19,1.53,3.38h0.09c-0.16-1.6-0.34-3.43-0.34-5.07v-6.53h2.54
		v14.94h-2.9l-4.48-8.22c-0.55-1.01-1.05-2.19-1.53-3.38h-0.09c0.16,1.55,0.34,3.4,0.34,5.07v6.53h-2.54V151.26z"/>
	<path class="st44" d="M736.13,160.67l-4.5-9.41h2.9l1.6,3.79c0.43,1.1,0.87,2.15,1.33,3.29h0.09c0.48-1.14,0.94-2.19,1.37-3.29
		l1.6-3.79h2.83l-4.5,9.41v5.53h-2.72V160.67z"/>
	<path class="st44" d="M749.79,151.26h4.73c3.31,0,5.8,1.17,5.8,4.64c0,3.33-2.49,4.84-5.71,4.84h-2.1v5.46h-2.72V151.26z
		 M754.41,158.57c2.19,0,3.22-0.87,3.22-2.67c0-1.83-1.14-2.47-3.31-2.47h-1.8v5.14H754.41z"/>
	<path class="st44" d="M763.16,151.26h9.02v2.28h-6.3v3.75h5.34v2.28h-5.34v4.34h6.53v2.28h-9.25V151.26z"/>
	<path class="st44" d="M774.74,158.66c0-4.82,2.7-7.67,6.6-7.67s6.6,2.85,6.6,7.67c0,4.84-2.7,7.81-6.6,7.81
		S774.74,163.5,774.74,158.66z M785.16,158.66c0-3.31-1.51-5.3-3.81-5.3c-2.33,0-3.81,1.99-3.81,5.3c0,3.33,1.48,5.46,3.81,5.46
		C783.65,164.12,785.16,161.99,785.16,158.66z"/>
	<path class="st44" d="M790.99,151.26h4.73c3.31,0,5.8,1.17,5.8,4.64c0,3.33-2.49,4.84-5.71,4.84h-2.1v5.46h-2.72V151.26z
		 M795.6,158.57c2.19,0,3.22-0.87,3.22-2.67c0-1.83-1.14-2.47-3.31-2.47h-1.8v5.14H795.6z"/>
	<path class="st44" d="M804.36,151.26h2.72v12.65h6.17v2.28h-8.89V151.26z"/>
	<path class="st44" d="M815.9,151.26h9.02v2.28h-6.3v3.75h5.34v2.28h-5.34v4.34h6.53v2.28h-9.25V151.26z"/>
	<path class="st44" d="M832.87,151.26h9.02v2.28h-6.3v3.75h5.35v2.28h-5.35v4.34h6.53v2.28h-9.25V151.26z"/>
	<path class="st44" d="M845.23,151.26h4c4.57,0,7.31,2.44,7.31,7.4c0,4.98-2.74,7.54-7.17,7.54h-4.13V151.26z M849.05,164.01
		c2.97,0,4.68-1.67,4.68-5.35c0-3.65-1.71-5.19-4.68-5.19h-1.1v10.53H849.05z"/>
	<path class="st44" d="M859.58,151.26h2.72v14.94h-2.72V151.26z"/>
	<path class="st44" d="M869.11,153.54h-4.29v-2.28h11.31v2.28h-4.29v12.65h-2.72V153.54z"/>
	<path class="st44" d="M886.18,151.26h3.2l4.84,14.94h-2.88l-1.14-4h-4.96l-1.14,4h-2.76L886.18,151.26z M885.86,160.08h3.75
		l-0.5-1.78c-0.48-1.58-0.91-3.29-1.35-4.91h-0.09c-0.39,1.64-0.82,3.33-1.3,4.91L885.86,160.08z"/>
	<path class="st44" d="M897.63,153.54h-4.29v-2.28h11.31v2.28h-4.29v12.65h-2.72V153.54z"/>
	<path class="st44" d="M691.66,182.54h-4.29v-2.28h11.31v2.28h-4.29v12.65h-2.72V182.54z"/>
	<path class="st44" d="M701.21,180.26h2.72v5.98h5.94v-5.98h2.72v14.94h-2.72v-6.58h-5.94v6.58h-2.72V180.26z"/>
	<path class="st44" d="M716.43,180.26h9.02v2.28h-6.3v3.75h5.34v2.28h-5.34v4.34h6.53v2.28h-9.25V180.26z"/>
	<path class="st44" d="M732.38,193.28l1.46-1.78c1.07,1.03,2.56,1.62,4,1.62c1.65,0,2.56-0.75,2.56-1.9c0-1.19-0.96-1.58-2.31-2.15
		l-2.03-0.89c-1.48-0.62-3.02-1.78-3.02-3.95c0-2.4,2.1-4.25,5.03-4.25c1.8,0,3.47,0.73,4.64,1.85l-1.46,1.78
		c-0.94-0.8-2.03-1.26-3.18-1.26c-1.39,0-2.28,0.64-2.28,1.71c0,1.14,1.12,1.55,2.35,2.08l2.01,0.82c1.78,0.75,3.01,1.87,3.01,4.04
		c0,2.42-2.01,4.45-5.39,4.45C735.72,195.47,733.8,194.72,732.38,193.28z"/>
	<path class="st44" d="M748.83,180.26h3.2l4.84,14.94h-2.88l-1.14-4h-4.96l-1.14,4h-2.76L748.83,180.26z M748.51,189.08h3.75
		l-0.5-1.78c-0.48-1.58-0.91-3.29-1.35-4.91h-0.09c-0.39,1.64-0.82,3.33-1.3,4.91L748.51,189.08z"/>
	<path class="st44" d="M758.75,180.26h3.2l2.56,7.31c0.32,0.96,0.59,1.83,0.87,2.92h0.09c0.27-1.1,0.5-1.96,0.82-2.92l2.56-7.31h3.2
		v14.94h-2.51v-6.81c0-1.42,0.23-3.47,0.41-4.84h-0.09l-1.19,3.61l-2.42,6.67h-1.78l-2.38-6.67l-1.19-3.61h-0.09
		c0.18,1.37,0.41,3.43,0.41,4.84v6.81h-2.47V180.26z"/>
	<path class="st44" d="M775.86,180.26h9.02v2.28h-6.3v3.75h5.34v2.28h-5.34v4.34h6.53v2.28h-9.25V180.26z"/>
	<path class="st44" d="M795.83,182.54h-4.29v-2.28h11.31v2.28h-4.29v12.65h-2.72V182.54z"/>
	<path class="st44" d="M805.38,180.26h2.72v14.94h-2.72V180.26z"/>
	<path class="st44" d="M811.9,180.26h3.2l2.56,7.31c0.32,0.96,0.59,1.83,0.87,2.92h0.09c0.27-1.1,0.5-1.96,0.82-2.92l2.56-7.31h3.2
		v14.94h-2.51v-6.81c0-1.42,0.23-3.47,0.41-4.84H823l-1.19,3.61l-2.42,6.67h-1.78l-2.38-6.67l-1.19-3.61h-0.09
		c0.18,1.37,0.41,3.43,0.41,4.84v6.81h-2.47V180.26z"/>
	<path class="st44" d="M829.01,180.26h9.02v2.28h-6.3v3.75h5.35v2.28h-5.35v4.34h6.53v2.28h-9.25V180.26z"/>
</g>
<g>
	<g>
		<polygon class="st10" points="643.65,666.65 643.11,601.47 577.72,601.47 577.72,687.44 622.86,687.44 		"/>
	</g>
	<g>
		<g>
			<polygon class="st5" points="583.31,611.47 555.38,611.47 555.38,626.78 562.45,626.78 569.83,633.49 569.83,626.78 
				583.31,626.78 			"/>
		</g>
	</g>
	<g>
		<g>
			<polygon class="st19" points="638.06,627.5 665.99,627.5 665.99,642.81 658.93,642.81 651.54,649.53 651.54,642.81 
				638.06,642.81 			"/>
		</g>
	</g>
	<g>
		<g>
			<polygon class="st14" points="583.31,677.68 555.38,677.68 555.38,662.37 562.45,662.37 569.83,655.66 569.83,662.37 
				583.31,662.37 			"/>
		</g>
	</g>
	<g>
		<path class="st13" d="M643.65,658.85h-21.35c-4.04,0-7.32,3.28-7.32,7.32v20.94h8.69v-19.57h19.98V658.85z"/>
	</g>
	<g>
		<path class="st35" d="M643.65,669.15c-1.38,0-2.5-1.12-2.5-2.5v-14.88c0-1.38,1.12-2.5,2.5-2.5s2.5,1.12,2.5,2.5v14.88
			C646.15,668.03,645.03,669.15,643.65,669.15z"/>
	</g>
	<g>
		<path class="st35" d="M643.65,621.05c-1.38,0-2.5-1.12-2.5-2.5v-14.59H580.2c-0.16,1.22-1.21,2.17-2.48,2.17
			c-1.38,0-2.5-1.12-2.5-2.5v-2.17c0-1.38,1.12-2.5,2.5-2.5h65.93c1.38,0,2.5,1.12,2.5,2.5v17.09
			C646.15,619.94,645.03,621.05,643.65,621.05z"/>
	</g>
	<g>
		<path class="st35" d="M577.72,655.92c-1.38,0-2.5-1.12-2.5-2.5v-17.7c0-1.38,1.12-2.5,2.5-2.5s2.5,1.12,2.5,2.5v17.7
			C580.22,654.8,579.1,655.92,577.72,655.92z"/>
	</g>
	<g>
		<path class="st35" d="M622.86,689.94h-45.15c-1.38,0-2.5-1.12-2.5-2.5v-1.92c0-1.38,1.12-2.5,2.5-2.5c1.18,0,2.17,0.82,2.43,1.92
			h42.71c1.38,0,2.5,1.12,2.5,2.5S624.25,689.94,622.86,689.94z"/>
	</g>
	<g>
		<path class="st35" d="M622.86,689.94c-0.32,0-0.65-0.06-0.96-0.19c-0.93-0.39-1.54-1.3-1.54-2.31v-20.79c0-1.38,1.12-2.5,2.5-2.5
			h20.79c1.01,0,1.92,0.61,2.31,1.54c0.39,0.93,0.17,2.01-0.54,2.72l-20.79,20.79C624.15,689.68,623.51,689.94,622.86,689.94z
			 M625.36,669.15v12.25l12.25-12.25H625.36z"/>
	</g>
	<g>
		<path class="st18" d="M609.4,625.54h-17.63c-1.38,0-2.5-1.12-2.5-2.5s1.12-2.5,2.5-2.5h17.63c1.38,0,2.5,1.12,2.5,2.5
			S610.78,625.54,609.4,625.54z"/>
	</g>
	<g>
		<path class="st18" d="M629.6,638.22h-37.83c-1.38,0-2.5-1.12-2.5-2.5s1.12-2.5,2.5-2.5h37.83c1.38,0,2.5,1.12,2.5,2.5
			S630.98,638.22,629.6,638.22z"/>
	</g>
	<g>
		<path class="st18" d="M629.6,650.91h-37.83c-1.38,0-2.5-1.12-2.5-2.5s1.12-2.5,2.5-2.5h37.83c1.38,0,2.5,1.12,2.5,2.5
			S630.98,650.91,629.6,650.91z"/>
	</g>
	<g>
		<path class="st18" d="M609.4,663.59h-17.63c-1.38,0-2.5-1.12-2.5-2.5s1.12-2.5,2.5-2.5h17.63c1.38,0,2.5,1.12,2.5,2.5
			S610.78,663.59,609.4,663.59z"/>
	</g>
	<g>
		<g>
			<path class="st35" d="M569.83,635.99c-0.61,0-1.21-0.22-1.68-0.65l-6.67-6.06h-6.1c-1.38,0-2.5-1.12-2.5-2.5v-15.31
				c0-1.38,1.12-2.5,2.5-2.5h27.93c1.38,0,2.5,1.12,2.5,2.5v15.31c0,1.38-1.12,2.5-2.5,2.5h-10.98v4.21c0,0.99-0.58,1.89-1.49,2.29
				C570.52,635.92,570.17,635.99,569.83,635.99z M557.88,624.28h4.57c0.62,0,1.22,0.23,1.68,0.65l3.2,2.91v-1.06
				c0-1.38,1.12-2.5,2.5-2.5h10.98v-10.31h-22.93V624.28z"/>
		</g>
	</g>
	<g>
		<g>
			<path class="st35" d="M651.54,652.03c-0.34,0-0.69-0.07-1.01-0.21c-0.9-0.4-1.49-1.3-1.49-2.29v-4.21h-10.98
				c-1.38,0-2.5-1.12-2.5-2.5V627.5c0-1.38,1.12-2.5,2.5-2.5h27.93c1.38,0,2.5,1.12,2.5,2.5v15.31c0,1.38-1.12,2.5-2.5,2.5h-6.1
				l-6.67,6.06C652.75,651.8,652.15,652.03,651.54,652.03z M640.56,640.31h10.98c1.38,0,2.5,1.12,2.5,2.5v1.06l3.2-2.91
				c0.46-0.42,1.06-0.65,1.68-0.65h4.57V630h-22.93V640.31z"/>
		</g>
	</g>
	<g>
		<g>
			<path class="st35" d="M583.31,680.18h-27.93c-1.38,0-2.5-1.12-2.5-2.5v-15.31c0-1.38,1.12-2.5,2.5-2.5h6.1l6.67-6.06
				c0.73-0.66,1.79-0.84,2.69-0.44c0.9,0.4,1.49,1.3,1.49,2.29v4.21h10.98c1.38,0,2.5,1.12,2.5,2.5v15.31
				C585.81,679.07,584.69,680.18,583.31,680.18z M557.88,675.18h22.93v-10.31h-10.98c-1.38,0-2.5-1.12-2.5-2.5v-1.06l-3.2,2.91
				c-0.46,0.42-1.06,0.65-1.68,0.65h-4.57V675.18z"/>
		</g>
	</g>
</g>
<g>
	<polygon class="st10" points="643.65,824.24 643.11,759.06 577.72,759.06 577.72,845.03 622.86,845.03 	"/>
</g>
<g>
	<circle class="st5" cx="570.58" cy="776.76" r="11.23"/>
</g>
<g>
	<circle class="st14" cx="570.58" cy="827.67" r="11.23"/>
</g>
<g>
	<circle class="st19" cx="643.65" cy="791.75" r="11.23"/>
</g>
<g>
	<path class="st13" d="M643.65,816.44h-21.35c-4.04,0-7.32,3.28-7.32,7.32v20.94h8.69v-19.57h19.98V816.44z"/>
</g>
<g>
	<path class="st35" d="M643.65,826.74c-1.38,0-2.5-1.12-2.5-2.5v-13.88c0-1.38,1.12-2.5,2.5-2.5s2.5,1.12,2.5,2.5v13.88
		C646.15,825.62,645.03,826.74,643.65,826.74z"/>
</g>
<g>
	<path class="st35" d="M643.65,775.64c-1.38,0-2.5-1.12-2.5-2.5v-11.58h-63.43c-1.38,0-2.5-1.12-2.5-2.5s1.12-2.5,2.5-2.5h65.93
		c1.38,0,2.5,1.12,2.5,2.5v14.08C646.15,774.52,645.03,775.64,643.65,775.64z"/>
</g>
<g>
	<path class="st35" d="M577.72,811.51c-1.38,0-2.5-1.12-2.5-2.5v-13.69c0-1.38,1.12-2.5,2.5-2.5s2.5,1.12,2.5,2.5v13.69
		C580.22,810.39,579.1,811.51,577.72,811.51z"/>
</g>
<g>
	<path class="st35" d="M622.86,847.53h-45.15c-1.38,0-2.5-1.12-2.5-2.5s1.12-2.5,2.5-2.5h45.15c1.38,0,2.5,1.12,2.5,2.5
		S624.25,847.53,622.86,847.53z"/>
</g>
<g>
	<path class="st35" d="M622.86,847.53c-0.32,0-0.65-0.06-0.96-0.19c-0.93-0.39-1.54-1.3-1.54-2.31v-20.79c0-1.38,1.12-2.5,2.5-2.5
		h20.79c1.01,0,1.92,0.61,2.31,1.54c0.39,0.93,0.17,2.01-0.54,2.72l-20.79,20.79C624.15,847.27,623.51,847.53,622.86,847.53z
		 M625.36,826.74v12.25l12.25-12.25H625.36z"/>
</g>
<g>
	<path class="st18" d="M609.4,783.13h-17.63c-1.38,0-2.5-1.12-2.5-2.5s1.12-2.5,2.5-2.5h17.63c1.38,0,2.5,1.12,2.5,2.5
		S610.78,783.13,609.4,783.13z"/>
</g>
<g>
	<path class="st18" d="M629.6,795.81h-37.83c-1.38,0-2.5-1.12-2.5-2.5s1.12-2.5,2.5-2.5h37.83c1.38,0,2.5,1.12,2.5,2.5
		S630.98,795.81,629.6,795.81z"/>
</g>
<g>
	<path class="st18" d="M629.6,808.5h-37.83c-1.38,0-2.5-1.12-2.5-2.5s1.12-2.5,2.5-2.5h37.83c1.38,0,2.5,1.12,2.5,2.5
		S630.98,808.5,629.6,808.5z"/>
</g>
<g>
	<path class="st18" d="M609.4,821.18h-17.63c-1.38,0-2.5-1.12-2.5-2.5s1.12-2.5,2.5-2.5h17.63c1.38,0,2.5,1.12,2.5,2.5
		S610.78,821.18,609.4,821.18z"/>
</g>
<g>
	<path class="st35" d="M570.58,790.49c-7.57,0-13.73-6.16-13.73-13.73s6.16-13.73,13.73-13.73s13.73,6.16,13.73,13.73
		S578.15,790.49,570.58,790.49z M570.58,768.03c-4.81,0-8.73,3.92-8.73,8.73c0,4.81,3.92,8.73,8.73,8.73c4.81,0,8.73-3.92,8.73-8.73
		C579.3,771.95,575.39,768.03,570.58,768.03z"/>
</g>
<g>
	<path class="st35" d="M570.58,840.79c-7.57,0-13.73-6.16-13.73-13.73s6.16-13.73,13.73-13.73s13.73,6.16,13.73,13.73
		S578.15,840.79,570.58,840.79z M570.58,818.33c-4.81,0-8.73,3.92-8.73,8.73c0,4.81,3.92,8.73,8.73,8.73c4.81,0,8.73-3.92,8.73-8.73
		C579.3,822.25,575.39,818.33,570.58,818.33z"/>
</g>
<g>
	<path class="st35" d="M643.65,805.58c-7.57,0-13.73-6.16-13.73-13.73s6.16-13.73,13.73-13.73s13.73,6.16,13.73,13.73
		S651.22,805.58,643.65,805.58z M643.65,783.13c-4.81,0-8.73,3.92-8.73,8.73c0,4.81,3.92,8.73,8.73,8.73c4.81,0,8.73-3.92,8.73-8.73
		C652.38,787.04,648.47,783.13,643.65,783.13z"/>
</g>
<g>
	<path class="st35" d="M570.58,782.03c-1.38,0-2.5-1.12-2.5-2.5v-5.53c0-1.38,1.12-2.5,2.5-2.5s2.5,1.12,2.5,2.5v5.53
		C573.08,780.91,571.96,782.03,570.58,782.03z"/>
</g>
<g>
	<path class="st35" d="M570.58,832.33c-1.38,0-2.5-1.12-2.5-2.5v-5.53c0-1.38,1.12-2.5,2.5-2.5s2.5,1.12,2.5,2.5v5.53
		C573.08,831.21,571.96,832.33,570.58,832.33z"/>
</g>
<g>
	<path class="st35" d="M643.65,797.34c-1.38,0-2.5-1.12-2.5-2.5v-5.53c0-1.38,1.12-2.5,2.5-2.5s2.5,1.12,2.5,2.5v5.53
		C646.15,796.22,645.03,797.34,643.65,797.34z"/>
</g>
</svg>
