<svg width="100" height="77" viewBox="0 0 100 77" fill="none" xmlns="http://www.w3.org/2000/svg">
<g clip-path="url(#clip0)">
<path d="M11.8667 58.0117H16.8667C17.4 58.0117 18 58.0117 18.5333 58.4796C18.9333 58.8137 19.1333 59.3484 19.1333 59.9499C19.1333 60.3509 19 60.7519 18.8 61.0861C18.5333 61.4871 18.1333 61.6207 17.9333 61.6876C18.1333 61.6876 18.2667 61.7544 18.4667 61.8212C19.0667 62.0886 19.4667 62.8237 19.4667 63.6257C19.4667 64.2272 19.2667 64.8956 18.8 65.2966C18.3333 65.7644 17.6 65.7644 17.2 65.7644H11.8V58.0117H11.8667ZM12.5333 61.4202H16.8C17.2 61.4202 17.7333 61.4202 18.1333 61.0192C18.4667 60.6851 18.4667 60.2841 18.4667 60.0836C18.4667 59.5489 18.2667 59.1479 17.9333 58.9474C17.6 58.7469 17.1333 58.7469 16.8667 58.7469H12.5333V61.4202ZM12.5333 65.0961H17.2667C17.6 65.0961 18.1333 65.0961 18.4667 64.6283C18.6667 64.4278 18.8 64.0936 18.8 63.6257C18.8 63.0242 18.5333 62.6901 18.4 62.4896C18 62.0217 17.0667 62.0217 16.7333 62.0217H12.5333V65.0961Z" fill="white"/>
<path d="M22.8667 58.0117H23.5333V65.7644H22.8667V58.0117Z" fill="white"/>
<path d="M12.3333 68.1036L14.1333 74.3192C14.2 74.5197 14.2667 74.8538 14.4 75.2549C14.7333 74.1855 14.8 73.9182 15.0667 73.1162L16.6 68.1705H17.3333L19.2667 74.2523C19.4 74.5865 19.4667 74.787 19.5333 75.2549C19.6667 74.6533 19.7333 74.5197 19.8667 73.9182L21.5333 68.1705H22.2L19.9333 76.0569H19.1333L17.1333 69.7077C17 69.3735 17 69.2398 16.9333 68.9056C16.8 69.3066 16.8 69.3066 16.6667 69.7077L14.7333 75.99H14L11.6667 68.1036H12.3333Z" fill="white"/>
<path d="M32.8 72.0468C32.8 74.3191 31.1333 76.1905 28.6 76.1905C26.1333 76.1905 24.4667 74.4528 24.4667 72.0468C24.4667 69.7076 26.0667 67.9031 28.6667 67.9031C31.4 67.9031 32.8 70.0418 32.8 72.0468ZM25.1333 72.0468C25.1333 74.1855 26.6667 75.5221 28.6 75.5221C30.4667 75.5221 32 74.2523 32 71.9799C32 70.9774 31.6 69.8413 30.7333 69.2398C30.4 68.9724 29.5333 68.5046 28.4 68.5714C26.1333 68.6382 25.1333 70.4428 25.1333 72.0468Z" fill="white"/>
<path d="M40.8667 68.1036C41.3333 68.1036 41.9333 68.1036 42.4 68.4378C42.9333 68.772 43.2667 69.5071 43.2667 70.3092C43.2667 70.9107 43.1333 71.5122 42.6 71.98C42.0667 72.4478 41.3333 72.5147 40.7333 72.5147L43.6 76.0569H42.6667L39.8667 72.5147H36.6667V76.0569H36V68.1705H40.8667V68.1036ZM36.6667 71.7795H40.4667C41.2 71.7795 41.8 71.7795 42.2667 71.2448C42.5333 70.9775 42.6 70.5765 42.6 70.1755C42.6 69.6408 42.4 69.2398 42.1333 69.0393C41.8 68.7051 41.3333 68.7051 40.9333 68.7051H36.6667V71.7795Z" fill="white"/>
<path d="M47.2667 68.1036V75.3217H52.4V75.99H46.5334V68.1036H47.2667Z" fill="white"/>
<path d="M55.3333 68.1036H58.8667C59.5333 68.1036 60.1333 68.1036 60.7333 68.5046C62.0667 69.2398 62.5333 70.7102 62.5333 72.0468C62.5333 73.584 61.9333 74.7202 61.0667 75.3217C60.2667 75.9232 59.2667 75.99 58.4667 75.99H55.3333V68.1036ZM56 75.3217H58.2667C59.2 75.3217 60.2667 75.3217 61 74.5865C61.6 73.985 61.8 73.0493 61.8 72.1805C61.8 71.3117 61.6 70.5097 61.2 69.9081C60.4667 68.8388 59.3333 68.8388 58.8667 68.8388H56V75.3217Z" fill="white"/>
<path d="M65.5333 68.1036L67.3333 74.3192C67.4 74.5197 67.4667 74.8538 67.6 75.2549C67.9333 74.1855 68 73.9182 68.2667 73.1162L69.8 68.1705H70.5333L72.4667 74.2523C72.6 74.5865 72.6667 74.787 72.7333 75.2549C72.8667 74.6533 72.9333 74.5197 73.0667 73.9182L74.7333 68.1705H75.4L73.1333 76.0569H72.3333L70.3333 69.7077C70.2 69.3735 70.2 69.2398 70.1333 68.9056C70 69.3066 70 69.3066 69.8667 69.7077L67.9333 75.99H67.1333L64.8 68.1036H65.5333Z" fill="white"/>
<path d="M78.2 68.1036H78.8667V75.99H78.2V68.1036Z" fill="white"/>
<path d="M82.4 68.1036H85.9333C86.6 68.1036 87.2 68.1036 87.8 68.5046C89.1333 69.2398 89.6 70.7102 89.6 72.0468C89.6 73.584 89 74.7202 88.1333 75.3217C87.3333 75.9232 86.3333 75.99 85.5333 75.99H82.3333L82.4 68.1036ZM83.1333 75.3217H85.4C86.3333 75.3217 87.4 75.3217 88.1333 74.5865C88.8 73.985 88.9333 73.0493 88.9333 72.1805C88.9333 71.3117 88.7333 70.5097 88.3333 69.9081C87.6 68.8388 86.4667 68.8388 86 68.8388H83.1333V75.3217Z" fill="white"/>
<path d="M92.9333 68.1036H99.7334V68.772H93.6667V71.5122H99.2667V72.1805H93.6667V75.3217H100.067V75.99H93L92.9333 68.1036Z" fill="white"/>
<path d="M61.4 38.5631L81.8667 43.6424L100 0L61.4 38.5631Z" fill="white"/>
<path d="M0 23.3918L38.2667 61.6876L61.4 38.5631L0 23.3918Z" fill="white"/>
<path d="M38.3333 61.6876L81.9333 43.6425L61.4667 38.5631L38.3333 61.6876Z" fill="white"/>
</g>
<defs>
<clipPath id="clip0">
<rect width="100" height="76.1905" fill="white"/>
</clipPath>
</defs>
</svg>
