<?xml version="1.0" encoding="utf-8"?>
<!-- Generator: Adobe Illustrator 18.1.1, SVG Export Plug-In . SVG Version: 6.00 Build 0)  -->
<svg version="1.1"
	 id="svg2" xmlns:dc="http://purl.org/dc/elements/1.1/" xmlns:cc="http://web.resource.org/cc/" xmlns:rdf="http://www.w3.org/1999/02/22-rdf-syntax-ns#" xmlns:svg="http://www.w3.org/2000/svg" xmlns:sodipodi="http://sodipodi.sourceforge.net/DTD/sodipodi-0.dtd" xmlns:inkscape="http://www.inkscape.org/namespaces/inkscape" sodipodi:docname="macys.svg" inkscape:version="0.45.1" inkscape:output_extension="org.inkscape.output.svg.inkscape" sodipodi:version="0.32" sodipodi:docbase="C:\Users\Kyle J. Goldstein\Desktop"
	 xmlns="http://www.w3.org/2000/svg" xmlns:xlink="http://www.w3.org/1999/xlink" x="0px" y="0px" viewBox="-99 211.4 1929.7 512"
	 enable-background="new -99 211.4 1929.7 512" xml:space="preserve">
<sodipodi:namedview  inkscape:cy="114.4594" inkscape:cx="192.01316" inkscape:zoom="2" guidetolerance="10.0" gridtolerance="10.0" objecttolerance="10.0" borderopacity="1.0" pagecolor="#ffffff" bordercolor="#666666" id="base" inkscape:current-layer="svg2" inkscape:window-y="-8" inkscape:window-x="-8" inkscape:window-height="750" inkscape:window-width="1280" inkscape:pageshadow="2" inkscape:pageopacity="0.0">
	</sodipodi:namedview>
<path id="path2215" sodipodi:nodetypes="cssscccccssscccssscccsssccc" fill="#E70000" d="M-33.5,612.6c0.4-1.4,5.6-17.4,11.5-35.5
	c11.1-34.1,26.5-81.6,26.7-83c0.1-0.4-9.2-7.6-20.7-15.9s-34.9-25.2-52-37.6L-99,418.1l64.5-0.5l64.5-0.5l14.9-45.5
	c8.2-25,16.8-51.7,19.1-59.2c2.3-7.5,4.6-14.1,5.1-14.6c0.5-0.5,1.8,2.2,3.1,6c1.2,3.8,10,31,19.6,60.4l17.4,53.4h64.1
	c55,0.1,59.6,0.3,60.6,0.3c1.4,0-12.3,11.9-27.6,22.9c-57.7,41.6-72.5,52.6-72,53.9c0.4,1.1,35.8,110.1,38.1,117.3l1,3.1l-3-2
	c-2.7-1.8-35.8-25.8-49-35.6C99,561.2,70.6,541.1,69.5,541c-1.2-0.1-49.6,34.4-83.7,59.7c-6.9,5.1-14.3,10.5-16.3,11.9l-3.7,2.6
	L-33.5,612.6z"/>
<path id="path2211" sodipodi:nodetypes="csscccsssssscccssssssssssssssssssssssssscccccsscccccssssssssssscccccssssssssssccccccccccssscccsssssscccccccssscccccccsssssccccccsssssssscccccccccccssccssssssssssssccsssssssssscccssssssssssscccccssccccccccccsccccccccssssc" d="
	M1473.7,721.5c0.4-1.1,2.8-7.1,5.2-13.4c2.4-6.3,8.5-21.4,13.5-33.4c9.4-22.6,21.5-52.5,24.5-60.3l1.7-4.4l-6.7-16.4
	c-10.9-26.9-24.4-60.7-28.4-71.2c-2.1-5.4-8.4-21.2-14-35.1c-15.4-37.9-27.8-68.7-33.1-82.7c-2.6-6.9-8.9-22.7-14-35.1
	c-5-12.4-13-31.9-17.6-43.4c-4.6-11.5-8.6-21.3-8.9-21.9c-0.3-0.7,2.9-0.9,9-0.5l9.5,0.5l4,10.4c2.2,5.7,11.5,28.9,20.7,51.5
	c9.2,22.6,19.5,48.5,23,57.5c3.5,9,9.6,24.1,13.5,33.4c3.9,9.3,8.4,20.4,9.9,24.7c1.5,4.2,6.6,16.8,11.2,28s9.6,23.5,11.1,27.4
	c4.9,13.2,19.5,48.2,20.1,48.2c0.3,0,2.8-5.3,5.4-11.8c5.4-13,26.1-64,35.1-86.3c3.2-7.8,9-22.1,12.9-31.8
	c8.4-20.6,26-64.1,34.2-84.4c3.1-7.8,10.1-24.9,15.5-37.8c5.4-13,10.2-24.9,10.8-26.5c1-2.8,1.4-2.9,11-3.3c8-0.3,9.8-0.1,9.4,1.1
	c-0.3,0.8-3.2,8-6.5,15.9c-6.6,16-14.9,36.6-24.9,61.5c-3.6,9-11.5,28.3-17.4,42.7c-23.3,56.7-28.9,70.5-32.6,80
	c-2.1,5.4-8.6,21.5-14.5,35.6s-11.1,27-11.5,28.5c-0.5,1.5-5.4,13.6-11,26.9s-10.5,25.3-10.9,26.9c-0.4,1.5-5.3,13.3-10.7,26.3
	c-5.4,13-11.6,28-13.6,33.4s-6.7,16.9-10.4,25.5l-6.6,15.6h-9.3C1473.8,723.4,1473,723.2,1473.7,721.5z M1724.1,614.3
	c-10.2-1.9-22.4-6.1-29.9-10.6c-7.9-4.7-21.4-16.2-26.1-22.5c-14-18.4-23.2-41.9-24.1-61.7l-0.4-8.2l7.3-0.3l7.3-0.3l0.6,5.3
	c2.7,21.7,12,44.9,23,57c15.8,17.4,37.3,27.8,57.6,27.8c8.8,0,22-3.1,30.4-7.1c26.3-12.5,43-36.4,44.9-64.4
	c0.8-12.4-0.9-21.1-6.4-32.3c-9.4-19.2-32.6-36-68-49.2c-38.1-14.2-55.6-26.6-65.1-45.9c-4.3-8.7-6.9-21.1-7-32.7
	c-0.1-27.9,15.7-54.2,39.8-66c12.9-6.3,20.7-8.3,33.6-8.3c22.3-0.1,39.8,7.2,55.9,23.1c12.7,12.6,19.6,26.3,21.4,42.8l0.7,6.6h-7.6
	h-7.6l-1.3-7.3c-2-11.7-7.5-21.5-17.6-31.3c-11.1-10.8-21.3-16-34.9-17.6c-30.6-3.8-56,13-64.6,42.5c-2.6,9-1.8,28.3,1.5,36.7
	c7.1,18.1,19.8,27.9,52.3,40.3c41.9,16,64.4,31,79.1,53c8.2,12.3,11.6,24.6,11.5,41.7c-0.1,19.8-4.8,34.4-16.4,51.7
	c-5.9,8.8-11.6,14.4-22.3,22.4c-9,6.6-13.6,8.9-24.1,12.1C1751.6,616,1738.6,616.9,1724.1,614.3z M308.8,614l-8.5-0.3v-155
	l-0.2-155.6l7.6,0l10.1,0l0.3,24.5l0.3,24.5l4.4-6.4c9.2-13.5,28.6-29.8,45.1-38.1c8.9-4.5,27-9.3,39.9-10.8
	c28.2-3.1,59.9,5.6,82.8,22.9c14.7,11.1,25.2,23.7,34.9,41.8l4.8,9l1.9-4.8c1-2.7,4.7-9.2,8.3-14.6c15.2-23,35.2-39.3,58.2-47.3
	c16.4-5.7,25.5-7.3,41.7-7.3c15.9,0,22.1,1,38.2,6.1c12,3.8,16.6,6,27.4,13.3c22.8,15.4,38.3,36.2,47.3,63.3
	c6.3,19.2,6.6,24,6.6,134.5l0,100.6l-8.8-0.4l-8.8-0.4l0-105.4l0-105.4l-2.7-11.9c-7-30.7-27.7-55.7-58-69.8
	c-12.7-5.9-20.2-7.7-35.5-8.4c-20-0.9-34.1,1.9-50.1,9.8c-26.4,13.2-45.1,35.5-54.5,65l-2.4,7.6l-0.3,109.3l-0.3,109.3H530h-8.2
	l-0.3-107.7c-0.4-123.5,0.4-113.9-11.1-137.3c-10.2-20.6-26.2-36.5-47.1-46.6c-13.8-6.6-23.2-8.9-39.7-9.6c-22.7-0.9-40,3.6-58,15.2
	c-12.5,8.1-18.4,13.2-26.2,23.3c-9,11.6-12.8,18.6-17.3,31.9l-3.7,11l-0.5,110.2l-0.5,110.2L308.8,614z M917,612.6
	c-26-2.7-46.2-9.6-68.3-23.1c-31.7-19.4-57.4-52.8-67.5-87.6c-5.7-19.9-6.7-26.8-6.7-47.6c0-21.5,1.1-29.3,7.3-49.3
	c14-45.7,54.4-86.8,99.6-101.2c36.6-11.7,67.2-11.7,103.9-0.1c32.5,10.3,67.1,38.1,83.8,67.4c2.5,4.4,5.1,8.3,5.7,8.5
	c0.7,0.3,1-12.6,0.8-37.8l-0.3-38.2h8.8h8.8v155.1v155.1h-8.8h-8.8l-0.3-43l-0.3-43l-3.8,6.6c-14.3,25-35.7,45.5-64.2,61.4
	c-15.5,8.6-36.2,14.6-58.5,16.9C935.6,613.9,929.6,613.9,917,612.6z M957,594.6c34.1-6.3,64.8-24.3,85.9-50.3
	c10.4-12.9,16.3-22.8,21.5-35.8c14.6-36.9,14.6-71.4-0.1-108.3c-9.2-23.1-25.7-44.4-46.8-60.2c-16.1-12.1-43.8-23.6-63.4-26.4
	c-11.5-1.6-34.1-1.4-45.1,0.6c-20.2,3.5-45.3,14.5-61.9,27c-9.5,7.1-22.8,20.9-30.1,31.1c-6.3,8.8-16.1,28.4-19.6,39.2
	c-9.5,29.5-8.6,64.5,2.3,92.3c10.8,27.4,26.8,48.5,50.2,66c14.1,10.6,39.9,21.5,58.6,24.9C920.2,596.7,945.7,596.7,957,594.6z
	 M1245.2,612.5c-37.3-3.9-68.9-19.1-95.5-45.7c-23.5-23.6-36.7-48-43.4-79.9c-2.5-11.9-2.9-16.6-2.9-32.6c0-35.1,7.5-59.7,27.3-90.2
	c3.3-5.1,11-14.3,17.1-20.6c23.5-24.2,49.2-38,84.3-45.5c15.1-3.2,42.6-3.5,57.5-0.6c35.5,6.9,63,21.5,86.6,45.9
	c6.6,6.8,14.3,15.9,17.1,20.1c6.9,10.4,15.6,26.8,14.8,27.6c-0.4,0.4-4.6,0.9-9.3,1.2l-8.7,0.5l-3.5-7c-4.1-8.3-12.7-20-22.1-30
	c-18.7-20-50.1-36.7-78.1-41.6c-12.6-2.2-35.9-2.2-48.5,0c-34.5,6-68.5,27-90.1,55.7c-11.6,15.4-22.6,41-26,60.7
	c-2.1,12-2.1,35.7,0,47.6c3.2,18.3,12.9,41.8,23.8,57.6c7,10.1,21.6,25.1,32.1,33.1c8.5,6.4,30,17.4,41.1,21.1
	c26.1,8.6,59.3,8.8,85,0.5c12.3-4,29.7-12.5,39.6-19.4c16.2-11.2,35.7-32.8,43.4-48.2l3.2-6.4h9.9h9.9l-5.6,10.5
	c-9.2,17.2-16.1,26.5-29.5,40c-22.1,22.2-48.5,36.9-76.4,42.6C1278.6,613.5,1263,614.4,1245.2,612.5z M1674.8,270.4
	c0-0.2,1.7-5.4,3.7-11.5l3.7-11.1l-6.7-4.7c-3.7-2.6-8.1-5.8-9.8-7.2l-3.1-2.5l12.3-0.3l12.3-0.3l2.9-9.9c1.6-5.4,3.1-10.6,3.4-11.5
	c0.3-0.9,2.3,3.5,4.4,9.9l3.8,11.5l11.8,0.5l11.8,0.5l-4.2,3.4c-2.3,1.8-6.5,4.9-9.4,6.9l-5.1,3.5l3.8,11.2
	c2.1,6.1,3.8,11.4,3.8,11.6c0,0.2-4.5-2.7-9.9-6.5c-7.2-5-10.3-6.6-11.4-5.8c-0.8,0.6-5.2,3.7-9.8,6.9
	C1678.6,268.2,1674.8,270.7,1674.8,270.4z"/>
</svg>
