<?xml version="1.0" encoding="utf-8"?>
<!-- Generator: Adobe Illustrator 19.2.1, SVG Export Plug-In . SVG Version: 6.00 Build 0)  -->
<svg version="1.1" id="Layer_1" xmlns:sketch="http://www.bohemiancoding.com/sketch/ns"
	 xmlns="http://www.w3.org/2000/svg" xmlns:xlink="http://www.w3.org/1999/xlink" x="0px" y="0px" viewBox="0 0 76 76"
	 style="enable-background:new 0 0 76 76;" xml:space="preserve">
<style type="text/css">
	.st0{fill:none;stroke:#E5E5E4;stroke-width:2;stroke-linecap:round;stroke-linejoin:round;stroke-miterlimit:10;}
	.st1{fill:#8C929D;}
	.st2{fill:#FC6D26;}
	.st3{fill:#E24329;}
	.st4{fill:#FCA326;}
	.st5{fill:#444444;}
	.st6{fill:#554488;}
	.st7{fill:#4887C5;}
	.st8{fill:url(#SVGID_1_);}
	.st9{fill:url(#SVGID_2_);}
	.st10{fill:#FFFFFF;}
	.st11{opacity:0.1;}
	.st12{fill:#5C5C5C;}
	.st13{fill:#787878;}
	.st14{fill:#A1A1A1;}
	.st15{opacity:0.15;}
	.st16{fill:#373D47;}
	.st17{fill:none;stroke:#000000;stroke-miterlimit:10;}
	.st18{fill:none;stroke:#FC6D26;stroke-width:1.8;stroke-linecap:round;stroke-linejoin:round;stroke-miterlimit:10;}
	.st19{fill:none;stroke:#E24329;stroke-width:1.8;stroke-linecap:round;stroke-linejoin:round;stroke-miterlimit:10;}
	.st20{fill:none;stroke:#FCA326;stroke-width:1.8;stroke-linecap:round;stroke-linejoin:round;stroke-miterlimit:10;}
	.st21{fill:none;stroke:#E5E5E4;stroke-width:1.8;stroke-linecap:round;stroke-linejoin:round;stroke-miterlimit:10;}
	.st22{fill:#2B2B2B;}
	.st23{fill:#FFFFFF;stroke:#E5E5E4;stroke-width:2;stroke-linecap:round;stroke-linejoin:round;stroke-miterlimit:10;}
	.st24{fill:#E5E5E4;}
	.st25{fill:none;stroke:#E5E5E4;stroke-width:1.8353;stroke-linecap:round;stroke-linejoin:round;stroke-miterlimit:10;}
	.st26{fill:none;stroke:#E14329;stroke-width:2;stroke-linecap:round;stroke-linejoin:round;stroke-miterlimit:10;}
	.st27{fill:#FFFFFF;stroke:#E14329;stroke-width:2;stroke-linecap:round;stroke-linejoin:round;stroke-miterlimit:10;}
	.st28{fill:none;stroke:#FCA326;stroke-width:2;stroke-linecap:round;stroke-linejoin:round;stroke-miterlimit:10;}
	.st29{fill:#E14329;}
	.st30{fill:none;stroke:#E14329;stroke-width:1.8353;stroke-linecap:round;stroke-linejoin:round;stroke-miterlimit:10;}
	.st31{fill:none;stroke:#E14329;stroke-width:2.055;stroke-linecap:round;stroke-linejoin:round;stroke-miterlimit:10;}
</style>
<g>
	<g>
		<path class="st29" d="M69.2,50H6.8C3.1,50,0,53.1,0,56.9v8.1C0,68.9,3.1,72,6.8,72h10.3c0.5,2.3,2.5,4,4.9,4c2.8,0,5-2.2,5-5
			c0-2.8-2.2-5-5-5c-2.4,0-4.4,1.7-4.9,4H6.8C4.2,70,2,67.8,2,65.1v-8.1C2,54.2,4.2,52,6.8,52h62.3c2.7,0,4.8,2.2,4.8,4.9v8.1
			c0,2.7-2.2,4.9-4.8,4.9H34.8c-0.6,0-1,0.5-1,1s0.4,1,1,1h34.3c3.8,0,6.8-3.1,6.8-6.9v-8.1C76,53.1,72.9,50,69.2,50z M22,68
			c1.7,0,3,1.3,3,3c0,1.7-1.3,3-3,3s-3-1.3-3-3C19,69.3,20.3,68,22,68z"/>
		<path class="st29" d="M60,56c-2.4,0-4.4,1.7-4.9,4H12c-0.5,0-1,0.4-1,1c0,0.6,0.4,1,1,1h43.1c0.5,2.3,2.5,4,4.9,4c2.8,0,5-2.2,5-5
			C65,58.2,62.8,56,60,56z M60,64c-1.7,0-3-1.3-3-3s1.3-3,3-3s3,1.3,3,3S61.7,64,60,64z"/>
	</g>
	<g>
		<path class="st29" d="M69.2,22H34.9c-0.5-2.3-2.5-4-4.9-4c-2.8,0-5,2.2-5,5c0,2.8,2.2,5,5,5c2.4,0,4.4-1.7,4.9-4h34.3
			c2.7,0,4.8,2.2,4.8,4.9v8.1c0,2.7-2.2,4.9-4.8,4.9H6.8C4.2,42,2,39.8,2,37.1v-8.1C2,26.2,4.2,24,6.8,24h11.4c0.6,0,1-0.5,1-1
			s-0.4-1-1-1H6.8C3.1,22,0,25.1,0,28.9v8.1C0,40.9,3.1,44,6.8,44h62.3c3.8,0,6.8-3.1,6.8-6.9v-8.1C76,25.1,72.9,22,69.2,22z M30,26
			c-1.7,0-3-1.3-3-3c0-1.7,1.3-3,3-3c1.7,0,3,1.3,3,3C33,24.7,31.7,26,30,26z"/>
		<path class="st29" d="M60,28c-2.4,0-4.4,1.7-4.9,4H12c-0.5,0-1,0.4-1,1c0,0.6,0.4,1,1,1h43.1c0.5,2.3,2.5,4,4.9,4c2.8,0,5-2.2,5-5
			C65,30.2,62.8,28,60,28z M60,36c-1.7,0-3-1.3-3-3c0-1.7,1.3-3,3-3s3,1.3,3,3C63,34.7,61.7,36,60,36z"/>
	</g>
</g>
</svg>
