<?xml version="1.0" encoding="UTF-8"?>
<svg width="22px" height="20px" viewBox="0 0 22 20" version="1.1" xmlns="http://www.w3.org/2000/svg" xmlns:xlink="http://www.w3.org/1999/xlink">
    <title>LinkedIn-color</title>
    <g id="Page-1" stroke="none" stroke-width="1" fill="none" fill-rule="evenodd" fill-opacity="0.4">
        <g id="DevSecOps-UI" transform="translate(-955.000000, -17845.000000)" fill="#444444">
            <path d="M977,17865 L972.1377,17865 L972.1377,17857.9692 C972.1377,17856.1289 971.377117,17854.8726 969.70461,17854.8726 C968.425329,17854.8726 967.713899,17855.7204 967.382761,17856.5374 C967.258584,17856.8307 967.277987,17857.2392 967.277987,17857.6478 L967.277987,17865 L962.46096,17865 C962.46096,17865 962.523048,17852.5456 962.46096,17851.4135 L967.277987,17851.4135 L967.277987,17853.5458 C967.562559,17852.6135 969.101834,17851.2829 971.558208,17851.2829 C974.605715,17851.2829 977,17853.2372 977,17857.4454 L977,17865 L977,17865 Z M957.589605,17849.7141 L957.558561,17849.7141 C956.00635,17849.7141 955,17848.6755 955,17847.359 C955,17846.0168 956.036101,17845 957.619356,17845 C959.201317,17845 960.174036,17846.0143 960.20508,17847.3551 C960.20508,17848.6716 959.201317,17849.7141 957.589605,17849.7141 L957.589605,17849.7141 L957.589605,17849.7141 Z M955.554915,17851.4135 L959.842897,17851.4135 L959.842897,17865 L955.554915,17865 L955.554915,17851.4135 L955.554915,17851.4135 Z" id="LinkedIn"></path>
        </g>
    </g>
</svg>