<?xml version="1.0" encoding="UTF-8"?>
<svg width="27px" height="27px" viewBox="0 0 27 27" version="1.1" xmlns="http://www.w3.org/2000/svg" xmlns:xlink="http://www.w3.org/1999/xlink">
    <title>Group 7</title>
    <g id="Page-1" stroke="none" stroke-width="1" fill="none" fill-rule="evenodd" stroke-linecap="round" stroke-linejoin="round">
        <g id="DevSecOps-UI" transform="translate(-380.000000, -819.000000)" stroke="#49F2BA" stroke-width="3">
            <g id="Group-4" transform="translate(187.000000, 800.000000)">
                <g id="Group-6">
                    <g id="Group-7" transform="translate(194.000000, 20.000000)">
                        <path d="M24.4942,12.1379 C24.6942,18.7619 19.4862,24.2939 12.8622,24.4939 C6.2382,24.6949 0.7062,19.4869 0.5062,12.8629 C0.3062,6.2389 5.5142,0.7049 12.1382,0.5049 C18.7622,0.3059 24.2942,5.5129 24.4942,12.1379 Z" id="Stroke-1"></path>
                        <polyline id="Stroke-3" points="12.1377 0.5051 12.4997 12.5001 22.6497 6.0951"></polyline>
                        <line x1="12.5" y1="12.5002" x2="19.889" y2="21.4172" id="Stroke-5"></line>
                    </g>
                </g>
            </g>
        </g>
    </g>
</svg>