<?xml version="1.0" encoding="UTF-8" standalone="no"?>
<!-- Created with Inkscape (http://www.inkscape.org/) -->

<svg
   xmlns:sketch="http://www.bohemiancoding.com/sketch/ns"
   xmlns:dc="http://purl.org/dc/elements/1.1/"
   xmlns:cc="http://creativecommons.org/ns#"
   xmlns:rdf="http://www.w3.org/1999/02/22-rdf-syntax-ns#"
   xmlns:svg="http://www.w3.org/2000/svg"
   xmlns="http://www.w3.org/2000/svg"
   xmlns:xlink="http://www.w3.org/1999/xlink"
   xmlns:sodipodi="http://sodipodi.sourceforge.net/DTD/sodipodi-0.dtd"
   xmlns:inkscape="http://www.inkscape.org/namespaces/inkscape"
   width="1052.3622"
   height="744.09448"
   id="svg2"
   version="1.1"
   inkscape:version="0.91 r13725"
   sodipodi:docname="git-cheatsheet-page01.svg">
  <defs
     id="defs4">
    <linearGradient
       id="linearGradient4723">
      <stop
         style="stop-color:#554488;stop-opacity:1;"
         offset="0"
         id="stop4725" />
      <stop
         id="stop4491"
         offset="0.5"
         style="stop-color:#7b62c5;stop-opacity:0.35686275;" />
      <stop
         style="stop-color:#ffffff;stop-opacity:0.31724137;"
         offset="1"
         id="stop4727" />
    </linearGradient>
    <marker
       inkscape:stockid="Arrow1Mend"
       orient="auto"
       refY="0.0"
       refX="0.0"
       id="Arrow1Mend"
       style="overflow:visible;">
      <path
         id="path3893"
         d="M 0.0,0.0 L 5.0,-5.0 L -12.5,0.0 L 5.0,5.0 L 0.0,0.0 z "
         style="fill-rule:evenodd;stroke:#000000;stroke-width:1.0pt;"
         transform="scale(0.4) rotate(180) translate(10,0)" />
    </marker>
    <style
       id="style3007">.cls-1{fill:#30353e;}.cls-2{fill:#8c929d;}.cls-3{fill:#fc6d26;}.cls-4{fill:#e24329;}.cls-5{fill:#fca326;}</style>
    <mask
       id="mask-2"
       sketch:name="path22"
       fill="white">
      <use
         xlink:href="#path-1"
         id="use3172"
         x="0"
         y="0"
         width="1300"
         height="680" />
    </mask>
    <path
       d="M-69.8,1023.54607 L1675.19996,1023.54607 L1675.19996,0 L-69.8,0 L-69.8,1023.54607 L-69.8,1023.54607 Z"
       id="path-1" />
    <linearGradient
       inkscape:collect="always"
       xlink:href="#linearGradient4723"
       id="linearGradient4489"
       x1="410.47501"
       y1="410.39545"
       x2="983.90417"
       y2="410.39545"
       gradientUnits="userSpaceOnUse"
       gradientTransform="translate(10.50986,1.3908308)" />
  </defs>
  <sodipodi:namedview
     id="base"
     pagecolor="#ffffff"
     bordercolor="#666666"
     borderopacity="1.0"
     inkscape:pageopacity="0"
     inkscape:pageshadow="2"
     inkscape:zoom="2.1020451"
     inkscape:cx="726.58603"
     inkscape:cy="437.61342"
     inkscape:document-units="mm"
     inkscape:current-layer="layer9"
     showgrid="true"
     units="mm"
     inkscape:showpageshadow="false"
     showguides="true"
     inkscape:guide-bbox="true"
     inkscape:window-width="1920"
     inkscape:window-height="1028"
     inkscape:window-x="0"
     inkscape:window-y="0"
     inkscape:window-maximized="1"
     inkscape:snap-global="true">
    <sodipodi:guide
       orientation="0,1"
       position="-327.14286,35.433071"
       id="guide3684" />
    <sodipodi:guide
       orientation="0,1"
       position="37.142857,708.66142"
       id="guide3686" />
    <sodipodi:guide
       orientation="1,0"
       position="35.433071,528.57143"
       id="guide3688" />
    <sodipodi:guide
       orientation="1,0"
       position="1016.9291,535.71429"
       id="guide3690" />
    <sodipodi:guide
       orientation="0,1"
       position="62.857143,558.07087"
       id="guide3692" />
    <sodipodi:guide
       orientation="0,1"
       position="278.8021,744.09449"
       id="guide3694" />
    <sodipodi:guide
       orientation="0,1"
       position="74.751288,0"
       id="guide3696" />
    <sodipodi:guide
       orientation="1,0"
       position="0,460.62956"
       id="guide3698" />
    <sodipodi:guide
       orientation="1,0"
       position="1052.3622,428.30468"
       id="guide3700" />
    <sodipodi:guide
       orientation="0,1"
       position="265.64868,53.149606"
       id="guide4472" />
    <sodipodi:guide
       orientation="0,1"
       position="98.748985,575.7874"
       id="guide3036" />
    <sodipodi:guide
       orientation="1,0"
       position="361.41732,406.12323"
       id="guide4873" />
    <sodipodi:guide
       orientation="1,0"
       position="690.94488,336.58105"
       id="guide4875" />
    <sodipodi:guide
       orientation="0,1"
       position="196.10714,540.35433"
       id="guide4877" />
    <sodipodi:guide
       orientation="0,1"
       position="-77.886523,70.866142"
       id="guide4879" />
    <sodipodi:guide
       orientation="1,0"
       position="352.55906,477.05496"
       id="guide4886" />
    <sodipodi:guide
       orientation="1,0"
       position="370.27559,356.05268"
       id="guide4888" />
    <sodipodi:guide
       orientation="1,0"
       position="682.08661,382.47846"
       id="guide4890" />
    <sodipodi:guide
       orientation="1,0"
       position="699.80315,346.31686"
       id="guide4892" />
    <inkscape:grid
       type="xygrid"
       id="grid3342"
       empspacing="10"
       visible="true"
       enabled="true"
       snapvisiblegridlinesonly="true"
       units="mm"
       spacingx="1mm"
       spacingy="1mm" />
  </sodipodi:namedview>
  <metadata
     id="metadata7">
    <rdf:RDF>
      <cc:Work
         rdf:about="">
        <dc:format>image/svg+xml</dc:format>
        <dc:type
           rdf:resource="http://purl.org/dc/dcmitype/StillImage" />
        <dc:title />
      </cc:Work>
    </rdf:RDF>
  </metadata>
  <g
     inkscape:label="background"
     inkscape:groupmode="layer"
     id="layer1"
     transform="translate(0,-308.26769)"
     style="display:inline">
    <rect
       style="fill:#554488;fill-opacity:1;fill-rule:nonzero;stroke:none"
       id="rect3702"
       width="1052.3622"
       height="186.02362"
       x="0"
       y="308.26767" />
    <rect
       style="fill:#554488;fill-opacity:1;fill-rule:nonzero;stroke:none"
       id="rect4474"
       width="1052.3622"
       height="53.149605"
       x="0"
       y="690.94489"
       transform="translate(0,308.26769)" />
    <flowRoot
       xml:space="preserve"
       id="flowRoot4476"
       style="font-style:normal;font-variant:normal;font-weight:bold;font-stretch:normal;font-size:9px;line-height:125%;font-family:'Roboto Condensed';-inkscape-font-specification:'Roboto Condensed, Bold';text-align:start;letter-spacing:0px;word-spacing:0px;writing-mode:lr-tb;text-anchor:start;fill:#ffffff;fill-opacity:1;stroke:none"
       transform="matrix(1.0000019,0,0,1.0000019,54.923772,316.93233)"><flowRegion
         id="flowRegion4478"><rect
           id="rect4480"
           width="86.299133"
           height="26.553579"
           x="939.45581"
           y="690.9873"
           style="font-style:normal;font-variant:normal;font-weight:bold;font-stretch:normal;font-size:9px;line-height:125%;font-family:'Roboto Condensed';-inkscape-font-specification:'Roboto Condensed, Bold';text-align:start;letter-spacing:0px;writing-mode:lr-tb;text-anchor:start;fill:#ffffff" /></flowRegion><flowPara
         id="flowPara4482"
         style="font-style:normal;font-variant:normal;font-weight:bold;font-stretch:normal;font-size:9px;line-height:125%;font-family:'Roboto Condensed';-inkscape-font-specification:'Roboto Condensed, Bold';text-align:start;letter-spacing:0px;word-spacing:0px;writing-mode:lr-tb;text-anchor:start;fill:#ffffff">v1.0.1</flowPara></flowRoot>    <text
       xml:space="preserve"
       style="font-style:italic;font-variant:normal;font-weight:bold;font-stretch:normal;font-size:13.36158657px;line-height:125%;font-family:'Roboto Condensed';-inkscape-font-specification:'Roboto Condensed, Bold Italic';text-align:start;letter-spacing:0px;word-spacing:0px;writing-mode:lr-tb;text-anchor:start;fill:#ffffff;fill-opacity:1;stroke:none"
       x="35.252048"
       y="1014.0585"
       id="text5502"
       sodipodi:linespacing="125%"><tspan
         sodipodi:role="line"
         id="tspan5504"
         x="35.252048"
         y="1014.0585">GitLab - Everyone can contribute    https://about.gitlab.com/</tspan></text>
    <path
       style="color:#000000;font-style:normal;font-variant:normal;font-weight:normal;font-stretch:normal;font-size:medium;line-height:normal;font-family:Sans;-inkscape-font-specification:Sans;text-indent:0;text-align:start;text-decoration:none;text-decoration-line:none;letter-spacing:normal;word-spacing:normal;text-transform:none;direction:ltr;block-progression:tb;writing-mode:lr-tb;baseline-shift:baseline;text-anchor:start;display:inline;overflow:visible;visibility:visible;fill:url(#linearGradient4489);fill-opacity:1;stroke:none;stroke-width:1.41732287;marker:none;enable-background:accumulate"
       d="m 596.41259,363.00787 c -1.90321,0 -3.49636,1.30685 -3.92669,3.07767 l -61.6065,0 -0.0796,0 c -0.2159,0 -0.39058,0.26247 -0.37144,0.47757 0.0191,0.21509 0.23507,0.39773 0.45104,0.39797 l 61.47385,0 c -5.2e-4,0.0266 0,0.0528 0,0.0796 0,2.23337 1.82597,4.03281 4.05934,4.03281 2.17005,0 3.90762,-1.70142 4.00628,-3.84709 8.18269,1.14786 12.79525,5.7909 17.53743,10.53307 4.6684,4.6684 9.47203,9.4266 17.67008,10.71879 0.22553,2.01977 1.89978,3.58177 3.97975,3.58177 1.96312,0 3.58593,-1.38155 3.95321,-3.23686 l 15.54756,0 c 0.36728,1.85531 1.99009,3.23686 3.95321,3.23686 1.96312,0 3.58594,-1.38155 3.95322,-3.23686 l 16.87413,0 c 11.08047,0 16.71312,-5.59636 22.18047,-11.0637 4.89766,-4.89766 9.66693,-9.66799 18.35991,-10.61267 0.0566,2.18404 1.86165,3.92669 4.05934,3.92669 2.23337,0 4.03281,-1.79944 4.03281,-4.03281 0,-0.0268 5.2e-4,-0.053 0,-0.0796 l 35.12792,0 c -5.2e-4,0.0266 0,0.0528 0,0.0796 0,2.23337 1.79944,4.03281 4.03281,4.03281 2.17897,0 3.94757,-1.71555 4.03281,-3.87362 8.6809,0.93369 15.47076,4.64557 21.30492,9.89631 6.77667,6.09898 12.2558,14.27126 17.72315,22.47231 5.46734,8.20098 10.93774,16.42901 17.82927,22.6315 5.02518,4.52266 10.81096,7.93794 17.85581,9.47181 l -31.57267,0 c -0.36729,-1.85531 -1.9901,-3.2634 -3.95322,-3.2634 -1.96312,0 -3.61247,1.40809 -3.97975,3.2634 l -35.26057,0 c -0.36729,-1.85531 -2.01663,-3.2634 -3.97975,-3.2634 -1.88513,0 -3.45206,1.30579 -3.90016,3.05114 -8.45008,-1.044 -13.16483,-5.76255 -17.98846,-10.58613 -4.82718,-4.8273 -9.79808,-9.76382 -18.5191,-10.85145 -0.11545,-2.12992 -1.87406,-3.82056 -4.03281,-3.82056 -2.08411,0 -3.75971,1.58273 -3.97975,3.60831 l -13.00051,0 c -0.22004,-2.02558 -1.92216,-3.60831 -4.00628,-3.60831 -2.08411,0 -3.75971,1.58273 -3.97975,3.60831 l -11.32902,0 c 6.68947,-1.78105 10.95905,-6.02422 15.12305,-10.18816 4.69445,-4.69444 9.273,-9.29596 17.29864,-10.50653 0.47634,1.70308 2.0185,2.94501 3.87362,2.94501 1.97205,0 3.62241,-1.3955 3.97975,-3.26339 l 36.50756,0 c 0.35734,1.86789 1.98117,3.26339 3.95322,3.26339 2.23337,0 4.05934,-1.79944 4.05934,-4.03281 0,-2.23337 -1.82597,-4.03281 -4.05934,-4.03281 -2.20661,0 -3.99013,1.75682 -4.03281,3.95321 l -36.34837,0 c -0.0427,-2.19639 -1.85274,-3.95321 -4.05935,-3.95321 -2.23337,0 -4.03281,1.79944 -4.03281,4.03281 0,0.0812 0.0218,0.15881 0.0265,0.23878 -8.27954,1.26137 -13.10912,6.0517 -17.80274,10.74532 -5.29638,5.29645 -10.41151,10.48035 -20.5355,10.79839 l -19.07626,0 c -0.0281,-0.25899 -0.0845,-0.50094 -0.15919,-0.74289 -0.0708,-0.22949 -0.15674,-0.45326 -0.26532,-0.66329 -0.11649,-0.2253 -0.24285,-0.43864 -0.39798,-0.63676 -0.11988,-0.15617 -0.25705,-0.2876 -0.39797,-0.4245 -0.0315,-0.03 -0.0472,-0.0771 -0.0796,-0.10613 -0.0472,-0.043 -0.10993,-0.0654 -0.15919,-0.10613 -0.13859,-0.11272 -0.27159,-0.22453 -0.4245,-0.31838 -0.20141,-0.1236 -0.41407,-0.2311 -0.63676,-0.31838 -0.45609,-0.18003 -0.96474,-0.29185 -1.48578,-0.29185 -0.27341,0 -0.53799,0.028 -0.79594,0.0796 -0.26979,0.0539 -0.52217,0.13411 -0.76942,0.23878 -0.22557,0.0955 -0.46106,0.21178 -0.66329,0.34492 -0.01,0.007 -0.0167,0.0199 -0.0265,0.0265 -0.2163,0.14531 -0.39994,0.32069 -0.58369,0.5041 -0.16515,0.16484 -0.31636,0.3392 -0.45104,0.53063 -0.0891,0.12672 -0.16445,0.26114 -0.23879,0.39798 -0.0489,0.0895 -0.11707,0.17185 -0.15919,0.26531 -0.0113,0.0253 -0.0157,0.0541 -0.0265,0.0796 -0.0992,0.23324 -0.15802,0.46287 -0.21225,0.71635 -0.0234,0.10633 -0.0382,0.2091 -0.0531,0.31838 -0.0175,0.13186 -0.0485,0.26237 -0.0531,0.39798 -8.36154,1.22991 -13.21654,6.053 -17.9354,10.77185 -0.70891,0.70892 -1.40664,1.40294 -2.12253,2.096 -3.50125,-3.73912 -5.80492,-8.29358 -8.11869,-12.92092 -2.73363,-5.4674 -5.50664,-11.0042 -10.37388,-15.1761 -4.2713,-3.6611 -10.15275,-6.21808 -18.97013,-6.79211 -0.50711,-1.65421 -2.02672,-2.86542 -3.84709,-2.86542 -1.77102,0 -3.27328,1.14775 -3.82056,2.73276 l -105.03883,0 c -0.0383,-0.006 -0.0944,-0.006 -0.13266,0 -0.22719,0.0302 -0.40174,0.27685 -0.37144,0.50411 0.0302,0.22718 0.27684,0.40174 0.5041,0.37144 l 104.85311,0 c -0.0158,0.14507 -0.0531,0.27524 -0.0531,0.4245 0,2.23338 1.82597,4.05935 4.05934,4.05935 2.23337,0 4.03281,-1.82597 4.03281,-4.05935 0,-0.10227 -0.0191,-0.19148 -0.0265,-0.29184 8.53686,0.59433 14.16649,3.10298 18.25378,6.60638 4.70054,4.02902 7.40145,9.41685 10.13509,14.88426 2.31068,4.6211 4.64734,9.30473 8.25135,13.1597 -3.85407,3.6481 -8.0929,6.78635 -14.56588,7.74725 -0.48454,-1.69036 -2.02754,-2.94502 -3.87362,-2.94502 -1.96313,0 -3.58594,1.40809 -3.95322,3.2634 l -14.30056,0 c -0.36729,-1.85531 -1.9901,-3.2634 -3.95322,-3.2634 -1.96312,0 -3.61247,1.40809 -3.97975,3.2634 l -105.38374,0 c -0.013,-5.6e-4 -65.62698,-5.6e-4 -65.63932,0 -0.23232,0.01 -0.43463,0.24525 -0.42451,0.47756 0.01,0.23232 0.21873,0.43463 0.45104,0.42451 l 170.91694,0 c 0.0566,2.18404 1.86165,3.92669 4.05934,3.92669 2.19769,0 3.97622,-1.74265 4.03281,-3.92669 l 14.14137,0 c 0.0566,2.18404 1.83513,3.92669 4.03282,3.92669 2.19768,0 3.97622,-1.74265 4.03281,-3.92669 l 35.12791,0 c 0.0566,2.18404 1.83513,3.92669 4.03281,3.92669 2.19769,0 4.00276,-1.74265 4.05935,-3.92669 l 10.95757,0 c -6.68946,1.78636 -10.95904,6.02416 -15.12304,10.18816 -4.6527,4.65269 -9.21371,9.19966 -17.11292,10.45347 -0.58941,-1.50391 -2.05462,-2.57357 -3.7675,-2.57357 -1.83792,0 -3.35527,1.23958 -3.84709,2.91848 l -36.71981,0 c -0.49182,-1.6789 -2.00916,-2.91848 -3.84709,-2.91848 -1.83793,0 -3.38181,1.23958 -3.87362,2.91848 l -83.62779,0 c -0.2454,-0.0309 -0.47757,0.17713 -0.47757,0.42451 0,0.24731 0.23217,0.45549 0.47757,0.42451 l 83.4686,0 c -0.006,0.0915 -0.0265,0.17225 -0.0265,0.26531 0,2.23337 1.82597,4.05935 4.05934,4.05935 2.23337,0 4.03281,-1.82598 4.03281,-4.05935 0,-0.0931 -0.0203,-0.17382 -0.0265,-0.26531 l 36.40143,0 c -0.006,0.0915 -0.0265,0.17225 -0.0265,0.26531 0,2.23337 1.79944,4.05935 4.03281,4.05935 2.23338,0 4.05935,-1.82598 4.05935,-4.05935 0,-0.22297 -0.0184,-0.4236 -0.0531,-0.63676 8.08615,-1.3281 12.85095,-6.0323 17.48437,-10.66572 4.7737,-4.77371 9.4369,-9.45153 17.72314,-10.5596 0.17677,2.07016 1.89036,3.6879 4.00628,3.6879 2.19769,0 3.97623,-1.74265 4.03282,-3.92669 l 14.14137,0 c 0.0566,2.18404 1.83512,3.92669 4.03281,3.92669 2.19769,0 4.00276,-1.74265 4.05934,-3.92669 l 17.29865,0 c 10.78877,0 16.10301,5.33104 21.57023,10.79839 4.82736,4.82729 9.79806,9.74212 18.5191,10.82491 -0.0198,0.16233 -0.0531,0.30988 -0.0531,0.47757 0,2.23337 1.79944,4.05935 4.03281,4.05935 2.23337,0 4.05934,-1.82598 4.05934,-4.05935 0,-0.0931 -0.0203,-0.17382 -0.0265,-0.26531 l 14.16791,0 c -0.006,0.0915 -0.0265,0.17225 -0.0265,0.26531 0,2.23337 1.82598,4.05935 4.05935,4.05935 2.23337,0 4.03281,-1.82598 4.03281,-4.05935 0,-0.0931 -0.0203,-0.17382 -0.0265,-0.26531 l 35.18098,0 c -0.006,0.0915 -0.0265,0.17225 -0.0265,0.26531 0,2.23337 1.79944,4.05935 4.03282,4.05935 2.23337,0 4.03281,-1.82598 4.03281,-4.05935 0,-0.18611 -0.0287,-0.35119 -0.0531,-0.53063 8.4442,-1.19257 13.32393,-6.02778 18.06806,-10.77185 4.66793,-4.66804 9.22414,-9.21739 17.16599,-10.45348 0.22553,2.01978 1.89977,3.58178 3.97974,3.58178 2.19769,0 4.00276,-1.74265 4.05935,-3.92669 l 40.08933,0 c 10.78884,0 16.07637,5.33104 21.54371,10.79839 4.72373,4.72372 9.58446,9.52688 17.96193,10.74532 -0.0268,0.18793 -0.0531,0.36184 -0.0531,0.55716 0,2.23337 1.82597,4.05935 4.05934,4.05935 2.23337,0 4.03281,-1.82598 4.03281,-4.05935 0,-0.0931 -0.0203,-0.17382 -0.0265,-0.26531 l 14.19444,0 c -0.006,0.0915 -0.0265,0.17225 -0.0265,0.26531 -9e-5,2.23337 1.7994,4.05935 4.03281,4.05935 2.23324,0 4.0593,-1.82598 4.0593,-4.05935 0,-2.23337 -1.82597,-4.03281 -4.0593,-4.03281 -1.83803,0 -3.3553,1.23958 -3.84713,2.91848 l -14.51282,0 c -0.49182,-1.6789 -2.00916,-2.91848 -3.84709,-2.91848 -1.74195,0 -3.22498,1.10877 -3.79403,2.65317 -8.17874,-1.14734 -12.79524,-5.7909 -17.53742,-10.53307 -4.164,-4.164 -8.43359,-8.4018 -15.12305,-10.18816 l 32.39516,0 c 0.0566,2.18404 1.86165,3.92669 4.05934,3.92669 2.23337,0 4.03281,-1.79944 4.03281,-4.03282 0,-2.23337 -1.79944,-4.05934 -4.03281,-4.05934 -1.96312,0 -3.61247,1.40809 -3.97975,3.2634 l -54.36336,0 c 6.68946,-1.78637 10.95904,-5.99763 15.12304,-10.16163 4.63649,-4.6365 9.18487,-9.17537 17.03332,-10.45347 0.37708,1.84272 1.99902,3.23686 3.95322,3.23686 2.07997,0 3.78075,-1.58853 4.00628,-3.60831 l 14.22097,0 c 0.22553,2.01978 1.92631,3.60831 4.00628,3.60831 2.23337,0 4.03281,-1.82597 4.03281,-4.05934 0,-2.23338 -1.79944,-4.03282 -4.03281,-4.03282 -2.08411,0 -3.78624,1.58273 -4.00628,3.60831 l -14.22097,0 c -0.22004,-2.02558 -1.92216,-3.60831 -4.00628,-3.60831 -2.21495,0 -4.00327,1.77182 -4.03281,3.97975 -8.13277,1.31663 -12.91591,6.04427 -17.56396,10.69226 -5.46734,5.46728 -10.78139,10.79839 -21.57024,10.79839 l -18.28031,0 c -0.36728,-1.85531 -2.01662,-3.2634 -3.97975,-3.2634 -1.96312,0 -3.58593,1.40809 -3.95321,3.2634 l -13.05358,0 c -0.0146,-0.0736 -0.0346,-0.14009 -0.0531,-0.21226 -0.0494,-0.193 -0.10993,-0.37625 -0.18572,-0.55716 -0.0774,-0.18309 -0.16285,-0.3625 -0.26532,-0.53064 -0.0491,-0.0823 -0.10458,-0.16039 -0.15919,-0.23878 -0.13369,-0.1919 -0.28711,-0.365 -0.45104,-0.53063 -0.15937,-0.16103 -0.31974,-0.31862 -0.5041,-0.45104 -0.0258,-0.0186 -0.0533,-0.0351 -0.0796,-0.0531 -0.0163,-0.011 -0.0366,-0.0158 -0.0531,-0.0265 -0.20343,-0.13466 -0.40968,-0.24861 -0.63676,-0.34491 -0.48015,-0.20361 -1.01003,-0.31838 -1.56537,-0.31838 -0.28739,0 -0.5512,0.0487 -0.82248,0.10613 -0.20676,0.0438 -0.41601,0.0852 -0.61023,0.15919 -0.13787,0.0517 -0.26772,0.11984 -0.39797,0.18572 -0.0823,0.0422 -0.15978,0.0851 -0.23878,0.13266 -0.11703,0.0695 -0.23589,0.13169 -0.34492,0.21225 -0.12219,0.091 -0.23376,0.21468 -0.34491,0.31838 -0.0413,0.0387 -0.093,0.0657 -0.13266,0.10613 -0.18043,0.18219 -0.33407,0.37058 -0.47757,0.58369 -0.13877,0.2061 -0.27221,0.43315 -0.37144,0.6633 -0.003,0.007 0.003,0.0193 0,0.0265 -0.0844,0.1991 -0.16083,0.39668 -0.21225,0.61023 -9.12661,-0.75702 -16.19383,-4.51371 -22.23353,-9.94938 -6.7768,-6.0991 -12.22928,-14.27133 -17.69662,-22.47231 -5.46734,-8.20098 -10.93755,-16.45555 -17.82927,-22.65804 -5.96545,-5.36899 -13.01964,-9.20349 -21.96821,-10.13509 -0.34727,-1.88047 -1.99878,-3.28992 -3.97975,-3.28992 -1.90321,0 -3.46983,1.30685 -3.90016,3.07767 l -35.39323,0 c -0.43032,-1.77082 -1.99694,-3.07767 -3.90015,-3.07767 -1.96312,0 -3.61247,1.38155 -3.97975,3.23686 -9.06611,0.94451 -14.14793,5.97618 -19.07626,10.90451 -5.46722,5.46735 -10.75486,10.79838 -21.54371,10.79838 l -16.79454,0 c -0.0427,-2.19639 -1.8262,-3.95321 -4.03281,-3.95321 -2.20661,0 -3.99013,1.75682 -4.03281,3.95321 l -15.38836,0 c -0.0427,-2.19639 -1.8262,-3.95321 -4.03281,-3.95321 -2.07997,0 -3.75422,1.562 -3.97975,3.58177 -7.86444,-1.26649 -12.41825,-5.78533 -17.05986,-10.42694 -4.77404,-4.77404 -9.65758,-9.66835 -18.20071,-10.82492 -0.33704,-1.89304 -1.96333,-3.31645 -3.95322,-3.31645 z m -4.51038,40.51384 0,13.29236 4.43078,6.65944 4.43079,-6.65944 0,-13.29236 -8.86157,0 z m 284.31324,0 0,13.29236 4.43079,6.65944 4.43078,-6.65944 0,-13.29236 -8.86157,0 z m -210.39604,7.16354 36.45449,0 c 0.22553,2.01978 1.89978,3.60831 3.97975,3.60831 2.07997,0 3.78075,-1.58853 4.00628,-3.60831 l 13.00051,0 c 0.22554,2.01978 1.89978,3.60831 3.97975,3.60831 2.0086,0 3.69117,-1.47665 4.00628,-3.39605 8.41768,1.06167 13.12162,5.79882 17.9354,10.61266 4.164,4.16394 8.43359,8.37526 15.12305,10.16163 l -10.87798,0 c -0.36729,-1.85531 -1.9901,-3.2634 -3.95322,-3.2634 -1.96312,0 -3.61246,1.40809 -3.97975,3.2634 l -35.26057,0 c -0.36728,-1.85531 -2.01663,-3.2634 -3.97975,-3.2634 -1.96312,0 -3.58593,1.40809 -3.95322,3.2634 l -14.30056,0 c -0.36728,-1.85531 -1.99009,-3.2634 -3.95322,-3.2634 -1.96306,0 -3.58586,1.40817 -3.95321,3.2634 l -14.30057,0 c -0.36728,-1.85531 -2.01662,-3.2634 -3.97975,-3.2634 -1.9032,0 -3.46983,1.33338 -3.90015,3.10421 -8.49049,-0.59944 -14.1002,-3.06141 -18.17418,-6.55332 -0.49666,-0.42575 -0.97808,-0.89849 -1.43271,-1.35312 0.72607,-0.70101 1.44014,-1.38708 2.14906,-2.096 4.71064,-4.71059 9.32196,-9.34191 17.40477,-10.53307 0.0383,0.20764 0.0904,0.41502 0.15919,0.61023 0.0118,0.0338 0.0139,0.0728 0.0265,0.10613 0.068,0.17782 0.17392,0.33936 0.26532,0.5041 0.0196,0.0354 0.0324,0.0713 0.0531,0.10613 0.0759,0.12788 0.14966,0.25315 0.23878,0.37144 0.11308,0.15143 0.23886,0.29059 0.37145,0.4245 0.14296,0.1444 0.28781,0.27655 0.45104,0.39798 0.0775,0.0572 0.15722,0.10749 0.23878,0.15919 0.10979,0.07 0.22818,0.12649 0.34491,0.18572 0.12252,0.062 0.24216,0.13626 0.37145,0.18572 0.20256,0.0775 0.42004,0.14138 0.63676,0.18572 0.26003,0.0532 0.51955,0.0796 0.79594,0.0796 0.52,0 1.00378,-0.11136 1.45925,-0.29185 0.23108,-0.0889 0.45491,-0.1905 0.66329,-0.31838 0.15291,-0.0938 0.28591,-0.20566 0.4245,-0.31838 0.0495,-0.0402 0.11172,-0.0637 0.15919,-0.10613 0.0545,-0.0497 0.10741,-0.10662 0.15919,-0.15919 0.29373,-0.29372 0.5238,-0.63574 0.71636,-1.0082 0.10858,-0.21003 0.19448,-0.4338 0.26532,-0.66329 0.0735,-0.23819 0.13074,-0.48815 0.15919,-0.74289 z m -28.15009,13.53115 c 0.48092,0.48289 0.98435,0.95364 1.5123,1.40618 3.23864,2.77597 7.41193,4.91721 13.08011,6.04922 l -26.92963,0 c 5.22219,-1.39457 8.96607,-4.27293 12.33722,-7.4554 z m 347.88305,3.36952 0,13.29236 4.43083,6.63291 4.43082,-6.63291 0,-13.29236 -8.86165,0 z m -250.88331,4.98795 10.74532,0 c 0.0566,2.18404 1.86165,3.92669 4.05934,3.92669 2.19769,0 3.97623,-1.74265 4.03281,-3.92669 l 14.14138,0 c 0.0566,2.18404 1.83512,3.92669 4.03281,3.92669 2.19769,0 4.00276,-1.74265 4.05934,-3.92669 l 35.10138,0 c 0.0566,2.18404 1.86166,3.92669 4.05935,3.92669 2.19769,0 3.97622,-1.74265 4.03281,-3.92669 l 36.34837,0 c 0.003,0.0996 0.0168,0.19426 0.0265,0.29185 0.0167,0.17012 0.0425,0.34084 0.0796,0.5041 0.053,0.23313 0.12094,0.4474 0.21225,0.66329 0.0513,0.12069 0.12332,0.23059 0.18572,0.34491 0.18676,0.34379 0.4154,0.68072 0.68983,0.95514 0.0488,0.0481 0.108,0.0871 0.15919,0.13266 0.33182,0.29874 0.69698,0.53984 1.11433,0.71636 0.008,0.003 0.019,-0.003 0.0265,0 0.23502,0.0977 0.48792,0.18661 0.74288,0.23878 0.008,0.002 0.0184,-0.002 0.0265,0 0.25541,0.0506 0.52571,0.0796 0.79595,0.0796 0.27918,0 0.53271,-0.0257 0.79595,-0.0796 0.39857,-0.0799 0.76808,-0.23703 1.11433,-0.4245 0.1146,-0.0623 0.23735,-0.11305 0.34492,-0.18573 0.20065,-0.13538 0.38455,-0.28264 0.55716,-0.45103 0.009,-0.009 0.0175,-0.0175 0.0265,-0.0265 0.0309,-0.0307 0.0497,-0.0745 0.0796,-0.10612 0.14739,-0.15712 0.30349,-0.32499 0.4245,-0.5041 0.13147,-0.19456 0.24854,-0.39332 0.34491,-0.61023 0.0113,-0.0252 0.0158,-0.0541 0.0265,-0.0796 0.0891,-0.21223 0.16018,-0.43422 0.21225,-0.66329 0.0371,-0.16326 0.0629,-0.33398 0.0796,-0.5041 0.009,-0.0965 0.024,-0.19346 0.0265,-0.29185 l 10.26775,0 c -6.68946,1.78636 -10.95905,6.02416 -15.12305,10.18816 -4.75751,4.7575 -9.38855,9.4047 -17.61702,10.53307 -0.56857,-1.54529 -2.05144,-2.65317 -3.79402,-2.65317 -1.83793,0 -3.35528,1.23958 -3.84709,2.91848 l -35.49936,0 c -0.49182,-1.6789 -2.00917,-2.91848 -3.84709,-2.91848 -1.83793,0 -3.38181,1.23958 -3.87362,2.91848 l -14.48629,0 c -0.49182,-1.6789 -2.0357,-2.91848 -3.87362,-2.91848 -1.76223,0 -3.24003,1.1335 -3.79403,2.70623 -8.51506,-1.01819 -13.25129,-5.74289 -18.09459,-10.58613 -4.16394,-4.164 -8.43353,-8.4018 -15.12304,-10.18816 z m -28.46847,8.03909 -4.43079,6.63292 0,13.31889 8.86157,0 0,-13.31889 -4.43078,-6.63292 z"
       id="path3344"
       inkscape:connector-curvature="0" />
  </g>
  <g
     inkscape:groupmode="layer"
     id="layer2"
     inkscape:label="logotype"
     style="display:inline">
    <g
       id="g3588"
       transform="matrix(0.23640874,0,0,0.23640861,6.6953417,1.6838254)">
      <g
         transform="matrix(1,0,0,-1,-262,852.4184)"
         id="path22"
         style="fill:none;stroke:none" />
      <g
         id="g3497">
        <path
           style="fill:#ffffff;stroke:none"
           d="m 905.99937,269.77282 -19.04726,0 0.0605,141.74485 77.05455,0 0,-17.52822 -58.00729,0 -0.0605,-124.21663 0,0 z"
           id="path14"
           inkscape:connector-curvature="0" />
        <path
           d="m 1037.4382,386.63131 c -4.7615,4.97699 -12.7699,9.95515 -23.5924,9.95515 -14.50213,0 -20.34555,-7.14156 -20.34555,-16.44769 0,-14.06562 9.73945,-20.7745 30.51885,-20.7745 3.896,0 10.1722,0.43268 13.4191,1.0817 l 0,26.18534 0,0 z m -19.6964,-85.91274 c -15.3816,0 -29.48935,5.45155 -40.49797,14.52621 l 6.73221,11.65912 c 7.792,-4.54431 17.31626,-9.08978 30.95166,-9.08978 15.584,0 22.5105,8.00808 22.5105,21.42468 l 0,6.92522 c -3.0305,-0.64902 -9.3067,-1.08287 -13.2027,-1.08287 -33.33298,0 -50.21527,11.68587 -50.21527,36.14048 0,21.8562 13.41905,32.89305 33.76457,32.89305 13.7052,0 26.8393,-6.2762 31.3844,-16.44652 l 3.4633,13.84927 13.4202,0 0,-72.49497 c 0,-22.93907 -9.957,-38.30389 -38.3109,-38.30389 l 0,0 z"
           id="path26"
           sketch:type="MSShapeGroup"
           inkscape:connector-curvature="0"
           style="fill:#ffffff;stroke:none" />
        <path
           d="m 1117.51,397.23501 c -7.1429,0 -13.4202,-0.86536 -18.1818,-3.02993 l 0,-58.75387 0,-6.81588 c 6.4938,-5.41084 14.5021,-9.30613 24.6755,-9.30613 18.3969,0 25.5398,12.98391 25.5398,33.97591 0,29.86312 -11.4716,43.9299 -32.0335,43.9299 m 8.0049,-96.5169 c -17.0231,0 -26.1867,11.57886 -26.1867,11.57886 l 0,-18.28658 -0.06,-24.2371 -8.5877,0 -10.0256,0 0.061,138.28223 c 9.3067,3.89529 22.0766,6.0587 35.9295,6.0587 35.4968,0 52.5955,-22.72156 52.5955,-61.89081 0,-30.94599 -15.8039,-51.5053 -43.725,-51.5053"
           id="path30"
           sketch:type="MSShapeGroup"
           inkscape:connector-curvature="0"
           style="fill:#ffffff;stroke:none" />
        <path
           d="m 698.95007,285.13764 c 16.8823,0 27.70479,5.62601 34.84765,11.25319 l 8.18522,-14.17611 c -11.15637,-9.78184 -26.16221,-15.03915 -42.16734,-15.03915 -40.4747,0 -68.82862,24.67095 -68.82862,74.4432 0,52.15433 30.58869,72.49614 65.58175,72.49614 17.5326,0 32.46747,-4.11163 42.2069,-8.22326 l -0.39903,-55.72394 0,-6.57396 0,-10.95543 -51.94632,0 0,17.52939 33.11545,0 0.39902,42.30618 c -4.32876,2.16457 -11.90439,3.89529 -22.07658,3.89529 -28.13754,0 -46.96841,-17.69688 -46.96841,-54.96675 0,-37.87004 19.48001,-56.26479 48.05031,-56.26479"
           id="path34"
           sketch:type="MSShapeGroup"
           inkscape:connector-curvature="0"
           style="fill:#ffffff;stroke:none" />
        <path
           d="m 832.90232,269.77281 -18.6145,0 0.0605,23.80443 0,9.73881 0,5.67602 0,9.90514 0,56.69747 0,0.21634 c 0,22.93907 9.95697,38.30389 38.3109,38.30389 3.91694,0 7.75012,-0.35592 11.47162,-1.03169 l 0,-16.71288 c -2.69428,0.41291 -5.57004,0.64786 -8.65752,0.64786 -15.58401,0 -22.5105,-8.00692 -22.5105,-21.42352 l 0,-56.69747 31.16802,0 0,-15.58116 -31.16802,0 -0.0605,-33.54324 0,0 z"
           id="path38"
           sketch:type="MSShapeGroup"
           inkscape:connector-curvature="0"
           style="fill:#ffffff;stroke:none" />
        <path
           style="fill:#ffffff;stroke:none"
           inkscape:connector-curvature="0"
           sketch:type="MSShapeGroup"
           id="path40"
           d="m 767.05556,411.51778 18.6145,0 0,-108.20278 -18.6145,0 0,108.20278 0,0 z" />
        <path
           style="fill:#ffffff;stroke:none"
           inkscape:connector-curvature="0"
           sketch:type="MSShapeGroup"
           id="path42"
           d="m 767.05556,288.38403 18.6145,0 0,-18.6111 -18.6145,0 0,18.6111 0,0 z" />
        <path
           d="M 550.47082,369.04736 526.42588,295.0601 478.77226,148.42201 c -2.45114,-7.54401 -13.12705,-7.54401 -15.57936,0 l -47.65478,146.63809 -158.24242,0 -47.65595,-146.63809 c -2.45114,-7.54401 -13.12705,-7.54401 -15.57936,0 L 146.40677,295.0601 122.363,369.04736 c -2.19405,6.74843 0.2094,14.14122 5.95045,18.31217 L 336.41633,538.52682 544.52037,387.35953 c 5.74105,-4.17095 8.14333,-11.56374 5.95045,-18.31217"
           id="path46"
           sketch:type="MSShapeGroup"
           inkscape:connector-curvature="0"
           style="fill:#fc6d26;stroke:none" />
        <path
           d="m 336.41679,538.52682 0,0 79.12179,-243.46672 -158.24358,0 79.12179,243.46672 0,0 z"
           id="path50"
           sketch:type="MSShapeGroup"
           inkscape:connector-curvature="0"
           style="fill:#e24329;stroke:none" />
        <path
           d="M 336.41679,538.52636 257.295,295.06081 l -110.88776,0 190.00955,243.46555 0,0 z"
           id="path58"
           sketch:type="MSShapeGroup"
           inkscape:connector-curvature="0"
           style="fill:#fc6d26;stroke:none" />
        <path
           d="m 146.40724,295.06046 0,0 -24.04493,73.98726 c -2.19289,6.74842 0.2094,14.14122 5.95161,18.311 L 336.4168,538.52601 146.40724,295.06046 l 0,0 z"
           id="path66"
           sketch:type="MSShapeGroup"
           inkscape:connector-curvature="0"
           style="fill:#fca326;stroke:none" />
        <path
           d="m 146.40724,295.06069 110.88777,0 -47.65479,-146.6381 c -2.45231,-7.54516 -13.12822,-7.54516 -15.57936,0 l -47.65362,146.6381 0,0 z"
           id="path74"
           sketch:type="MSShapeGroup"
           inkscape:connector-curvature="0"
           style="fill:#e24329;stroke:none" />
        <path
           d="m 336.41679,538.52636 79.12179,-243.46555 110.88776,0 -190.00955,243.46555 0,0 z"
           id="path78"
           sketch:type="MSShapeGroup"
           inkscape:connector-curvature="0"
           style="fill:#fc6d26;stroke:none" />
        <path
           d="m 526.42623,295.06046 0,0 24.04494,73.98726 c 2.19288,6.74842 -0.2094,14.14122 -5.95162,18.311 l -208.10287,151.16729 190.00955,-243.46555 0,0 z"
           id="path82"
           sketch:type="MSShapeGroup"
           inkscape:connector-curvature="0"
           style="fill:#fca326;stroke:none" />
        <path
           d="m 526.42623,295.06069 -110.88777,0 47.65479,-146.6381 c 2.4523,-7.54516 13.12821,-7.54516 15.57935,0 l 47.65363,146.6381 0,0 z"
           id="path86"
           sketch:type="MSShapeGroup"
           inkscape:connector-curvature="0"
           style="fill:#e24329;stroke:none" />
      </g>
    </g>
  </g>
  <g
     inkscape:groupmode="layer"
     id="layer3"
     inkscape:label="title"
     style="display:inline">
    <text
       xml:space="preserve"
       style="font-style:normal;font-variant:normal;font-weight:normal;font-stretch:normal;font-size:47.77789307px;line-height:125%;font-family:'Roboto Condensed';-inkscape-font-specification:'Roboto Condensed,';text-align:start;letter-spacing:0px;word-spacing:0px;writing-mode:lr-tb;text-anchor:start;fill:#ffffff;fill-opacity:1;stroke:none"
       x="152.80013"
       y="167.30905"
       id="text3032"
       sodipodi:linespacing="125%"><tspan
         sodipodi:role="line"
         id="tspan3034"
         x="152.80013"
         y="167.30905">GIT CHEATSHEET</tspan></text>
  </g>
  <g
     inkscape:groupmode="layer"
     id="layer4"
     inkscape:label="A_GIT_INSTALLATION"
     style="display:inline">
    <rect
       style="fill:#554488;fill-opacity:1;fill-rule:nonzero;stroke:none"
       id="rect4894"
       width="317.12595"
       height="28.512032"
       x="699.80316"
       y="203.74016" />
    <text
       xml:space="preserve"
       style="font-style:normal;font-variant:normal;font-weight:bold;font-stretch:normal;font-size:18px;line-height:125%;font-family:'Roboto Condensed';-inkscape-font-specification:'Roboto Condensed, Bold';text-align:start;letter-spacing:0px;word-spacing:0px;writing-mode:lr-tb;text-anchor:start;fill:#ffffff;fill-opacity:1;stroke:none"
       x="852.55737"
       y="224.32056"
       id="text4882"
       sodipodi:linespacing="125%"><tspan
         sodipodi:role="line"
         id="tspan4884"
         x="852.55737"
         y="224.32056"
         style="font-style:normal;font-variant:normal;font-weight:bold;font-stretch:normal;font-size:18px;line-height:125%;font-family:'Roboto Condensed';-inkscape-font-specification:'Roboto Condensed, Bold';text-align:start;writing-mode:lr-tb;text-anchor:start;fill:#ffffff">A. GIT INSTALLATION</tspan></text>
    <flowRoot
       xml:space="preserve"
       id="flowRoot4905"
       style="font-style:normal;font-variant:normal;font-weight:normal;font-stretch:normal;font-size:12px;line-height:125%;font-family:'Roboto Condensed';-inkscape-font-specification:'Roboto Condensed,';text-align:justify;letter-spacing:0px;word-spacing:0px;writing-mode:lr-tb;text-anchor:start;fill:#000000;fill-opacity:1;stroke:none"
       transform="translate(0,6)"><flowRegion
         id="flowRegion4907"><rect
           id="rect4909"
           width="317.34122"
           height="186.37131"
           x="699.58789"
           y="235.05042"
           style="font-style:normal;font-variant:normal;font-weight:normal;font-stretch:normal;font-size:12px;line-height:125%;font-family:'Roboto Condensed';-inkscape-font-specification:'Roboto Condensed,';text-align:justify;writing-mode:lr-tb;text-anchor:start" /></flowRegion><flowPara
         id="flowPara4911">For GNU/Linux distributions Git should be available in the standard system repository. For example in Debian/Ubuntu please type in the terminal:</flowPara><flowPara
         id="flowPara6910" /><flowPara
         id="flowPara4917" /><flowPara
         id="flowPara4919">If you want or need to install Git from source, you can get it from</flowPara><flowPara
         id="flowPara4921">https://git-scm.com/downloads.</flowPara><flowPara
         id="flowPara5740" /><flowPara
         id="flowPara5738">An excellent Git course can be found in the great <flowSpan
   style="font-weight:bold"
   id="flowSpan3822">Pro Git</flowSpan> book by Scott Chacon and Ben Straub. The book is available online for free at <flowSpan
   style="fill:#554488;fill-opacity:1"
   id="flowSpan4614">https://git-scm.com/book</flowSpan>.</flowPara><flowPara
         id="flowPara4923" /><flowPara
         id="flowPara4925">There You can also find installators for Mac OS X and Windows.</flowPara></flowRoot>    <rect
       style="fill:#e6e6e6;fill-opacity:1;fill-rule:nonzero;stroke:none"
       id="rect6892"
       width="317.12598"
       height="17.136642"
       x="699.80316"
       y="292.17459" />
    <flowRoot
       xml:space="preserve"
       id="flowRoot6894"
       style="font-style:normal;font-variant:normal;font-weight:bold;font-stretch:normal;font-size:10px;line-height:125%;font-family:'Liberation Mono';-inkscape-font-specification:'Liberation Mono Bold';text-align:start;letter-spacing:0px;word-spacing:0px;writing-mode:lr-tb;text-anchor:start;fill:#000000;fill-opacity:1;stroke:none"
       transform="translate(666.37009,50.172492)"><flowRegion
         id="flowRegion6896"><rect
           id="rect6898"
           width="315.15424"
           height="13.78299"
           x="35.40477"
           y="244.49382"
           style="font-style:normal;font-variant:normal;font-weight:bold;font-stretch:normal;font-size:10px;line-height:125%;font-family:'Liberation Mono';-inkscape-font-specification:'Liberation Mono Bold';text-align:start;writing-mode:lr-tb;text-anchor:start" /></flowRegion><flowPara
         id="flowPara6902"
         style="font-size:9px">$ sudo apt-get install git</flowPara></flowRoot>  </g>
  <g
     inkscape:groupmode="layer"
     id="layer8"
     inkscape:label="B_IGNORING_FILES"
     style="display:inline">
    <flowRoot
       xml:space="preserve"
       id="flowRoot5658"
       style="font-style:normal;font-weight:normal;font-size:9px;line-height:125%;font-family:'Bitstream Vera Sans';letter-spacing:0px;word-spacing:0px;fill:#000000;fill-opacity:1;stroke:none"><flowRegion
         id="flowRegion5660"><rect
           id="rect5662"
           width="314.21735"
           height="34.421307"
           x="35.40477"
           y="638.86365" /></flowRegion><flowPara
         id="flowPara5664" /></flowRoot>    <rect
       style="fill:#554488;fill-opacity:1;fill-rule:nonzero;stroke:none"
       id="rect5553"
       width="317.12595"
       height="28.512032"
       x="35.43314"
       y="523.74017" />
    <text
       xml:space="preserve"
       style="font-style:normal;font-variant:normal;font-weight:bold;font-stretch:normal;font-size:18px;line-height:125%;font-family:'Roboto Condensed';-inkscape-font-specification:'Roboto Condensed, Bold';text-align:start;letter-spacing:0px;word-spacing:0px;writing-mode:lr-tb;text-anchor:start;fill:#ffffff;fill-opacity:1;stroke:none"
       x="206.18735"
       y="544.32056"
       id="text5555"
       sodipodi:linespacing="125%"><tspan
         sodipodi:role="line"
         id="tspan5557"
         x="206.18735"
         y="544.32056"
         style="font-style:normal;font-variant:normal;font-weight:bold;font-stretch:normal;font-size:18px;line-height:125%;font-family:'Roboto Condensed';-inkscape-font-specification:'Roboto Condensed, Bold';text-align:start;writing-mode:lr-tb;text-anchor:start;fill:#ffffff">B. IGNORING FILES</tspan></text>
    <rect
       y="560.00208"
       x="35.43306"
       height="65.326469"
       width="317.12598"
       id="rect5559"
       style="fill:#e6e6e6;fill-opacity:1;fill-rule:nonzero;stroke:none" />
    <flowRoot
       transform="translate(2,318)"
       style="font-style:normal;font-variant:normal;font-weight:bold;font-stretch:normal;font-size:10px;line-height:125%;font-family:'Liberation Mono';-inkscape-font-specification:'Liberation Mono Bold';text-align:start;letter-spacing:0px;word-spacing:0px;writing-mode:lr-tb;text-anchor:start;fill:#000000;fill-opacity:1;stroke:none"
       id="flowRoot5561"
       xml:space="preserve"><flowRegion
         id="flowRegion5563"><rect
           style="font-style:normal;font-variant:normal;font-weight:bold;font-stretch:normal;font-size:10px;line-height:125%;font-family:'Liberation Mono';-inkscape-font-specification:'Liberation Mono Bold';text-align:start;writing-mode:lr-tb;text-anchor:start"
           y="244.49382"
           x="35.40477"
           height="12.786842"
           width="299.16568"
           id="rect5565" /></flowRegion><flowPara
         style="font-weight:bold;font-size:9px"
         id="flowPara5654">$ cat .gitignore</flowPara></flowRoot>    <flowRoot
       xml:space="preserve"
       id="flowRoot5666"
       style="font-style:normal;font-variant:normal;font-weight:normal;font-stretch:normal;font-size:10px;line-height:125%;font-family:'Roboto Condensed';-inkscape-font-specification:'Roboto Condensed,';text-align:justify;letter-spacing:0px;word-spacing:0px;writing-mode:lr-tb;text-anchor:start;fill:#000000;fill-opacity:1;stroke:none"
       transform="translate(0,-14)"><flowRegion
         id="flowRegion5668"><rect
           id="rect5670"
           width="305.80988"
           height="48.928852"
           x="37.371704"
           y="641.81403"
           style="font-style:normal;font-variant:normal;font-weight:normal;font-stretch:normal;font-size:10px;line-height:125%;font-family:'Roboto Condensed';-inkscape-font-specification:'Roboto Condensed,';text-align:justify;writing-mode:lr-tb;text-anchor:start" /></flowRegion><flowPara
         id="flowPara3824">Thanks to this file Git will ignore all files in <flowSpan
   style="font-style:normal;font-variant:normal;font-weight:bold;font-stretch:normal;font-size:10px;line-height:125%;font-family:'Roboto Condensed';-inkscape-font-specification:'Roboto Condensed,';text-align:justify;writing-mode:lr-tb;text-anchor:start"
   id="flowSpan5674">logs</flowSpan> directory (excluding the <flowSpan
   style="font-style:normal;font-variant:normal;font-weight:bold;font-stretch:normal;font-size:10px;line-height:125%;font-family:'Roboto Condensed';-inkscape-font-specification:'Roboto Condensed,';text-align:justify;writing-mode:lr-tb;text-anchor:start"
   id="flowSpan5678">.gitkeep</flowSpan> file), whole <flowSpan
   style="font-style:normal;font-variant:normal;font-weight:bold;font-stretch:normal;font-size:10px;line-height:125%;font-family:'Roboto Condensed';-inkscape-font-specification:'Roboto Condensed,';text-align:justify;writing-mode:lr-tb;text-anchor:start"
   id="flowSpan5682">tmp</flowSpan> directory and all files <flowSpan
   style="font-style:normal;font-variant:normal;font-weight:bold;font-stretch:normal;font-size:10px;line-height:125%;font-family:'Roboto Condensed';-inkscape-font-specification:'Roboto Condensed,';text-align:justify;writing-mode:lr-tb;text-anchor:start"
   id="flowSpan5684">*.swp</flowSpan>. Described file ignoring will work for the directory (and children directories) where <flowSpan
   style="font-weight:bold"
   id="flowSpan3836">.gitignore</flowSpan> file is placed.</flowPara></flowRoot>    <text
       xml:space="preserve"
       style="font-style:normal;font-variant:normal;font-weight:normal;font-stretch:normal;font-size:9px;line-height:125%;font-family:'Liberation Mono';-inkscape-font-specification:'Liberation Mono';text-align:start;letter-spacing:0px;word-spacing:0px;writing-mode:lr-tb;text-anchor:start;fill:#000000;fill-opacity:1;stroke:none"
       x="37.582447"
       y="584.25018"
       id="text3819"
       sodipodi:linespacing="125%"><tspan
         sodipodi:role="line"
         id="tspan3821"
         x="37.582447"
         y="584.25018">/logs/*</tspan><tspan
         sodipodi:role="line"
         x="37.582447"
         y="595.50018"
         id="tspan3823">!logs/.gitkeep</tspan><tspan
         sodipodi:role="line"
         x="37.582447"
         y="606.75018"
         id="tspan3825">/tmp</tspan><tspan
         sodipodi:role="line"
         x="37.582447"
         y="618.00018"
         id="tspan3827">*.swp</tspan></text>
  </g>
  <g
     inkscape:groupmode="layer"
     id="layer6"
     inkscape:label="1_GIT_CONFIGURATION"
     style="display:inline">
    <flowRoot
       xml:space="preserve"
       id="flowRoot4905-5"
       style="font-style:normal;font-variant:normal;font-weight:normal;font-stretch:normal;font-size:12px;line-height:125%;font-family:'Roboto Condensed';-inkscape-font-specification:'Roboto Condensed,';text-align:justify;letter-spacing:0px;word-spacing:0px;writing-mode:lr-tb;text-anchor:start;fill:#000000;fill-opacity:1;stroke:none"
       transform="translate(-664.37004,5.9999997)"><flowRegion
         id="flowRegion4907-8"><rect
           id="rect4909-6"
           width="317.10941"
           height="120.30686"
           x="699.58789"
           y="235.05042"
           style="font-style:normal;font-variant:normal;font-weight:normal;font-stretch:normal;font-size:12px;line-height:125%;font-family:'Roboto Condensed';-inkscape-font-specification:'Roboto Condensed,';text-align:justify;writing-mode:lr-tb;text-anchor:start" /></flowRegion><flowPara
         id="flowPara4925-2" /></flowRoot>    <flowRoot
       xml:space="preserve"
       id="flowRoot5230"
       style="font-style:normal;font-weight:normal;font-size:9px;line-height:125%;font-family:'Bitstream Vera Sans';letter-spacing:0px;word-spacing:0px;fill:#000000;fill-opacity:1;stroke:none"><flowRegion
         id="flowRegion5232"><rect
           id="rect5234"
           width="317.16776"
           height="17.702385"
           x="35.40477"
           y="263.67142" /></flowRegion><flowPara
         id="flowPara5236" /></flowRoot>    <rect
       style="fill:#554488;fill-opacity:1;fill-rule:nonzero;stroke:none"
       id="rect4894-1"
       width="317.12595"
       height="28.512032"
       x="35.43314"
       y="203.74016" />
    <text
       xml:space="preserve"
       style="font-style:normal;font-variant:normal;font-weight:bold;font-stretch:normal;font-size:18px;line-height:125%;font-family:'Roboto Condensed';-inkscape-font-specification:'Roboto Condensed, Bold';text-align:start;letter-spacing:0px;word-spacing:0px;writing-mode:lr-tb;text-anchor:start;fill:#ffffff;fill-opacity:1;stroke:none"
       x="176.18735"
       y="224.32056"
       id="text4882-8"
       sodipodi:linespacing="125%"><tspan
         sodipodi:role="line"
         id="tspan4884-36"
         x="176.18735"
         y="224.32056"
         style="font-style:normal;font-variant:normal;font-weight:bold;font-stretch:normal;font-size:18px;line-height:125%;font-family:'Roboto Condensed';-inkscape-font-specification:'Roboto Condensed, Bold';text-align:start;writing-mode:lr-tb;text-anchor:start;fill:#ffffff">1. GIT CONFIGURATION</tspan></text>
    <rect
       y="244.00209"
       x="35.43306"
       height="17.136642"
       width="317.12598"
       id="rect5220"
       style="fill:#e6e6e6;fill-opacity:1;fill-rule:nonzero;stroke:none" />
    <flowRoot
       transform="translate(2,2)"
       style="font-style:normal;font-variant:normal;font-weight:bold;font-stretch:normal;font-size:10px;line-height:125%;font-family:'Liberation Mono';-inkscape-font-specification:'Liberation Mono Bold';text-align:start;letter-spacing:0px;word-spacing:0px;writing-mode:lr-tb;text-anchor:start;fill:#000000;fill-opacity:1;stroke:none"
       id="flowRoot5222"
       xml:space="preserve"><flowRegion
         id="flowRegion5224"><rect
           style="font-style:normal;font-variant:normal;font-weight:bold;font-stretch:normal;font-size:10px;line-height:125%;font-family:'Liberation Mono';-inkscape-font-specification:'Liberation Mono Bold';text-align:start;writing-mode:lr-tb;text-anchor:start"
           y="244.49382"
           x="35.40477"
           height="22.127983"
           width="317.16776"
           id="rect5226" /></flowRegion><flowPara
         style="font-size:9px"
         id="flowPara5228">$ git config --global user.name &quot;Your Name&quot;</flowPara></flowRoot>    <flowRoot
       xml:space="preserve"
       id="flowRoot5238"
       style="font-style:normal;font-variant:normal;font-weight:normal;font-stretch:normal;font-size:10px;line-height:125%;font-family:'Roboto Condensed';-inkscape-font-specification:'Roboto Condensed,';text-align:end;letter-spacing:0px;word-spacing:0px;writing-mode:lr-tb;text-anchor:end;fill:#000000;fill-opacity:1;stroke:none"
       transform="translate(2,0)"><flowRegion
         id="flowRegion5240"><rect
           id="rect5242"
           width="308.0658"
           height="14.591797"
           x="35.40477"
           y="264.65488"
           style="font-style:normal;font-variant:normal;font-weight:normal;font-stretch:normal;font-size:10px;line-height:125%;font-family:'Roboto Condensed';-inkscape-font-specification:'Roboto Condensed,';text-align:end;writing-mode:lr-tb;text-anchor:end" /></flowRegion><flowPara
         id="flowPara5244">Set the name that will be attached to your commits and tags.</flowPara></flowRoot>    <rect
       style="fill:#e6e6e6;fill-opacity:1;fill-rule:nonzero;stroke:none"
       id="rect5301"
       width="317.12598"
       height="17.136642"
       x="35.43306"
       y="282.00208" />
    <flowRoot
       xml:space="preserve"
       id="flowRoot5303"
       style="font-style:normal;font-variant:normal;font-weight:bold;font-stretch:normal;font-size:10px;line-height:125%;font-family:'Liberation Mono';-inkscape-font-specification:'Liberation Mono Bold';text-align:start;letter-spacing:0px;word-spacing:0px;writing-mode:lr-tb;text-anchor:start;fill:#000000;fill-opacity:1;stroke:none"
       transform="translate(2,40)"><flowRegion
         id="flowRegion5305"><rect
           id="rect5307"
           width="317.16776"
           height="22.127983"
           x="35.40477"
           y="244.49382"
           style="font-style:normal;font-variant:normal;font-weight:bold;font-stretch:normal;font-size:10px;line-height:125%;font-family:'Liberation Mono';-inkscape-font-specification:'Liberation Mono Bold';text-align:start;writing-mode:lr-tb;text-anchor:start" /></flowRegion><flowPara
         id="flowPara5309"
         style="font-size:9px">$ git config --global user.email &quot;you@example.com&quot;</flowPara></flowRoot>    <flowRoot
       transform="translate(2,38)"
       style="font-style:normal;font-variant:normal;font-weight:normal;font-stretch:normal;font-size:10px;line-height:125%;font-family:'Roboto Condensed';-inkscape-font-specification:'Roboto Condensed,';text-align:end;letter-spacing:0px;word-spacing:0px;writing-mode:lr-tb;text-anchor:end;fill:#000000;fill-opacity:1;stroke:none"
       id="flowRoot5311"
       xml:space="preserve"><flowRegion
         id="flowRegion5313"><rect
           style="font-style:normal;font-variant:normal;font-weight:normal;font-stretch:normal;font-size:10px;line-height:125%;font-family:'Roboto Condensed';-inkscape-font-specification:'Roboto Condensed,';text-align:end;writing-mode:lr-tb;text-anchor:end"
           y="264.65488"
           x="35.40477"
           height="14.591797"
           width="308.0658"
           id="rect5315" /></flowRegion><flowPara
         id="flowPara5319">Set the e-mail address that will be attached to your commits and tags.</flowPara></flowRoot>    <rect
       y="320.00208"
       x="35.43306"
       height="17.136642"
       width="317.12598"
       id="rect5323"
       style="fill:#e6e6e6;fill-opacity:1;fill-rule:nonzero;stroke:none" />
    <flowRoot
       transform="translate(2,78)"
       style="font-style:normal;font-variant:normal;font-weight:bold;font-stretch:normal;font-size:10px;line-height:125%;font-family:'Liberation Mono';-inkscape-font-specification:'Liberation Mono Bold';text-align:start;letter-spacing:0px;word-spacing:0px;writing-mode:lr-tb;text-anchor:start;fill:#000000;fill-opacity:1;stroke:none"
       id="flowRoot5325"
       xml:space="preserve"><flowRegion
         id="flowRegion5327"><rect
           style="font-style:normal;font-variant:normal;font-weight:bold;font-stretch:normal;font-size:10px;line-height:125%;font-family:'Liberation Mono';-inkscape-font-specification:'Liberation Mono Bold';text-align:start;writing-mode:lr-tb;text-anchor:start"
           y="244.49382"
           x="35.40477"
           height="22.127983"
           width="317.16776"
           id="rect5329" /></flowRegion><flowPara
         style="font-size:9px"
         id="flowPara5331">$ git config --global color.ui auto</flowPara></flowRoot>    <flowRoot
       xml:space="preserve"
       id="flowRoot5333"
       style="font-style:normal;font-variant:normal;font-weight:normal;font-stretch:normal;font-size:10px;line-height:125%;font-family:'Roboto Condensed';-inkscape-font-specification:'Roboto Condensed,';text-align:end;letter-spacing:0px;word-spacing:0px;writing-mode:lr-tb;text-anchor:end;fill:#000000;fill-opacity:1;stroke:none"
       transform="translate(2,76)"><flowRegion
         id="flowRegion5335"><rect
           id="rect5337"
           width="308.0658"
           height="14.591797"
           x="35.40477"
           y="264.65488"
           style="font-style:normal;font-variant:normal;font-weight:normal;font-stretch:normal;font-size:10px;line-height:125%;font-family:'Roboto Condensed';-inkscape-font-specification:'Roboto Condensed,';text-align:end;writing-mode:lr-tb;text-anchor:end" /></flowRegion><flowPara
         id="flowPara5339">Enable some colorization of Git output. </flowPara></flowRoot>  </g>
  <g
     inkscape:groupmode="layer"
     id="layer7"
     inkscape:label="2_STARTING_PROJECT"
     style="display:inline">
    <rect
       y="367.74014"
       x="35.43314"
       height="28.512032"
       width="317.12595"
       id="rect5378"
       style="fill:#554488;fill-opacity:1;fill-rule:nonzero;stroke:none" />
    <text
       sodipodi:linespacing="125%"
       id="text5380"
       y="388.32056"
       x="166.18735"
       style="font-style:normal;font-variant:normal;font-weight:bold;font-stretch:normal;font-size:18px;line-height:125%;font-family:'Roboto Condensed';-inkscape-font-specification:'Roboto Condensed, Bold';text-align:start;letter-spacing:0px;word-spacing:0px;writing-mode:lr-tb;text-anchor:start;fill:#ffffff;fill-opacity:1;stroke:none"
       xml:space="preserve"><tspan
         style="font-style:normal;font-variant:normal;font-weight:bold;font-stretch:normal;font-size:18px;line-height:125%;font-family:'Roboto Condensed';-inkscape-font-specification:'Roboto Condensed, Bold';text-align:start;writing-mode:lr-tb;text-anchor:start;fill:#ffffff"
         y="388.32056"
         x="166.18735"
         id="tspan5382"
         sodipodi:role="line">2. STARTING A PROJECT</tspan></text>
    <rect
       style="fill:#e6e6e6;fill-opacity:1;fill-rule:nonzero;stroke:none"
       id="rect5384"
       width="317.12598"
       height="17.136642"
       x="35.43306"
       y="408.00208" />
    <flowRoot
       xml:space="preserve"
       id="flowRoot5386"
       style="font-style:normal;font-variant:normal;font-weight:bold;font-stretch:normal;font-size:10px;line-height:125%;font-family:'Liberation Mono';-inkscape-font-specification:'Liberation Mono Bold';text-align:start;letter-spacing:0px;word-spacing:0px;writing-mode:lr-tb;text-anchor:start;fill:#000000;fill-opacity:1;stroke:none"
       transform="translate(2,166)"><flowRegion
         id="flowRegion5388"><rect
           id="rect5390"
           width="317.16776"
           height="22.127983"
           x="35.40477"
           y="244.49382"
           style="font-style:normal;font-variant:normal;font-weight:bold;font-stretch:normal;font-size:10px;line-height:125%;font-family:'Liberation Mono';-inkscape-font-specification:'Liberation Mono Bold';text-align:start;writing-mode:lr-tb;text-anchor:start" /></flowRegion><flowPara
         id="flowPara5392"
         style="font-size:9px">$ git init [project name]</flowPara></flowRoot>    <flowRoot
       transform="translate(2,164)"
       style="font-style:normal;font-variant:normal;font-weight:normal;font-stretch:normal;font-size:10px;line-height:125%;font-family:'Roboto Condensed';-inkscape-font-specification:'Roboto Condensed,';text-align:end;letter-spacing:0px;word-spacing:0px;writing-mode:lr-tb;text-anchor:end;fill:#000000;fill-opacity:1;stroke:none"
       id="flowRoot5394"
       xml:space="preserve"><flowRegion
         id="flowRegion5396"><rect
           style="font-style:normal;font-variant:normal;font-weight:normal;font-stretch:normal;font-size:10px;line-height:125%;font-family:'Roboto Condensed';-inkscape-font-specification:'Roboto Condensed,';text-align:end;writing-mode:lr-tb;text-anchor:end"
           y="264.65488"
           x="35.40477"
           height="51.471756"
           width="304.62366"
           id="rect5398" /></flowRegion><flowPara
         id="flowPara5400">Create new local repository. If <flowSpan
   style="font-weight:bold"
   id="flowSpan3344">[project name]</flowSpan> is provided, Git will create</flowPara><flowPara
         id="flowPara3818">a new directory named <flowSpan
   style="font-weight:bold"
   id="flowSpan3346">[project name]</flowSpan> and will initialize a repository inside it. If <flowSpan
   style="font-weight:bold"
   id="flowSpan3348">[project name]</flowSpan> is not provided, then a new repository is initialized in current directory.</flowPara></flowRoot>    <rect
       y="484.00208"
       x="35.43306"
       height="17.136642"
       width="317.12598"
       id="rect5506"
       style="fill:#e6e6e6;fill-opacity:1;fill-rule:nonzero;stroke:none" />
    <flowRoot
       transform="translate(2,242)"
       style="font-style:normal;font-variant:normal;font-weight:bold;font-stretch:normal;font-size:10px;line-height:125%;font-family:'Liberation Mono';-inkscape-font-specification:'Liberation Mono Bold';text-align:start;letter-spacing:0px;word-spacing:0px;writing-mode:lr-tb;text-anchor:start;fill:#000000;fill-opacity:1;stroke:none"
       id="flowRoot5508"
       xml:space="preserve"><flowRegion
         id="flowRegion5510"><rect
           style="font-style:normal;font-variant:normal;font-weight:bold;font-stretch:normal;font-size:10px;line-height:125%;font-family:'Liberation Mono';-inkscape-font-specification:'Liberation Mono Bold';text-align:start;writing-mode:lr-tb;text-anchor:start"
           y="244.49382"
           x="35.40477"
           height="22.127983"
           width="317.16776"
           id="rect5512" /></flowRegion><flowPara
         style="font-size:9px"
         id="flowPara5514">$ git clone [project url]</flowPara></flowRoot>    <flowRoot
       xml:space="preserve"
       id="flowRoot5516"
       style="font-style:normal;font-variant:normal;font-weight:normal;font-stretch:normal;font-size:10px;line-height:125%;font-family:'Roboto Condensed';-inkscape-font-specification:'Roboto Condensed,';text-align:end;letter-spacing:0px;word-spacing:0px;writing-mode:lr-tb;text-anchor:end;fill:#000000;fill-opacity:1;stroke:none"
       transform="translate(2,240)"><flowRegion
         id="flowRegion5518"><rect
           id="rect5520"
           width="300.19809"
           height="14.591801"
           x="35.40477"
           y="264.65488"
           style="font-style:normal;font-variant:normal;font-weight:normal;font-stretch:normal;font-size:10px;line-height:125%;font-family:'Roboto Condensed';-inkscape-font-specification:'Roboto Condensed,';text-align:end;writing-mode:lr-tb;text-anchor:end" /></flowRegion><flowPara
         id="flowPara5522">Downloads a project with entire history from the remote repository.</flowPara></flowRoot>  </g>
  <g
     inkscape:groupmode="layer"
     id="layer9"
     inkscape:label="3_DAY_TO_DAY_WORK"
     style="display:inline">
    <rect
       y="203.74016"
       x="370.27557"
       height="28.512032"
       width="311.81104"
       id="rect5771"
       style="fill:#554488;fill-opacity:1;fill-rule:nonzero;stroke:none" />
    <text
       sodipodi:linespacing="125%"
       id="text5773"
       y="224.32056"
       x="517.7149"
       style="font-size:18px;font-style:normal;font-variant:normal;font-weight:bold;font-stretch:normal;text-align:start;line-height:125%;letter-spacing:0px;word-spacing:0px;writing-mode:lr-tb;text-anchor:start;fill:#ffffff;fill-opacity:1;stroke:none;font-family:Roboto Condensed;-inkscape-font-specification:'Roboto Condensed, Bold'"
       xml:space="preserve"><tspan
         style="font-size:18px;font-style:normal;font-variant:normal;font-weight:bold;font-stretch:normal;text-align:start;line-height:125%;writing-mode:lr-tb;text-anchor:start;fill:#ffffff;font-family:Roboto Condensed;-inkscape-font-specification:'Roboto Condensed, Bold'"
         y="224.32056"
         x="517.7149"
         id="tspan5775"
         sodipodi:role="line">3. DAY-TO-DAY WORK</tspan></text>
    <rect
       style="fill:#e6e6e6;fill-opacity:1;fill-rule:nonzero;stroke:none"
       id="rect5777"
       width="311.81097"
       height="17.136642"
       x="370.2756"
       y="244.00209" />
    <flowRoot
       xml:space="preserve"
       id="flowRoot5779"
       style="font-size:10px;font-style:normal;font-variant:normal;font-weight:bold;font-stretch:normal;text-align:start;line-height:125%;letter-spacing:0px;word-spacing:0px;writing-mode:lr-tb;text-anchor:start;fill:#000000;fill-opacity:1;stroke:none;font-family:Liberation Mono;-inkscape-font-specification:Liberation Mono Bold"
       transform="translate(336.84254,1.9999997)"><flowRegion
         id="flowRegion5781"><rect
           id="rect5783"
           width="317.16776"
           height="22.127983"
           x="35.40477"
           y="244.49382"
           style="font-size:10px;font-style:normal;font-variant:normal;font-weight:bold;font-stretch:normal;text-align:start;line-height:125%;writing-mode:lr-tb;text-anchor:start;font-family:Liberation Mono;-inkscape-font-specification:Liberation Mono Bold" /></flowRegion><flowPara
         id="flowPara5785"
         style="font-size:9px">$ git status</flowPara></flowRoot>    <flowRoot
       transform="translate(336.84254,-2.9101568e-7)"
       style="font-size:10px;font-style:normal;font-variant:normal;font-weight:normal;font-stretch:normal;text-align:end;line-height:125%;letter-spacing:0px;word-spacing:0px;writing-mode:lr-tb;text-anchor:end;fill:#000000;fill-opacity:1;stroke:none;font-family:Roboto Condensed;-inkscape-font-specification:'Roboto Condensed,'"
       id="flowRoot5787"
       xml:space="preserve"><flowRegion
         id="flowRegion5789"><rect
           style="font-size:10px;font-style:normal;font-variant:normal;font-weight:normal;font-stretch:normal;text-align:end;line-height:125%;writing-mode:lr-tb;text-anchor:end;font-family:Roboto Condensed;-inkscape-font-specification:'Roboto Condensed,'"
           y="264.65488"
           x="35.40477"
           height="14.591797"
           width="308.0658"
           id="rect5791" /></flowRegion><flowPara
         id="flowPara5793">See the status of your work. New, staged, modified files. Current branch.</flowPara></flowRoot>    <rect
       y="282.00208"
       x="370.2756"
       height="17.136642"
       width="311.81097"
       id="rect5946"
       style="fill:#e6e6e6;fill-opacity:1;fill-rule:nonzero;stroke:none" />
    <flowRoot
       transform="translate(336.84254,40)"
       style="font-size:10px;font-style:normal;font-variant:normal;font-weight:bold;font-stretch:normal;text-align:start;line-height:125%;letter-spacing:0px;word-spacing:0px;writing-mode:lr-tb;text-anchor:start;fill:#000000;fill-opacity:1;stroke:none;font-family:Liberation Mono;-inkscape-font-specification:Liberation Mono Bold"
       id="flowRoot5948"
       xml:space="preserve"><flowRegion
         id="flowRegion5950"><rect
           style="font-size:10px;font-style:normal;font-variant:normal;font-weight:bold;font-stretch:normal;text-align:start;line-height:125%;writing-mode:lr-tb;text-anchor:start;font-family:Liberation Mono;-inkscape-font-specification:Liberation Mono Bold"
           y="244.49382"
           x="35.40477"
           height="22.127983"
           width="317.16776"
           id="rect5952" /></flowRegion><flowPara
         style="font-size:9px"
         id="flowPara5954">$ git diff [file]</flowPara></flowRoot>    <flowRoot
       xml:space="preserve"
       id="flowRoot5956"
       style="font-size:10px;font-style:normal;font-variant:normal;font-weight:normal;font-stretch:normal;text-align:end;line-height:125%;letter-spacing:0px;word-spacing:0px;writing-mode:lr-tb;text-anchor:end;fill:#000000;fill-opacity:1;stroke:none;font-family:Roboto Condensed;-inkscape-font-specification:'Roboto Condensed,'"
       transform="translate(336.84254,38)"><flowRegion
         id="flowRegion5958"><rect
           id="rect5960"
           width="308.0658"
           height="14.591797"
           x="35.40477"
           y="264.65488"
           style="font-size:10px;font-style:normal;font-variant:normal;font-weight:normal;font-stretch:normal;text-align:end;line-height:125%;writing-mode:lr-tb;text-anchor:end;font-family:Roboto Condensed;-inkscape-font-specification:'Roboto Condensed,'" /></flowRegion><flowPara
         id="flowPara5962">Show changes between <flowSpan
   style="font-weight:bold;text-align:end;text-anchor:end"
   id="flowSpan6178">working directory</flowSpan> and <flowSpan
   style="font-weight:bold;text-align:end;text-anchor:end"
   id="flowSpan6176">staging area</flowSpan>.</flowPara></flowRoot>    <rect
       style="fill:#e6e6e6;fill-opacity:1;fill-rule:nonzero;stroke:none"
       id="rect5966"
       width="311.81097"
       height="17.136642"
       x="370.2756"
       y="318.00208" />
    <flowRoot
       xml:space="preserve"
       id="flowRoot5968"
       style="font-size:10px;font-style:normal;font-variant:normal;font-weight:bold;font-stretch:normal;text-align:start;line-height:125%;letter-spacing:0px;word-spacing:0px;writing-mode:lr-tb;text-anchor:start;fill:#000000;fill-opacity:1;stroke:none;font-family:Liberation Mono;-inkscape-font-specification:Liberation Mono Bold"
       transform="translate(336.84254,76)"><flowRegion
         id="flowRegion5970"><rect
           id="rect5972"
           width="317.16776"
           height="22.127983"
           x="35.40477"
           y="244.49382"
           style="font-size:10px;font-style:normal;font-variant:normal;font-weight:bold;font-stretch:normal;text-align:start;line-height:125%;writing-mode:lr-tb;text-anchor:start;font-family:Liberation Mono;-inkscape-font-specification:Liberation Mono Bold" /></flowRegion><flowPara
         id="flowPara5974"
         style="font-size:9px">$ git diff --staged [file]</flowPara></flowRoot>    <flowRoot
       transform="translate(336.84254,74)"
       style="font-style:normal;font-variant:normal;font-weight:normal;font-stretch:normal;font-size:10px;line-height:125%;font-family:'Roboto Condensed';-inkscape-font-specification:'Roboto Condensed,';text-align:end;letter-spacing:0px;word-spacing:0px;writing-mode:lr-tb;text-anchor:end;fill:#000000;fill-opacity:1;stroke:none"
       id="flowRoot5976"
       xml:space="preserve"><flowRegion
         id="flowRegion5978"><rect
           style="font-style:normal;font-variant:normal;font-weight:normal;font-stretch:normal;font-size:10px;line-height:125%;font-family:'Roboto Condensed';-inkscape-font-specification:'Roboto Condensed,';text-align:end;writing-mode:lr-tb;text-anchor:end"
           y="264.65488"
           x="35.40477"
           height="14.591797"
           width="308.0658"
           id="rect5980" /></flowRegion><flowPara
         id="flowPara5982">Shows changes in the <flowSpan
   style="font-weight:bold;text-align:end;text-anchor:end"
   id="flowSpan6180">staging area</flowSpan> that haven't been commited.</flowPara></flowRoot>    <rect
       y="356.00208"
       x="370.2756"
       height="17.136642"
       width="311.81097"
       id="rect5986"
       style="fill:#e6e6e6;fill-opacity:1;fill-rule:nonzero;stroke:none" />
    <flowRoot
       transform="translate(336.84254,114)"
       style="font-size:10px;font-style:normal;font-variant:normal;font-weight:bold;font-stretch:normal;text-align:start;line-height:125%;letter-spacing:0px;word-spacing:0px;writing-mode:lr-tb;text-anchor:start;fill:#000000;fill-opacity:1;stroke:none;font-family:Liberation Mono;-inkscape-font-specification:Liberation Mono Bold"
       id="flowRoot5988"
       xml:space="preserve"><flowRegion
         id="flowRegion5990"><rect
           style="font-size:10px;font-style:normal;font-variant:normal;font-weight:bold;font-stretch:normal;text-align:start;line-height:125%;writing-mode:lr-tb;text-anchor:start;font-family:Liberation Mono;-inkscape-font-specification:Liberation Mono Bold"
           y="244.49382"
           x="35.40477"
           height="22.127983"
           width="317.16776"
           id="rect5992" /></flowRegion><flowPara
         style="font-size:9px"
         id="flowPara5994">$ git checkout -- [file]</flowPara></flowRoot>    <flowRoot
       xml:space="preserve"
       id="flowRoot5996"
       style="font-size:10px;font-style:normal;font-variant:normal;font-weight:normal;font-stretch:normal;text-align:end;line-height:125%;letter-spacing:0px;word-spacing:0px;writing-mode:lr-tb;text-anchor:end;fill:#000000;fill-opacity:1;stroke:none;font-family:Roboto Condensed;-inkscape-font-specification:'Roboto Condensed,'"
       transform="translate(336.84254,112)"><flowRegion
         id="flowRegion5998"><rect
           id="rect6000"
           width="308.0658"
           height="14.591797"
           x="35.40477"
           y="264.65488"
           style="font-size:10px;font-style:normal;font-variant:normal;font-weight:normal;font-stretch:normal;text-align:end;line-height:125%;writing-mode:lr-tb;text-anchor:end;font-family:Roboto Condensed;-inkscape-font-specification:'Roboto Condensed,'" /></flowRegion><flowPara
         id="flowPara6002">Discard changes in <flowSpan
   style="font-weight:bold;text-align:end;text-anchor:end"
   id="flowSpan6170">working directory</flowSpan>. This operation <flowSpan
   style="font-weight:bold;text-align:end;text-anchor:end"
   id="flowSpan6164"><flowSpan
   style="font-weight:normal"
   id="flowSpan3838">is </flowSpan>unrecoverable</flowSpan>.</flowPara></flowRoot>    <rect
       style="fill:#e6e6e6;fill-opacity:1;fill-rule:nonzero;stroke:none"
       id="rect6006"
       width="311.81097"
       height="17.136642"
       x="370.2756"
       y="394.00208" />
    <flowRoot
       xml:space="preserve"
       id="flowRoot6008"
       style="font-size:10px;font-style:normal;font-variant:normal;font-weight:bold;font-stretch:normal;text-align:start;line-height:125%;letter-spacing:0px;word-spacing:0px;writing-mode:lr-tb;text-anchor:start;fill:#000000;fill-opacity:1;stroke:none;font-family:Liberation Mono;-inkscape-font-specification:Liberation Mono Bold"
       transform="translate(336.84254,152)"><flowRegion
         id="flowRegion6010"><rect
           id="rect6012"
           width="317.16776"
           height="22.127983"
           x="35.40477"
           y="244.49382"
           style="font-size:10px;font-style:normal;font-variant:normal;font-weight:bold;font-stretch:normal;text-align:start;line-height:125%;writing-mode:lr-tb;text-anchor:start;font-family:Liberation Mono;-inkscape-font-specification:Liberation Mono Bold" /></flowRegion><flowPara
         id="flowPara6014"
         style="font-size:9px">$ git add [file]</flowPara></flowRoot>    <flowRoot
       transform="translate(336.84254,150)"
       style="font-size:10px;font-style:normal;font-variant:normal;font-weight:normal;font-stretch:normal;text-align:end;line-height:125%;letter-spacing:0px;word-spacing:0px;writing-mode:lr-tb;text-anchor:end;fill:#000000;fill-opacity:1;stroke:none;font-family:Roboto Condensed;-inkscape-font-specification:'Roboto Condensed,'"
       id="flowRoot6016"
       xml:space="preserve"><flowRegion
         id="flowRegion6018"><rect
           style="font-size:10px;font-style:normal;font-variant:normal;font-weight:normal;font-stretch:normal;text-align:end;line-height:125%;writing-mode:lr-tb;text-anchor:end;font-family:Roboto Condensed;-inkscape-font-specification:'Roboto Condensed,'"
           y="264.65488"
           x="35.40477"
           height="27.47147"
           width="302.01376"
           id="rect6020" /></flowRegion><flowPara
         id="flowPara6022">Add a file to the <flowSpan
   style="font-weight:bold;text-align:end;text-anchor:end"
   id="flowSpan6156">staging</flowSpan> area. Use <flowSpan
   style="font-weight:bold;text-align:end;text-anchor:end"
   id="flowSpan6158">.</flowSpan> instead of full file path, to add all changes files from current directory down into directory tree.</flowPara></flowRoot>    <rect
       y="444.00208"
       x="370.2756"
       height="17.136642"
       width="311.81097"
       id="rect6026"
       style="fill:#e6e6e6;fill-opacity:1;fill-rule:nonzero;stroke:none" />
    <flowRoot
       transform="translate(336.84254,202)"
       style="font-size:10px;font-style:normal;font-variant:normal;font-weight:bold;font-stretch:normal;text-align:start;line-height:125%;letter-spacing:0px;word-spacing:0px;writing-mode:lr-tb;text-anchor:start;fill:#000000;fill-opacity:1;stroke:none;font-family:Liberation Mono;-inkscape-font-specification:Liberation Mono Bold"
       id="flowRoot6028"
       xml:space="preserve"><flowRegion
         id="flowRegion6030"><rect
           style="font-size:10px;font-style:normal;font-variant:normal;font-weight:bold;font-stretch:normal;text-align:start;line-height:125%;writing-mode:lr-tb;text-anchor:start;font-family:Liberation Mono;-inkscape-font-specification:Liberation Mono Bold"
           y="244.49382"
           x="35.40477"
           height="22.127983"
           width="317.16776"
           id="rect6032" /></flowRegion><flowPara
         style="font-size:9px"
         id="flowPara6034">$ git reset [file]</flowPara></flowRoot>    <flowRoot
       xml:space="preserve"
       id="flowRoot6036"
       style="font-size:10px;font-style:normal;font-variant:normal;font-weight:normal;font-stretch:normal;text-align:end;line-height:125%;letter-spacing:0px;word-spacing:0px;writing-mode:lr-tb;text-anchor:end;fill:#000000;fill-opacity:1;stroke:none;font-family:Roboto Condensed;-inkscape-font-specification:'Roboto Condensed,'"
       transform="translate(336.84254,200)"><flowRegion
         id="flowRegion6038"><rect
           id="rect6040"
           width="308.0658"
           height="14.591797"
           x="35.40477"
           y="264.65488"
           style="font-size:10px;font-style:normal;font-variant:normal;font-weight:normal;font-stretch:normal;text-align:end;line-height:125%;writing-mode:lr-tb;text-anchor:end;font-family:Roboto Condensed;-inkscape-font-specification:'Roboto Condensed,'" /></flowRegion><flowPara
         id="flowPara6042">Get file back from <flowSpan
   style="font-weight:bold;text-align:end;text-anchor:end"
   id="flowSpan6162">staging</flowSpan> area to working directory.</flowPara></flowRoot>    <rect
       style="fill:#e6e6e6;fill-opacity:1;fill-rule:nonzero;stroke:none"
       id="rect6046"
       width="311.81097"
       height="17.136642"
       x="370.2756"
       y="482.00208" />
    <flowRoot
       xml:space="preserve"
       id="flowRoot6048"
       style="font-size:10px;font-style:normal;font-variant:normal;font-weight:bold;font-stretch:normal;text-align:start;line-height:125%;letter-spacing:0px;word-spacing:0px;writing-mode:lr-tb;text-anchor:start;fill:#000000;fill-opacity:1;stroke:none;font-family:Liberation Mono;-inkscape-font-specification:Liberation Mono Bold"
       transform="translate(336.84254,240)"><flowRegion
         id="flowRegion6050"><rect
           id="rect6052"
           width="317.16776"
           height="22.127983"
           x="35.40477"
           y="244.49382"
           style="font-size:10px;font-style:normal;font-variant:normal;font-weight:bold;font-stretch:normal;text-align:start;line-height:125%;writing-mode:lr-tb;text-anchor:start;font-family:Liberation Mono;-inkscape-font-specification:Liberation Mono Bold" /></flowRegion><flowPara
         id="flowPara6054"
         style="font-size:9px">$ git commit [-m &quot;message here&quot;]</flowPara></flowRoot>    <flowRoot
       transform="translate(336.84254,238)"
       style="font-size:10px;font-style:normal;font-variant:normal;font-weight:normal;font-stretch:normal;text-align:end;line-height:125%;letter-spacing:0px;word-spacing:0px;writing-mode:lr-tb;text-anchor:end;fill:#000000;fill-opacity:1;stroke:none;font-family:Roboto Condensed;-inkscape-font-specification:'Roboto Condensed,'"
       id="flowRoot6056"
       xml:space="preserve"><flowRegion
         id="flowRegion6058"><rect
           style="font-size:10px;font-style:normal;font-variant:normal;font-weight:normal;font-stretch:normal;text-align:end;line-height:125%;writing-mode:lr-tb;text-anchor:end;font-family:Roboto Condensed;-inkscape-font-specification:'Roboto Condensed,'"
           y="264.17914"
           x="32.07468"
           height="40.265308"
           width="310.14908"
           id="rect6060" /></flowRegion><flowPara
         id="flowPara6062">Create new commit from changes added to the staging area. Commit <flowSpan
   style="font-weight:bold;text-align:end;text-anchor:end"
   id="flowSpan6152">must have</flowSpan> a message! You can provide it by <flowSpan
   style="font-weight:bold"
   id="flowSpan3819">-m</flowSpan>. Otherways <flowSpan
   style="font-weight:bold"
   id="flowSpan3821">$EDITOR</flowSpan> will be opened.</flowPara></flowRoot>    <rect
       y="566.00208"
       x="370.2756"
       height="17.136642"
       width="311.81097"
       id="rect6066"
       style="fill:#e6e6e6;fill-opacity:1;fill-rule:nonzero;stroke:none" />
    <flowRoot
       transform="translate(336.84254,324)"
       style="font-size:10px;font-style:normal;font-variant:normal;font-weight:bold;font-stretch:normal;text-align:start;line-height:125%;letter-spacing:0px;word-spacing:0px;writing-mode:lr-tb;text-anchor:start;fill:#000000;fill-opacity:1;stroke:none;font-family:Liberation Mono;-inkscape-font-specification:Liberation Mono Bold"
       id="flowRoot6068"
       xml:space="preserve"><flowRegion
         id="flowRegion6070"><rect
           style="font-size:10px;font-style:normal;font-variant:normal;font-weight:bold;font-stretch:normal;text-align:start;line-height:125%;writing-mode:lr-tb;text-anchor:start;font-family:Liberation Mono;-inkscape-font-specification:Liberation Mono Bold"
           y="244.49382"
           x="35.40477"
           height="22.127983"
           width="317.16776"
           id="rect6072" /></flowRegion><flowPara
         style="font-size:9px"
         id="flowPara6074">$ git stash</flowPara></flowRoot>    <flowRoot
       xml:space="preserve"
       id="flowRoot6076"
       style="font-size:10px;font-style:normal;font-variant:normal;font-weight:normal;font-stretch:normal;text-align:end;line-height:125%;letter-spacing:0px;word-spacing:0px;writing-mode:lr-tb;text-anchor:end;fill:#000000;fill-opacity:1;stroke:none;font-family:Roboto Condensed;-inkscape-font-specification:'Roboto Condensed,'"
       transform="translate(336.84254,322)"><flowRegion
         id="flowRegion6078"><rect
           id="rect6080"
           width="308.0658"
           height="14.591797"
           x="35.40477"
           y="264.65488"
           style="font-size:10px;font-style:normal;font-variant:normal;font-weight:normal;font-stretch:normal;text-align:end;line-height:125%;writing-mode:lr-tb;text-anchor:end;font-family:Roboto Condensed;-inkscape-font-specification:'Roboto Condensed,'" /></flowRegion><flowPara
         id="flowPara6082">Put your current changes into <flowSpan
   style="font-weight:bold;text-align:end;text-anchor:end"
   id="flowSpan6144">stash.</flowSpan></flowPara></flowRoot>    <rect
       style="fill:#e6e6e6;fill-opacity:1;fill-rule:nonzero;stroke:none"
       id="rect6086"
       width="311.81097"
       height="17.136642"
       x="370.2756"
       y="604.00208" />
    <flowRoot
       xml:space="preserve"
       id="flowRoot6088"
       style="font-size:10px;font-style:normal;font-variant:normal;font-weight:bold;font-stretch:normal;text-align:start;line-height:125%;letter-spacing:0px;word-spacing:0px;writing-mode:lr-tb;text-anchor:start;fill:#000000;fill-opacity:1;stroke:none;font-family:Liberation Mono;-inkscape-font-specification:Liberation Mono Bold"
       transform="translate(336.84254,362)"><flowRegion
         id="flowRegion6090"><rect
           id="rect6092"
           width="317.16776"
           height="22.127983"
           x="35.40477"
           y="244.49382"
           style="font-size:10px;font-style:normal;font-variant:normal;font-weight:bold;font-stretch:normal;text-align:start;line-height:125%;writing-mode:lr-tb;text-anchor:start;font-family:Liberation Mono;-inkscape-font-specification:Liberation Mono Bold" /></flowRegion><flowPara
         id="flowPara6094"
         style="font-size:9px">$ git stash pop </flowPara></flowRoot>    <flowRoot
       transform="translate(336.84254,360)"
       style="font-size:10px;font-style:normal;font-variant:normal;font-weight:normal;font-stretch:normal;text-align:end;line-height:125%;letter-spacing:0px;word-spacing:0px;writing-mode:lr-tb;text-anchor:end;fill:#000000;fill-opacity:1;stroke:none;font-family:Roboto Condensed;-inkscape-font-specification:'Roboto Condensed,'"
       id="flowRoot6096"
       xml:space="preserve"><flowRegion
         id="flowRegion6098"><rect
           style="font-size:10px;font-style:normal;font-variant:normal;font-weight:normal;font-stretch:normal;text-align:end;line-height:125%;writing-mode:lr-tb;text-anchor:end;font-family:Roboto Condensed;-inkscape-font-specification:'Roboto Condensed,'"
           y="264.65488"
           x="35.40477"
           height="14.591797"
           width="308.0658"
           id="rect6100" /></flowRegion><flowPara
         id="flowPara6102">Apply stored <flowSpan
   style="font-weight:bold;text-align:end;text-anchor:end"
   id="flowSpan6146">stash</flowSpan> content into <flowSpan
   style="font-weight:bold;text-align:end;text-anchor:end"
   id="flowSpan6172">working directory</flowSpan>, and clear <flowSpan
   style="font-weight:bold;text-align:end;text-anchor:end"
   id="flowSpan6148">stash</flowSpan>.</flowPara></flowRoot>    <rect
       y="642.00208"
       x="370.2756"
       height="17.136642"
       width="311.81097"
       id="rect6106"
       style="fill:#e6e6e6;fill-opacity:1;fill-rule:nonzero;stroke:none" />
    <flowRoot
       transform="translate(336.84254,400)"
       style="font-size:10px;font-style:normal;font-variant:normal;font-weight:bold;font-stretch:normal;text-align:start;line-height:125%;letter-spacing:0px;word-spacing:0px;writing-mode:lr-tb;text-anchor:start;fill:#000000;fill-opacity:1;stroke:none;font-family:Liberation Mono;-inkscape-font-specification:Liberation Mono Bold"
       id="flowRoot6108"
       xml:space="preserve"><flowRegion
         id="flowRegion6110"><rect
           style="font-size:10px;font-style:normal;font-variant:normal;font-weight:bold;font-stretch:normal;text-align:start;line-height:125%;writing-mode:lr-tb;text-anchor:start;font-family:Liberation Mono;-inkscape-font-specification:Liberation Mono Bold"
           y="244.49382"
           x="35.40477"
           height="22.127983"
           width="317.16776"
           id="rect6112" /></flowRegion><flowPara
         style="font-size:9px"
         id="flowPara6114">$ git status</flowPara></flowRoot>    <flowRoot
       xml:space="preserve"
       id="flowRoot6116"
       style="font-size:10px;font-style:normal;font-variant:normal;font-weight:normal;font-stretch:normal;text-align:end;line-height:125%;letter-spacing:0px;word-spacing:0px;writing-mode:lr-tb;text-anchor:end;fill:#000000;fill-opacity:1;stroke:none;font-family:Roboto Condensed;-inkscape-font-specification:'Roboto Condensed,'"
       transform="translate(336.84254,398)"><flowRegion
         id="flowRegion6118"><rect
           id="rect6120"
           width="308.0658"
           height="14.591797"
           x="35.40477"
           y="264.65488"
           style="font-size:10px;font-style:normal;font-variant:normal;font-weight:normal;font-stretch:normal;text-align:end;line-height:125%;writing-mode:lr-tb;text-anchor:end;font-family:Roboto Condensed;-inkscape-font-specification:'Roboto Condensed,'" /></flowRegion><flowPara
         id="flowPara6122">Clear <flowSpan
   style="font-weight:bold;text-align:end;text-anchor:end"
   id="flowSpan6150">stash</flowSpan> without applying it into <flowSpan
   style="font-weight:bold;text-align:end;text-anchor:end"
   id="flowSpan6174">working directory</flowSpan>.</flowPara></flowRoot>    <rect
       style="fill:#e6e6e6;fill-opacity:1;fill-rule:nonzero;stroke:none"
       id="rect6126"
       width="311.81097"
       height="17.136642"
       x="370.2756"
       y="642.00208" />
    <flowRoot
       xml:space="preserve"
       id="flowRoot6128"
       style="font-size:10px;font-style:normal;font-variant:normal;font-weight:bold;font-stretch:normal;text-align:start;line-height:125%;letter-spacing:0px;word-spacing:0px;writing-mode:lr-tb;text-anchor:start;fill:#000000;fill-opacity:1;stroke:none;font-family:Liberation Mono;-inkscape-font-specification:Liberation Mono Bold"
       transform="translate(336.84254,400)"><flowRegion
         id="flowRegion6130"><rect
           id="rect6132"
           width="317.16776"
           height="22.127983"
           x="35.40477"
           y="244.49382"
           style="font-size:10px;font-style:normal;font-variant:normal;font-weight:bold;font-stretch:normal;text-align:start;line-height:125%;writing-mode:lr-tb;text-anchor:start;font-family:Liberation Mono;-inkscape-font-specification:Liberation Mono Bold" /></flowRegion><flowPara
         id="flowPara6134"
         style="font-size:9px">$ git stash drop</flowPara></flowRoot>    <rect
       style="fill:#e6e6e6;fill-opacity:1;fill-rule:nonzero;stroke:none"
       id="rect7324"
       width="311.81097"
       height="17.136642"
       x="370.2756"
       y="530.00208" />
    <flowRoot
       xml:space="preserve"
       id="flowRoot7326"
       style="font-size:10px;font-style:normal;font-variant:normal;font-weight:bold;font-stretch:normal;text-align:start;line-height:125%;letter-spacing:0px;word-spacing:0px;writing-mode:lr-tb;text-anchor:start;fill:#000000;fill-opacity:1;stroke:none;font-family:Liberation Mono;-inkscape-font-specification:Liberation Mono Bold"
       transform="translate(336.84254,288)"><flowRegion
         id="flowRegion7328"><rect
           id="rect7330"
           width="317.16776"
           height="22.127983"
           x="35.40477"
           y="244.49382"
           style="font-size:10px;font-style:normal;font-variant:normal;font-weight:bold;font-stretch:normal;text-align:start;line-height:125%;writing-mode:lr-tb;text-anchor:start;font-family:Liberation Mono;-inkscape-font-specification:Liberation Mono Bold" /></flowRegion><flowPara
         id="flowPara7332"
         style="font-size:9px">$ git rm [file]</flowPara></flowRoot>    <flowRoot
       transform="translate(336.84254,286)"
       style="font-size:10px;font-style:normal;font-variant:normal;font-weight:normal;font-stretch:normal;text-align:end;line-height:125%;letter-spacing:0px;word-spacing:0px;writing-mode:lr-tb;text-anchor:end;fill:#000000;fill-opacity:1;stroke:none;font-family:Roboto Condensed;-inkscape-font-specification:'Roboto Condensed,'"
       id="flowRoot7334"
       xml:space="preserve"><flowRegion
         id="flowRegion7336"><rect
           style="font-size:10px;font-style:normal;font-variant:normal;font-weight:normal;font-stretch:normal;text-align:end;line-height:125%;writing-mode:lr-tb;text-anchor:end;font-family:Roboto Condensed;-inkscape-font-specification:'Roboto Condensed,'"
           y="264.65488"
           x="35.40477"
           height="14.591797"
           width="308.0658"
           id="rect7338" /></flowRegion><flowPara
         id="flowPara7340">Remove file from <flowSpan
   style="font-weight:bold;text-align:end;text-anchor:end"
   id="flowSpan7348">working directory</flowSpan> and add deletion to <flowSpan
   style="font-weight:bold;text-align:end;text-anchor:end"
   id="flowSpan7346">staging area</flowSpan>.</flowPara></flowRoot>  </g>
  <g
     inkscape:groupmode="layer"
     id="layer10"
     inkscape:label="4_GIT_BRANCHING_MODEL">
    <rect
       style="fill:#554488;fill-opacity:1;fill-rule:nonzero;stroke:none"
       id="rect7352"
       width="317.12595"
       height="28.512032"
       x="699.80316"
       y="415.05304" />
    <text
       xml:space="preserve"
       style="font-style:normal;font-variant:normal;font-weight:bold;font-stretch:normal;font-size:18px;line-height:125%;font-family:'Roboto Condensed';-inkscape-font-specification:'Roboto Condensed, Bold';text-align:start;letter-spacing:0px;word-spacing:0px;writing-mode:lr-tb;text-anchor:start;fill:#ffffff;fill-opacity:1;stroke:none"
       x="817.24249"
       y="435.63345"
       id="text7354"
       sodipodi:linespacing="125%"><tspan
         sodipodi:role="line"
         id="tspan7356"
         x="817.24249"
         y="435.63345"
         style="font-style:normal;font-variant:normal;font-weight:bold;font-stretch:normal;font-size:18px;line-height:125%;font-family:'Roboto Condensed';-inkscape-font-specification:'Roboto Condensed, Bold';text-align:start;writing-mode:lr-tb;text-anchor:start;fill:#ffffff">4. GIT BRANCHING MODEL</tspan></text>
    <rect
       y="455.31497"
       x="699.80316"
       height="17.136642"
       width="317.12595"
       id="rect7360"
       style="fill:#e6e6e6;fill-opacity:1;fill-rule:nonzero;stroke:none" />
    <flowRoot
       transform="translate(666.37012,213.31289)"
       style="font-style:normal;font-variant:normal;font-weight:bold;font-stretch:normal;font-size:10px;line-height:125%;font-family:'Liberation Mono';-inkscape-font-specification:'Liberation Mono Bold';text-align:start;letter-spacing:0px;word-spacing:0px;writing-mode:lr-tb;text-anchor:start;fill:#000000;fill-opacity:1;stroke:none"
       id="flowRoot7362"
       xml:space="preserve"><flowRegion
         id="flowRegion7364"><rect
           style="font-style:normal;font-variant:normal;font-weight:bold;font-stretch:normal;font-size:10px;line-height:125%;font-family:'Liberation Mono';-inkscape-font-specification:'Liberation Mono Bold';text-align:start;writing-mode:lr-tb;text-anchor:start"
           y="244.49382"
           x="35.40477"
           height="22.127983"
           width="317.16776"
           id="rect7366" /></flowRegion><flowPara
         style="font-size:9px"
         id="flowPara7368">$ git branch [-a]</flowPara></flowRoot>    <flowRoot
       xml:space="preserve"
       id="flowRoot7370"
       style="font-style:normal;font-variant:normal;font-weight:normal;font-stretch:normal;font-size:10px;line-height:125%;font-family:'Roboto Condensed';-inkscape-font-specification:'Roboto Condensed,';text-align:end;letter-spacing:0px;word-spacing:0px;writing-mode:lr-tb;text-anchor:end;display:inline;fill:#000000;fill-opacity:1;stroke:none"
       transform="translate(666.37012,211.31289)"><flowRegion
         id="flowRegion7372"><rect
           id="rect7374"
           width="308.0658"
           height="14.591797"
           x="35.40477"
           y="264.65488"
           style="font-style:normal;font-variant:normal;font-weight:normal;font-stretch:normal;font-size:10px;line-height:125%;font-family:'Roboto Condensed';-inkscape-font-specification:'Roboto Condensed,';text-align:end;writing-mode:lr-tb;text-anchor:end" /></flowRegion><flowPara
         id="flowPara7376">List all local branches in repository. With <flowSpan
   style="font-weight:bold;text-align:end;text-anchor:end"
   id="flowSpan7533">-a</flowSpan>: show all branches (with remote).</flowPara></flowRoot>    <rect
       style="fill:#e6e6e6;fill-opacity:1;fill-rule:nonzero;stroke:none"
       id="rect7557"
       width="317.12595"
       height="17.136642"
       x="699.80316"
       y="493.31497" />
    <flowRoot
       xml:space="preserve"
       id="flowRoot7559"
       style="font-style:normal;font-variant:normal;font-weight:bold;font-stretch:normal;font-size:10px;line-height:125%;font-family:'Liberation Mono';-inkscape-font-specification:'Liberation Mono Bold';text-align:start;letter-spacing:0px;word-spacing:0px;writing-mode:lr-tb;text-anchor:start;fill:#000000;fill-opacity:1;stroke:none"
       transform="translate(666.37012,251.31289)"><flowRegion
         id="flowRegion7561"><rect
           id="rect7563"
           width="317.16776"
           height="22.127983"
           x="35.40477"
           y="244.49382"
           style="font-style:normal;font-variant:normal;font-weight:bold;font-stretch:normal;font-size:10px;line-height:125%;font-family:'Liberation Mono';-inkscape-font-specification:'Liberation Mono Bold';text-align:start;writing-mode:lr-tb;text-anchor:start" /></flowRegion><flowPara
         id="flowPara7565"
         style="font-size:9px">$ git branch [name]</flowPara></flowRoot>    <flowRoot
       transform="translate(666.37012,249.31289)"
       style="font-style:normal;font-variant:normal;font-weight:normal;font-stretch:normal;font-size:10px;line-height:125%;font-family:'Roboto Condensed';-inkscape-font-specification:'Roboto Condensed,';text-align:end;letter-spacing:0px;word-spacing:0px;writing-mode:lr-tb;text-anchor:end;display:inline;fill:#000000;fill-opacity:1;stroke:none"
       id="flowRoot7567"
       xml:space="preserve"><flowRegion
         id="flowRegion7569"><rect
           style="font-style:normal;font-variant:normal;font-weight:normal;font-stretch:normal;font-size:10px;line-height:125%;font-family:'Roboto Condensed';-inkscape-font-specification:'Roboto Condensed,';text-align:end;writing-mode:lr-tb;text-anchor:end"
           y="264.65488"
           x="35.40477"
           height="14.591797"
           width="308.0658"
           id="rect7571" /></flowRegion><flowPara
         id="flowPara7573">Create new branch, referencing the current <flowSpan
   style="font-weight:bold;text-align:end;text-anchor:end"
   id="flowSpan7577">HEAD</flowSpan>.</flowPara></flowRoot>    <rect
       y="531.31494"
       x="699.80316"
       height="17.136642"
       width="317.12595"
       id="rect7583"
       style="fill:#e6e6e6;fill-opacity:1;fill-rule:nonzero;stroke:none" />
    <flowRoot
       transform="translate(666.37012,289.31289)"
       style="font-style:normal;font-variant:normal;font-weight:bold;font-stretch:normal;font-size:10px;line-height:125%;font-family:'Liberation Mono';-inkscape-font-specification:'Liberation Mono Bold';text-align:start;letter-spacing:0px;word-spacing:0px;writing-mode:lr-tb;text-anchor:start;fill:#000000;fill-opacity:1;stroke:none"
       id="flowRoot7585"
       xml:space="preserve"><flowRegion
         id="flowRegion7587"><rect
           style="font-style:normal;font-variant:normal;font-weight:bold;font-stretch:normal;font-size:10px;line-height:125%;font-family:'Liberation Mono';-inkscape-font-specification:'Liberation Mono Bold';text-align:start;writing-mode:lr-tb;text-anchor:start"
           y="244.49382"
           x="35.40477"
           height="22.127983"
           width="317.16776"
           id="rect7589" /></flowRegion><flowPara
         style="font-size:9px"
         id="flowPara7591">$ git checkout [-b] [name]</flowPara></flowRoot>    <flowRoot
       xml:space="preserve"
       id="flowRoot7593"
       style="font-style:normal;font-variant:normal;font-weight:normal;font-stretch:normal;font-size:10px;line-height:125%;font-family:'Roboto Condensed';-inkscape-font-specification:'Roboto Condensed,';text-align:end;letter-spacing:0px;word-spacing:0px;writing-mode:lr-tb;text-anchor:end;display:inline;fill:#000000;fill-opacity:1;stroke:none"
       transform="translate(666.37012,287.31289)"><flowRegion
         id="flowRegion7595"><rect
           id="rect7597"
           width="305.25946"
           height="27.104998"
           x="35.40477"
           y="264.65488"
           style="font-style:normal;font-variant:normal;font-weight:normal;font-stretch:normal;font-size:10px;line-height:125%;font-family:'Roboto Condensed';-inkscape-font-specification:'Roboto Condensed,';text-align:end;writing-mode:lr-tb;text-anchor:end" /></flowRegion><flowPara
         id="flowPara7599">Switch <flowSpan
   style="font-weight:bold;text-align:end;text-anchor:end"
   id="flowSpan7603">working directory</flowSpan> to the specified branch. With <flowSpan
   style="font-weight:bold;text-align:end;text-anchor:end"
   id="flowSpan7605">-b</flowSpan>: Git will create the specified branch if it does not exist.</flowPara></flowRoot>    <rect
       style="fill:#e6e6e6;fill-opacity:1;fill-rule:nonzero;stroke:none"
       id="rect7609"
       width="317.12595"
       height="17.136642"
       x="699.80316"
       y="581.31494" />
    <flowRoot
       xml:space="preserve"
       id="flowRoot7611"
       style="font-style:normal;font-variant:normal;font-weight:bold;font-stretch:normal;font-size:10px;line-height:125%;font-family:'Liberation Mono';-inkscape-font-specification:'Liberation Mono Bold';text-align:start;letter-spacing:0px;word-spacing:0px;writing-mode:lr-tb;text-anchor:start;fill:#000000;fill-opacity:1;stroke:none"
       transform="translate(666.37012,339.31289)"><flowRegion
         id="flowRegion7613"><rect
           id="rect7615"
           width="317.16776"
           height="22.127983"
           x="35.40477"
           y="244.49382"
           style="font-style:normal;font-variant:normal;font-weight:bold;font-stretch:normal;font-size:10px;line-height:125%;font-family:'Liberation Mono';-inkscape-font-specification:'Liberation Mono Bold';text-align:start;writing-mode:lr-tb;text-anchor:start" /></flowRegion><flowPara
         id="flowPara7617"
         style="font-size:9px">$ git merge [from name]</flowPara></flowRoot>    <flowRoot
       transform="translate(666.37012,337.31289)"
       style="font-style:normal;font-variant:normal;font-weight:normal;font-stretch:normal;font-size:10px;line-height:125%;font-family:'Roboto Condensed';-inkscape-font-specification:'Roboto Condensed,';text-align:end;letter-spacing:0px;word-spacing:0px;writing-mode:lr-tb;text-anchor:end;display:inline;fill:#000000;fill-opacity:1;stroke:none"
       id="flowRoot7619"
       xml:space="preserve"><flowRegion
         id="flowRegion7621"><rect
           style="font-style:normal;font-variant:normal;font-weight:normal;font-stretch:normal;font-size:10px;line-height:125%;font-family:'Roboto Condensed';-inkscape-font-specification:'Roboto Condensed,';text-align:end;writing-mode:lr-tb;text-anchor:end"
           y="264.65488"
           x="35.40477"
           height="27.104998"
           width="305.25946"
           id="rect7623" /></flowRegion><flowPara
         id="flowPara7625">Join specified <flowSpan
   style="font-weight:bold;text-align:end;text-anchor:end"
   id="flowSpan7631">[from name]</flowSpan> branch into your current branch (the one you are on currenlty).</flowPara></flowRoot>    <rect
       y="631.31494"
       x="699.80316"
       height="17.136642"
       width="317.12595"
       id="rect7637"
       style="fill:#e6e6e6;fill-opacity:1;fill-rule:nonzero;stroke:none" />
    <flowRoot
       transform="translate(666.37012,389.31289)"
       style="font-style:normal;font-variant:normal;font-weight:bold;font-stretch:normal;font-size:10px;line-height:125%;font-family:'Liberation Mono';-inkscape-font-specification:'Liberation Mono Bold';text-align:start;letter-spacing:0px;word-spacing:0px;writing-mode:lr-tb;text-anchor:start;fill:#000000;fill-opacity:1;stroke:none"
       id="flowRoot7639"
       xml:space="preserve"><flowRegion
         id="flowRegion7641"><rect
           style="font-style:normal;font-variant:normal;font-weight:bold;font-stretch:normal;font-size:10px;line-height:125%;font-family:'Liberation Mono';-inkscape-font-specification:'Liberation Mono Bold';text-align:start;writing-mode:lr-tb;text-anchor:start"
           y="244.49382"
           x="35.40477"
           height="22.127983"
           width="317.16776"
           id="rect7643" /></flowRegion><flowPara
         style="font-size:9px"
         id="flowPara7645">$ git branch -d [name]</flowPara></flowRoot>    <flowRoot
       xml:space="preserve"
       id="flowRoot7647"
       style="font-style:normal;font-variant:normal;font-weight:normal;font-stretch:normal;font-size:10px;line-height:125%;font-family:'Roboto Condensed';-inkscape-font-specification:'Roboto Condensed,';text-align:end;letter-spacing:0px;word-spacing:0px;writing-mode:lr-tb;text-anchor:end;display:inline;fill:#000000;fill-opacity:1;stroke:none"
       transform="translate(666.37012,387.31289)"><flowRegion
         id="flowRegion7649"><rect
           id="rect7651"
           width="305.25946"
           height="27.104998"
           x="35.40477"
           y="264.65488"
           style="font-style:normal;font-variant:normal;font-weight:normal;font-stretch:normal;font-size:10px;line-height:125%;font-family:'Roboto Condensed';-inkscape-font-specification:'Roboto Condensed,';text-align:end;writing-mode:lr-tb;text-anchor:end" /></flowRegion><flowPara
         id="flowPara7653">Remove selected branch, if it is already merged into any other. <flowSpan
   style="font-weight:bold;text-align:end;text-anchor:end"
   id="flowSpan7659">-D</flowSpan> instead of </flowPara><flowPara
         id="flowPara7661"><flowSpan
   style="font-weight:bold;text-align:end;text-anchor:end"
   id="flowSpan7663">-d</flowSpan> forces deletion.</flowPara></flowRoot>  </g>
</svg>
