%!Adobe-FontList 1.22
%Locale:0x409

%BeginFont
Handler:DirectoryHandler
FontType:Invalid
OutlineFileName:/Users/monicagalletto/Documents/corporate-marketing/design/publications/white-paper/cross-domain-devops/_artwork/Document fonts/AdobeFnt22.lst
FileLength:2993
FileModTime:624466764
%EndFont

%BeginFont
Handler:DirectoryHandler
FontType:TrueType
FontName:SourceSansPro-Bold
FamilyName:Source Sans Pro
StyleName:Bold
MenuName:Source Sans Pro
StyleBits:2
WeightClass:700
WidthClass:5
AngleClass:0
FullName:Source Sans Pro Bold
WritingScript:Roman
OutlineFileName:/Users/monicagalletto/Documents/corporate-marketing/design/publications/white-paper/cross-domain-devops/_artwork/Document fonts/SourceSansPro-Bold.ttf
DataFormat:sfntData
hasSVG:no
VariableFontType:NonVariableFont
FileLength:290916
FileModTime:623344855
DesignSize:100
NameArray:0,Mac,4,Source Sans Pro Bold
NameArray:0,Win,1,Source Sans Pro
%EndFont

%BeginFont
Handler:DirectoryHandler
FontType:TrueType
FontName:SourceSansPro-SemiBold
FamilyName:Source Sans Pro
StyleName:SemiBold
MenuName:Source Sans Pro SemiBold
StyleBits:0
WeightClass:600
WidthClass:5
AngleClass:0
FullName:Source Sans Pro SemiBold
WritingScript:Roman
OutlineFileName:/Users/monicagalletto/Documents/corporate-marketing/design/publications/white-paper/cross-domain-devops/_artwork/Document fonts/SourceSansPro-SemiBold.ttf
DataFormat:sfntData
hasSVG:no
VariableFontType:NonVariableFont
FileLength:291864
FileModTime:623344855
DesignSize:100
NameArray:0,Mac,4,Source Sans Pro SemiBold
NameArray:0,Win,1,Source Sans Pro SemiBold
NameArray:0,Win,16,Source Sans Pro
%EndFont

%BeginFont
Handler:DirectoryHandler
FontType:Type1
FontName:SourceSansVariable-Italic
FamilyName:Source Sans Variable
StyleName:Italic
MenuName:Source Sans Variable
StyleBits:1
WeightClass:200
WidthClass:5
AngleClass:1
FullName:Source Sans Variable Italic
WritingScript:Roman
OutlineFileName:/Users/monicagalletto/Documents/corporate-marketing/design/publications/white-paper/cross-domain-devops/_artwork/Document fonts/SourceSansVariable-Italic.otf
DataFormat:sfntData
UsesStandardEncoding:yes
isCFF:yes
hasSVG:no
VariableFontType:CFF2VariableFont
FileLength:114488
FileModTime:623344855
DesignSize:100
NameArray:0,Mac,4,Source Sans Variable Italic
NameArray:0,Win,1,Source Sans Variable
%EndFont

%BeginFont
Handler:DirectoryHandler
FontType:Type1
FontName:SourceSansVariable-Roman
FamilyName:Source Sans Variable
StyleName:Roman
MenuName:Source Sans Variable
StyleBits:0
WeightClass:200
WidthClass:5
AngleClass:0
FullName:Source Sans Variable
WritingScript:Roman
OutlineFileName:/Users/monicagalletto/Documents/corporate-marketing/design/publications/white-paper/cross-domain-devops/_artwork/Document fonts/SourceSansVariable-Roman.otf
DataFormat:sfntData
UsesStandardEncoding:yes
isCFF:yes
hasSVG:no
VariableFontType:CFF2VariableFont
FileLength:414588
FileModTime:623344855
DesignSize:100
NameArray:0,Mac,4,Source Sans Variable
NameArray:0,Win,1,Source Sans Variable
%EndFont

