%!PS-Adobe-3.0 EPSF-3.0
%%BoundingBox: 0 0 200 200
1 1 1 setrgbcolor
0 200 moveto
0 -200 rlineto 200 0 rlineto 0 200 rlineto closepath
fill
0 0 0 setrgbcolor
7 193 moveto
0 -5 rlineto 5 0 rlineto 0 5 rlineto closepath
fill
12 193 moveto
0 -5 rlineto 5 0 rlineto 0 5 rlineto closepath
fill
17 193 moveto
0 -5 rlineto 5 0 rlineto 0 5 rlineto closepath
fill
22 193 moveto
0 -5 rlineto 5 0 rlineto 0 5 rlineto closepath
fill
27 193 moveto
0 -5 rlineto 5 0 rlineto 0 5 rlineto closepath
fill
32 193 moveto
0 -5 rlineto 5 0 rlineto 0 5 rlineto closepath
fill
37 193 moveto
0 -5 rlineto 5 0 rlineto 0 5 rlineto closepath
fill
47 193 moveto
0 -5 rlineto 5 0 rlineto 0 5 rlineto closepath
fill
52 193 moveto
0 -5 rlineto 5 0 rlineto 0 5 rlineto closepath
fill
57 193 moveto
0 -5 rlineto 5 0 rlineto 0 5 rlineto closepath
fill
67 193 moveto
0 -5 rlineto 5 0 rlineto 0 5 rlineto closepath
fill
97 193 moveto
0 -5 rlineto 5 0 rlineto 0 5 rlineto closepath
fill
117 193 moveto
0 -5 rlineto 5 0 rlineto 0 5 rlineto closepath
fill
122 193 moveto
0 -5 rlineto 5 0 rlineto 0 5 rlineto closepath
fill
127 193 moveto
0 -5 rlineto 5 0 rlineto 0 5 rlineto closepath
fill
132 193 moveto
0 -5 rlineto 5 0 rlineto 0 5 rlineto closepath
fill
142 193 moveto
0 -5 rlineto 5 0 rlineto 0 5 rlineto closepath
fill
157 193 moveto
0 -5 rlineto 5 0 rlineto 0 5 rlineto closepath
fill
162 193 moveto
0 -5 rlineto 5 0 rlineto 0 5 rlineto closepath
fill
167 193 moveto
0 -5 rlineto 5 0 rlineto 0 5 rlineto closepath
fill
172 193 moveto
0 -5 rlineto 5 0 rlineto 0 5 rlineto closepath
fill
177 193 moveto
0 -5 rlineto 5 0 rlineto 0 5 rlineto closepath
fill
182 193 moveto
0 -5 rlineto 5 0 rlineto 0 5 rlineto closepath
fill
187 193 moveto
0 -5 rlineto 5 0 rlineto 0 5 rlineto closepath
fill
7 188 moveto
0 -5 rlineto 5 0 rlineto 0 5 rlineto closepath
fill
37 188 moveto
0 -5 rlineto 5 0 rlineto 0 5 rlineto closepath
fill
47 188 moveto
0 -5 rlineto 5 0 rlineto 0 5 rlineto closepath
fill
52 188 moveto
0 -5 rlineto 5 0 rlineto 0 5 rlineto closepath
fill
57 188 moveto
0 -5 rlineto 5 0 rlineto 0 5 rlineto closepath
fill
87 188 moveto
0 -5 rlineto 5 0 rlineto 0 5 rlineto closepath
fill
102 188 moveto
0 -5 rlineto 5 0 rlineto 0 5 rlineto closepath
fill
117 188 moveto
0 -5 rlineto 5 0 rlineto 0 5 rlineto closepath
fill
132 188 moveto
0 -5 rlineto 5 0 rlineto 0 5 rlineto closepath
fill
137 188 moveto
0 -5 rlineto 5 0 rlineto 0 5 rlineto closepath
fill
147 188 moveto
0 -5 rlineto 5 0 rlineto 0 5 rlineto closepath
fill
157 188 moveto
0 -5 rlineto 5 0 rlineto 0 5 rlineto closepath
fill
187 188 moveto
0 -5 rlineto 5 0 rlineto 0 5 rlineto closepath
fill
7 183 moveto
0 -5 rlineto 5 0 rlineto 0 5 rlineto closepath
fill
17 183 moveto
0 -5 rlineto 5 0 rlineto 0 5 rlineto closepath
fill
22 183 moveto
0 -5 rlineto 5 0 rlineto 0 5 rlineto closepath
fill
27 183 moveto
0 -5 rlineto 5 0 rlineto 0 5 rlineto closepath
fill
37 183 moveto
0 -5 rlineto 5 0 rlineto 0 5 rlineto closepath
fill
47 183 moveto
0 -5 rlineto 5 0 rlineto 0 5 rlineto closepath
fill
57 183 moveto
0 -5 rlineto 5 0 rlineto 0 5 rlineto closepath
fill
62 183 moveto
0 -5 rlineto 5 0 rlineto 0 5 rlineto closepath
fill
72 183 moveto
0 -5 rlineto 5 0 rlineto 0 5 rlineto closepath
fill
82 183 moveto
0 -5 rlineto 5 0 rlineto 0 5 rlineto closepath
fill
87 183 moveto
0 -5 rlineto 5 0 rlineto 0 5 rlineto closepath
fill
92 183 moveto
0 -5 rlineto 5 0 rlineto 0 5 rlineto closepath
fill
97 183 moveto
0 -5 rlineto 5 0 rlineto 0 5 rlineto closepath
fill
112 183 moveto
0 -5 rlineto 5 0 rlineto 0 5 rlineto closepath
fill
122 183 moveto
0 -5 rlineto 5 0 rlineto 0 5 rlineto closepath
fill
137 183 moveto
0 -5 rlineto 5 0 rlineto 0 5 rlineto closepath
fill
157 183 moveto
0 -5 rlineto 5 0 rlineto 0 5 rlineto closepath
fill
167 183 moveto
0 -5 rlineto 5 0 rlineto 0 5 rlineto closepath
fill
172 183 moveto
0 -5 rlineto 5 0 rlineto 0 5 rlineto closepath
fill
177 183 moveto
0 -5 rlineto 5 0 rlineto 0 5 rlineto closepath
fill
187 183 moveto
0 -5 rlineto 5 0 rlineto 0 5 rlineto closepath
fill
7 178 moveto
0 -5 rlineto 5 0 rlineto 0 5 rlineto closepath
fill
17 178 moveto
0 -5 rlineto 5 0 rlineto 0 5 rlineto closepath
fill
22 178 moveto
0 -5 rlineto 5 0 rlineto 0 5 rlineto closepath
fill
27 178 moveto
0 -5 rlineto 5 0 rlineto 0 5 rlineto closepath
fill
37 178 moveto
0 -5 rlineto 5 0 rlineto 0 5 rlineto closepath
fill
47 178 moveto
0 -5 rlineto 5 0 rlineto 0 5 rlineto closepath
fill
52 178 moveto
0 -5 rlineto 5 0 rlineto 0 5 rlineto closepath
fill
62 178 moveto
0 -5 rlineto 5 0 rlineto 0 5 rlineto closepath
fill
77 178 moveto
0 -5 rlineto 5 0 rlineto 0 5 rlineto closepath
fill
82 178 moveto
0 -5 rlineto 5 0 rlineto 0 5 rlineto closepath
fill
87 178 moveto
0 -5 rlineto 5 0 rlineto 0 5 rlineto closepath
fill
97 178 moveto
0 -5 rlineto 5 0 rlineto 0 5 rlineto closepath
fill
102 178 moveto
0 -5 rlineto 5 0 rlineto 0 5 rlineto closepath
fill
112 178 moveto
0 -5 rlineto 5 0 rlineto 0 5 rlineto closepath
fill
127 178 moveto
0 -5 rlineto 5 0 rlineto 0 5 rlineto closepath
fill
132 178 moveto
0 -5 rlineto 5 0 rlineto 0 5 rlineto closepath
fill
147 178 moveto
0 -5 rlineto 5 0 rlineto 0 5 rlineto closepath
fill
157 178 moveto
0 -5 rlineto 5 0 rlineto 0 5 rlineto closepath
fill
167 178 moveto
0 -5 rlineto 5 0 rlineto 0 5 rlineto closepath
fill
172 178 moveto
0 -5 rlineto 5 0 rlineto 0 5 rlineto closepath
fill
177 178 moveto
0 -5 rlineto 5 0 rlineto 0 5 rlineto closepath
fill
187 178 moveto
0 -5 rlineto 5 0 rlineto 0 5 rlineto closepath
fill
7 173 moveto
0 -5 rlineto 5 0 rlineto 0 5 rlineto closepath
fill
17 173 moveto
0 -5 rlineto 5 0 rlineto 0 5 rlineto closepath
fill
22 173 moveto
0 -5 rlineto 5 0 rlineto 0 5 rlineto closepath
fill
27 173 moveto
0 -5 rlineto 5 0 rlineto 0 5 rlineto closepath
fill
37 173 moveto
0 -5 rlineto 5 0 rlineto 0 5 rlineto closepath
fill
72 173 moveto
0 -5 rlineto 5 0 rlineto 0 5 rlineto closepath
fill
77 173 moveto
0 -5 rlineto 5 0 rlineto 0 5 rlineto closepath
fill
87 173 moveto
0 -5 rlineto 5 0 rlineto 0 5 rlineto closepath
fill
112 173 moveto
0 -5 rlineto 5 0 rlineto 0 5 rlineto closepath
fill
132 173 moveto
0 -5 rlineto 5 0 rlineto 0 5 rlineto closepath
fill
142 173 moveto
0 -5 rlineto 5 0 rlineto 0 5 rlineto closepath
fill
157 173 moveto
0 -5 rlineto 5 0 rlineto 0 5 rlineto closepath
fill
167 173 moveto
0 -5 rlineto 5 0 rlineto 0 5 rlineto closepath
fill
172 173 moveto
0 -5 rlineto 5 0 rlineto 0 5 rlineto closepath
fill
177 173 moveto
0 -5 rlineto 5 0 rlineto 0 5 rlineto closepath
fill
187 173 moveto
0 -5 rlineto 5 0 rlineto 0 5 rlineto closepath
fill
7 168 moveto
0 -5 rlineto 5 0 rlineto 0 5 rlineto closepath
fill
37 168 moveto
0 -5 rlineto 5 0 rlineto 0 5 rlineto closepath
fill
47 168 moveto
0 -5 rlineto 5 0 rlineto 0 5 rlineto closepath
fill
62 168 moveto
0 -5 rlineto 5 0 rlineto 0 5 rlineto closepath
fill
67 168 moveto
0 -5 rlineto 5 0 rlineto 0 5 rlineto closepath
fill
72 168 moveto
0 -5 rlineto 5 0 rlineto 0 5 rlineto closepath
fill
77 168 moveto
0 -5 rlineto 5 0 rlineto 0 5 rlineto closepath
fill
82 168 moveto
0 -5 rlineto 5 0 rlineto 0 5 rlineto closepath
fill
92 168 moveto
0 -5 rlineto 5 0 rlineto 0 5 rlineto closepath
fill
102 168 moveto
0 -5 rlineto 5 0 rlineto 0 5 rlineto closepath
fill
107 168 moveto
0 -5 rlineto 5 0 rlineto 0 5 rlineto closepath
fill
112 168 moveto
0 -5 rlineto 5 0 rlineto 0 5 rlineto closepath
fill
117 168 moveto
0 -5 rlineto 5 0 rlineto 0 5 rlineto closepath
fill
127 168 moveto
0 -5 rlineto 5 0 rlineto 0 5 rlineto closepath
fill
157 168 moveto
0 -5 rlineto 5 0 rlineto 0 5 rlineto closepath
fill
187 168 moveto
0 -5 rlineto 5 0 rlineto 0 5 rlineto closepath
fill
7 163 moveto
0 -5 rlineto 5 0 rlineto 0 5 rlineto closepath
fill
12 163 moveto
0 -5 rlineto 5 0 rlineto 0 5 rlineto closepath
fill
17 163 moveto
0 -5 rlineto 5 0 rlineto 0 5 rlineto closepath
fill
22 163 moveto
0 -5 rlineto 5 0 rlineto 0 5 rlineto closepath
fill
27 163 moveto
0 -5 rlineto 5 0 rlineto 0 5 rlineto closepath
fill
32 163 moveto
0 -5 rlineto 5 0 rlineto 0 5 rlineto closepath
fill
37 163 moveto
0 -5 rlineto 5 0 rlineto 0 5 rlineto closepath
fill
47 163 moveto
0 -5 rlineto 5 0 rlineto 0 5 rlineto closepath
fill
57 163 moveto
0 -5 rlineto 5 0 rlineto 0 5 rlineto closepath
fill
67 163 moveto
0 -5 rlineto 5 0 rlineto 0 5 rlineto closepath
fill
77 163 moveto
0 -5 rlineto 5 0 rlineto 0 5 rlineto closepath
fill
87 163 moveto
0 -5 rlineto 5 0 rlineto 0 5 rlineto closepath
fill
97 163 moveto
0 -5 rlineto 5 0 rlineto 0 5 rlineto closepath
fill
107 163 moveto
0 -5 rlineto 5 0 rlineto 0 5 rlineto closepath
fill
117 163 moveto
0 -5 rlineto 5 0 rlineto 0 5 rlineto closepath
fill
127 163 moveto
0 -5 rlineto 5 0 rlineto 0 5 rlineto closepath
fill
137 163 moveto
0 -5 rlineto 5 0 rlineto 0 5 rlineto closepath
fill
147 163 moveto
0 -5 rlineto 5 0 rlineto 0 5 rlineto closepath
fill
157 163 moveto
0 -5 rlineto 5 0 rlineto 0 5 rlineto closepath
fill
162 163 moveto
0 -5 rlineto 5 0 rlineto 0 5 rlineto closepath
fill
167 163 moveto
0 -5 rlineto 5 0 rlineto 0 5 rlineto closepath
fill
172 163 moveto
0 -5 rlineto 5 0 rlineto 0 5 rlineto closepath
fill
177 163 moveto
0 -5 rlineto 5 0 rlineto 0 5 rlineto closepath
fill
182 163 moveto
0 -5 rlineto 5 0 rlineto 0 5 rlineto closepath
fill
187 163 moveto
0 -5 rlineto 5 0 rlineto 0 5 rlineto closepath
fill
52 158 moveto
0 -5 rlineto 5 0 rlineto 0 5 rlineto closepath
fill
67 158 moveto
0 -5 rlineto 5 0 rlineto 0 5 rlineto closepath
fill
77 158 moveto
0 -5 rlineto 5 0 rlineto 0 5 rlineto closepath
fill
92 158 moveto
0 -5 rlineto 5 0 rlineto 0 5 rlineto closepath
fill
97 158 moveto
0 -5 rlineto 5 0 rlineto 0 5 rlineto closepath
fill
102 158 moveto
0 -5 rlineto 5 0 rlineto 0 5 rlineto closepath
fill
107 158 moveto
0 -5 rlineto 5 0 rlineto 0 5 rlineto closepath
fill
112 158 moveto
0 -5 rlineto 5 0 rlineto 0 5 rlineto closepath
fill
127 158 moveto
0 -5 rlineto 5 0 rlineto 0 5 rlineto closepath
fill
137 158 moveto
0 -5 rlineto 5 0 rlineto 0 5 rlineto closepath
fill
142 158 moveto
0 -5 rlineto 5 0 rlineto 0 5 rlineto closepath
fill
7 153 moveto
0 -5 rlineto 5 0 rlineto 0 5 rlineto closepath
fill
12 153 moveto
0 -5 rlineto 5 0 rlineto 0 5 rlineto closepath
fill
27 153 moveto
0 -5 rlineto 5 0 rlineto 0 5 rlineto closepath
fill
32 153 moveto
0 -5 rlineto 5 0 rlineto 0 5 rlineto closepath
fill
37 153 moveto
0 -5 rlineto 5 0 rlineto 0 5 rlineto closepath
fill
62 153 moveto
0 -5 rlineto 5 0 rlineto 0 5 rlineto closepath
fill
72 153 moveto
0 -5 rlineto 5 0 rlineto 0 5 rlineto closepath
fill
77 153 moveto
0 -5 rlineto 5 0 rlineto 0 5 rlineto closepath
fill
82 153 moveto
0 -5 rlineto 5 0 rlineto 0 5 rlineto closepath
fill
87 153 moveto
0 -5 rlineto 5 0 rlineto 0 5 rlineto closepath
fill
92 153 moveto
0 -5 rlineto 5 0 rlineto 0 5 rlineto closepath
fill
97 153 moveto
0 -5 rlineto 5 0 rlineto 0 5 rlineto closepath
fill
102 153 moveto
0 -5 rlineto 5 0 rlineto 0 5 rlineto closepath
fill
117 153 moveto
0 -5 rlineto 5 0 rlineto 0 5 rlineto closepath
fill
162 153 moveto
0 -5 rlineto 5 0 rlineto 0 5 rlineto closepath
fill
172 153 moveto
0 -5 rlineto 5 0 rlineto 0 5 rlineto closepath
fill
177 153 moveto
0 -5 rlineto 5 0 rlineto 0 5 rlineto closepath
fill
182 153 moveto
0 -5 rlineto 5 0 rlineto 0 5 rlineto closepath
fill
187 153 moveto
0 -5 rlineto 5 0 rlineto 0 5 rlineto closepath
fill
22 148 moveto
0 -5 rlineto 5 0 rlineto 0 5 rlineto closepath
fill
27 148 moveto
0 -5 rlineto 5 0 rlineto 0 5 rlineto closepath
fill
52 148 moveto
0 -5 rlineto 5 0 rlineto 0 5 rlineto closepath
fill
57 148 moveto
0 -5 rlineto 5 0 rlineto 0 5 rlineto closepath
fill
67 148 moveto
0 -5 rlineto 5 0 rlineto 0 5 rlineto closepath
fill
92 148 moveto
0 -5 rlineto 5 0 rlineto 0 5 rlineto closepath
fill
132 148 moveto
0 -5 rlineto 5 0 rlineto 0 5 rlineto closepath
fill
142 148 moveto
0 -5 rlineto 5 0 rlineto 0 5 rlineto closepath
fill
147 148 moveto
0 -5 rlineto 5 0 rlineto 0 5 rlineto closepath
fill
167 148 moveto
0 -5 rlineto 5 0 rlineto 0 5 rlineto closepath
fill
177 148 moveto
0 -5 rlineto 5 0 rlineto 0 5 rlineto closepath
fill
182 148 moveto
0 -5 rlineto 5 0 rlineto 0 5 rlineto closepath
fill
7 143 moveto
0 -5 rlineto 5 0 rlineto 0 5 rlineto closepath
fill
17 143 moveto
0 -5 rlineto 5 0 rlineto 0 5 rlineto closepath
fill
22 143 moveto
0 -5 rlineto 5 0 rlineto 0 5 rlineto closepath
fill
32 143 moveto
0 -5 rlineto 5 0 rlineto 0 5 rlineto closepath
fill
37 143 moveto
0 -5 rlineto 5 0 rlineto 0 5 rlineto closepath
fill
52 143 moveto
0 -5 rlineto 5 0 rlineto 0 5 rlineto closepath
fill
57 143 moveto
0 -5 rlineto 5 0 rlineto 0 5 rlineto closepath
fill
62 143 moveto
0 -5 rlineto 5 0 rlineto 0 5 rlineto closepath
fill
67 143 moveto
0 -5 rlineto 5 0 rlineto 0 5 rlineto closepath
fill
72 143 moveto
0 -5 rlineto 5 0 rlineto 0 5 rlineto closepath
fill
77 143 moveto
0 -5 rlineto 5 0 rlineto 0 5 rlineto closepath
fill
82 143 moveto
0 -5 rlineto 5 0 rlineto 0 5 rlineto closepath
fill
97 143 moveto
0 -5 rlineto 5 0 rlineto 0 5 rlineto closepath
fill
107 143 moveto
0 -5 rlineto 5 0 rlineto 0 5 rlineto closepath
fill
117 143 moveto
0 -5 rlineto 5 0 rlineto 0 5 rlineto closepath
fill
122 143 moveto
0 -5 rlineto 5 0 rlineto 0 5 rlineto closepath
fill
127 143 moveto
0 -5 rlineto 5 0 rlineto 0 5 rlineto closepath
fill
137 143 moveto
0 -5 rlineto 5 0 rlineto 0 5 rlineto closepath
fill
142 143 moveto
0 -5 rlineto 5 0 rlineto 0 5 rlineto closepath
fill
157 143 moveto
0 -5 rlineto 5 0 rlineto 0 5 rlineto closepath
fill
162 143 moveto
0 -5 rlineto 5 0 rlineto 0 5 rlineto closepath
fill
167 143 moveto
0 -5 rlineto 5 0 rlineto 0 5 rlineto closepath
fill
172 143 moveto
0 -5 rlineto 5 0 rlineto 0 5 rlineto closepath
fill
182 143 moveto
0 -5 rlineto 5 0 rlineto 0 5 rlineto closepath
fill
7 138 moveto
0 -5 rlineto 5 0 rlineto 0 5 rlineto closepath
fill
47 138 moveto
0 -5 rlineto 5 0 rlineto 0 5 rlineto closepath
fill
62 138 moveto
0 -5 rlineto 5 0 rlineto 0 5 rlineto closepath
fill
72 138 moveto
0 -5 rlineto 5 0 rlineto 0 5 rlineto closepath
fill
82 138 moveto
0 -5 rlineto 5 0 rlineto 0 5 rlineto closepath
fill
87 138 moveto
0 -5 rlineto 5 0 rlineto 0 5 rlineto closepath
fill
92 138 moveto
0 -5 rlineto 5 0 rlineto 0 5 rlineto closepath
fill
97 138 moveto
0 -5 rlineto 5 0 rlineto 0 5 rlineto closepath
fill
102 138 moveto
0 -5 rlineto 5 0 rlineto 0 5 rlineto closepath
fill
107 138 moveto
0 -5 rlineto 5 0 rlineto 0 5 rlineto closepath
fill
112 138 moveto
0 -5 rlineto 5 0 rlineto 0 5 rlineto closepath
fill
122 138 moveto
0 -5 rlineto 5 0 rlineto 0 5 rlineto closepath
fill
137 138 moveto
0 -5 rlineto 5 0 rlineto 0 5 rlineto closepath
fill
152 138 moveto
0 -5 rlineto 5 0 rlineto 0 5 rlineto closepath
fill
162 138 moveto
0 -5 rlineto 5 0 rlineto 0 5 rlineto closepath
fill
172 138 moveto
0 -5 rlineto 5 0 rlineto 0 5 rlineto closepath
fill
177 138 moveto
0 -5 rlineto 5 0 rlineto 0 5 rlineto closepath
fill
187 138 moveto
0 -5 rlineto 5 0 rlineto 0 5 rlineto closepath
fill
7 133 moveto
0 -5 rlineto 5 0 rlineto 0 5 rlineto closepath
fill
12 133 moveto
0 -5 rlineto 5 0 rlineto 0 5 rlineto closepath
fill
22 133 moveto
0 -5 rlineto 5 0 rlineto 0 5 rlineto closepath
fill
37 133 moveto
0 -5 rlineto 5 0 rlineto 0 5 rlineto closepath
fill
57 133 moveto
0 -5 rlineto 5 0 rlineto 0 5 rlineto closepath
fill
67 133 moveto
0 -5 rlineto 5 0 rlineto 0 5 rlineto closepath
fill
72 133 moveto
0 -5 rlineto 5 0 rlineto 0 5 rlineto closepath
fill
92 133 moveto
0 -5 rlineto 5 0 rlineto 0 5 rlineto closepath
fill
107 133 moveto
0 -5 rlineto 5 0 rlineto 0 5 rlineto closepath
fill
112 133 moveto
0 -5 rlineto 5 0 rlineto 0 5 rlineto closepath
fill
117 133 moveto
0 -5 rlineto 5 0 rlineto 0 5 rlineto closepath
fill
132 133 moveto
0 -5 rlineto 5 0 rlineto 0 5 rlineto closepath
fill
142 133 moveto
0 -5 rlineto 5 0 rlineto 0 5 rlineto closepath
fill
152 133 moveto
0 -5 rlineto 5 0 rlineto 0 5 rlineto closepath
fill
157 133 moveto
0 -5 rlineto 5 0 rlineto 0 5 rlineto closepath
fill
162 133 moveto
0 -5 rlineto 5 0 rlineto 0 5 rlineto closepath
fill
177 133 moveto
0 -5 rlineto 5 0 rlineto 0 5 rlineto closepath
fill
187 133 moveto
0 -5 rlineto 5 0 rlineto 0 5 rlineto closepath
fill
7 128 moveto
0 -5 rlineto 5 0 rlineto 0 5 rlineto closepath
fill
27 128 moveto
0 -5 rlineto 5 0 rlineto 0 5 rlineto closepath
fill
47 128 moveto
0 -5 rlineto 5 0 rlineto 0 5 rlineto closepath
fill
72 128 moveto
0 -5 rlineto 5 0 rlineto 0 5 rlineto closepath
fill
77 128 moveto
0 -5 rlineto 5 0 rlineto 0 5 rlineto closepath
fill
87 128 moveto
0 -5 rlineto 5 0 rlineto 0 5 rlineto closepath
fill
107 128 moveto
0 -5 rlineto 5 0 rlineto 0 5 rlineto closepath
fill
117 128 moveto
0 -5 rlineto 5 0 rlineto 0 5 rlineto closepath
fill
122 128 moveto
0 -5 rlineto 5 0 rlineto 0 5 rlineto closepath
fill
142 128 moveto
0 -5 rlineto 5 0 rlineto 0 5 rlineto closepath
fill
167 128 moveto
0 -5 rlineto 5 0 rlineto 0 5 rlineto closepath
fill
172 128 moveto
0 -5 rlineto 5 0 rlineto 0 5 rlineto closepath
fill
177 128 moveto
0 -5 rlineto 5 0 rlineto 0 5 rlineto closepath
fill
182 128 moveto
0 -5 rlineto 5 0 rlineto 0 5 rlineto closepath
fill
17 123 moveto
0 -5 rlineto 5 0 rlineto 0 5 rlineto closepath
fill
22 123 moveto
0 -5 rlineto 5 0 rlineto 0 5 rlineto closepath
fill
32 123 moveto
0 -5 rlineto 5 0 rlineto 0 5 rlineto closepath
fill
37 123 moveto
0 -5 rlineto 5 0 rlineto 0 5 rlineto closepath
fill
57 123 moveto
0 -5 rlineto 5 0 rlineto 0 5 rlineto closepath
fill
87 123 moveto
0 -5 rlineto 5 0 rlineto 0 5 rlineto closepath
fill
92 123 moveto
0 -5 rlineto 5 0 rlineto 0 5 rlineto closepath
fill
97 123 moveto
0 -5 rlineto 5 0 rlineto 0 5 rlineto closepath
fill
107 123 moveto
0 -5 rlineto 5 0 rlineto 0 5 rlineto closepath
fill
122 123 moveto
0 -5 rlineto 5 0 rlineto 0 5 rlineto closepath
fill
142 123 moveto
0 -5 rlineto 5 0 rlineto 0 5 rlineto closepath
fill
162 123 moveto
0 -5 rlineto 5 0 rlineto 0 5 rlineto closepath
fill
167 123 moveto
0 -5 rlineto 5 0 rlineto 0 5 rlineto closepath
fill
12 118 moveto
0 -5 rlineto 5 0 rlineto 0 5 rlineto closepath
fill
17 118 moveto
0 -5 rlineto 5 0 rlineto 0 5 rlineto closepath
fill
22 118 moveto
0 -5 rlineto 5 0 rlineto 0 5 rlineto closepath
fill
27 118 moveto
0 -5 rlineto 5 0 rlineto 0 5 rlineto closepath
fill
42 118 moveto
0 -5 rlineto 5 0 rlineto 0 5 rlineto closepath
fill
47 118 moveto
0 -5 rlineto 5 0 rlineto 0 5 rlineto closepath
fill
52 118 moveto
0 -5 rlineto 5 0 rlineto 0 5 rlineto closepath
fill
67 118 moveto
0 -5 rlineto 5 0 rlineto 0 5 rlineto closepath
fill
77 118 moveto
0 -5 rlineto 5 0 rlineto 0 5 rlineto closepath
fill
92 118 moveto
0 -5 rlineto 5 0 rlineto 0 5 rlineto closepath
fill
97 118 moveto
0 -5 rlineto 5 0 rlineto 0 5 rlineto closepath
fill
112 118 moveto
0 -5 rlineto 5 0 rlineto 0 5 rlineto closepath
fill
127 118 moveto
0 -5 rlineto 5 0 rlineto 0 5 rlineto closepath
fill
142 118 moveto
0 -5 rlineto 5 0 rlineto 0 5 rlineto closepath
fill
162 118 moveto
0 -5 rlineto 5 0 rlineto 0 5 rlineto closepath
fill
167 118 moveto
0 -5 rlineto 5 0 rlineto 0 5 rlineto closepath
fill
172 118 moveto
0 -5 rlineto 5 0 rlineto 0 5 rlineto closepath
fill
177 118 moveto
0 -5 rlineto 5 0 rlineto 0 5 rlineto closepath
fill
182 118 moveto
0 -5 rlineto 5 0 rlineto 0 5 rlineto closepath
fill
7 113 moveto
0 -5 rlineto 5 0 rlineto 0 5 rlineto closepath
fill
37 113 moveto
0 -5 rlineto 5 0 rlineto 0 5 rlineto closepath
fill
62 113 moveto
0 -5 rlineto 5 0 rlineto 0 5 rlineto closepath
fill
72 113 moveto
0 -5 rlineto 5 0 rlineto 0 5 rlineto closepath
fill
77 113 moveto
0 -5 rlineto 5 0 rlineto 0 5 rlineto closepath
fill
82 113 moveto
0 -5 rlineto 5 0 rlineto 0 5 rlineto closepath
fill
92 113 moveto
0 -5 rlineto 5 0 rlineto 0 5 rlineto closepath
fill
102 113 moveto
0 -5 rlineto 5 0 rlineto 0 5 rlineto closepath
fill
112 113 moveto
0 -5 rlineto 5 0 rlineto 0 5 rlineto closepath
fill
117 113 moveto
0 -5 rlineto 5 0 rlineto 0 5 rlineto closepath
fill
137 113 moveto
0 -5 rlineto 5 0 rlineto 0 5 rlineto closepath
fill
157 113 moveto
0 -5 rlineto 5 0 rlineto 0 5 rlineto closepath
fill
162 113 moveto
0 -5 rlineto 5 0 rlineto 0 5 rlineto closepath
fill
177 113 moveto
0 -5 rlineto 5 0 rlineto 0 5 rlineto closepath
fill
187 113 moveto
0 -5 rlineto 5 0 rlineto 0 5 rlineto closepath
fill
7 108 moveto
0 -5 rlineto 5 0 rlineto 0 5 rlineto closepath
fill
12 108 moveto
0 -5 rlineto 5 0 rlineto 0 5 rlineto closepath
fill
22 108 moveto
0 -5 rlineto 5 0 rlineto 0 5 rlineto closepath
fill
42 108 moveto
0 -5 rlineto 5 0 rlineto 0 5 rlineto closepath
fill
57 108 moveto
0 -5 rlineto 5 0 rlineto 0 5 rlineto closepath
fill
67 108 moveto
0 -5 rlineto 5 0 rlineto 0 5 rlineto closepath
fill
122 108 moveto
0 -5 rlineto 5 0 rlineto 0 5 rlineto closepath
fill
127 108 moveto
0 -5 rlineto 5 0 rlineto 0 5 rlineto closepath
fill
132 108 moveto
0 -5 rlineto 5 0 rlineto 0 5 rlineto closepath
fill
142 108 moveto
0 -5 rlineto 5 0 rlineto 0 5 rlineto closepath
fill
147 108 moveto
0 -5 rlineto 5 0 rlineto 0 5 rlineto closepath
fill
167 108 moveto
0 -5 rlineto 5 0 rlineto 0 5 rlineto closepath
fill
172 108 moveto
0 -5 rlineto 5 0 rlineto 0 5 rlineto closepath
fill
177 108 moveto
0 -5 rlineto 5 0 rlineto 0 5 rlineto closepath
fill
182 108 moveto
0 -5 rlineto 5 0 rlineto 0 5 rlineto closepath
fill
7 103 moveto
0 -5 rlineto 5 0 rlineto 0 5 rlineto closepath
fill
12 103 moveto
0 -5 rlineto 5 0 rlineto 0 5 rlineto closepath
fill
22 103 moveto
0 -5 rlineto 5 0 rlineto 0 5 rlineto closepath
fill
27 103 moveto
0 -5 rlineto 5 0 rlineto 0 5 rlineto closepath
fill
37 103 moveto
0 -5 rlineto 5 0 rlineto 0 5 rlineto closepath
fill
42 103 moveto
0 -5 rlineto 5 0 rlineto 0 5 rlineto closepath
fill
47 103 moveto
0 -5 rlineto 5 0 rlineto 0 5 rlineto closepath
fill
62 103 moveto
0 -5 rlineto 5 0 rlineto 0 5 rlineto closepath
fill
67 103 moveto
0 -5 rlineto 5 0 rlineto 0 5 rlineto closepath
fill
72 103 moveto
0 -5 rlineto 5 0 rlineto 0 5 rlineto closepath
fill
77 103 moveto
0 -5 rlineto 5 0 rlineto 0 5 rlineto closepath
fill
82 103 moveto
0 -5 rlineto 5 0 rlineto 0 5 rlineto closepath
fill
107 103 moveto
0 -5 rlineto 5 0 rlineto 0 5 rlineto closepath
fill
112 103 moveto
0 -5 rlineto 5 0 rlineto 0 5 rlineto closepath
fill
117 103 moveto
0 -5 rlineto 5 0 rlineto 0 5 rlineto closepath
fill
122 103 moveto
0 -5 rlineto 5 0 rlineto 0 5 rlineto closepath
fill
132 103 moveto
0 -5 rlineto 5 0 rlineto 0 5 rlineto closepath
fill
142 103 moveto
0 -5 rlineto 5 0 rlineto 0 5 rlineto closepath
fill
147 103 moveto
0 -5 rlineto 5 0 rlineto 0 5 rlineto closepath
fill
157 103 moveto
0 -5 rlineto 5 0 rlineto 0 5 rlineto closepath
fill
162 103 moveto
0 -5 rlineto 5 0 rlineto 0 5 rlineto closepath
fill
167 103 moveto
0 -5 rlineto 5 0 rlineto 0 5 rlineto closepath
fill
12 98 moveto
0 -5 rlineto 5 0 rlineto 0 5 rlineto closepath
fill
22 98 moveto
0 -5 rlineto 5 0 rlineto 0 5 rlineto closepath
fill
47 98 moveto
0 -5 rlineto 5 0 rlineto 0 5 rlineto closepath
fill
62 98 moveto
0 -5 rlineto 5 0 rlineto 0 5 rlineto closepath
fill
72 98 moveto
0 -5 rlineto 5 0 rlineto 0 5 rlineto closepath
fill
92 98 moveto
0 -5 rlineto 5 0 rlineto 0 5 rlineto closepath
fill
97 98 moveto
0 -5 rlineto 5 0 rlineto 0 5 rlineto closepath
fill
102 98 moveto
0 -5 rlineto 5 0 rlineto 0 5 rlineto closepath
fill
107 98 moveto
0 -5 rlineto 5 0 rlineto 0 5 rlineto closepath
fill
112 98 moveto
0 -5 rlineto 5 0 rlineto 0 5 rlineto closepath
fill
142 98 moveto
0 -5 rlineto 5 0 rlineto 0 5 rlineto closepath
fill
152 98 moveto
0 -5 rlineto 5 0 rlineto 0 5 rlineto closepath
fill
157 98 moveto
0 -5 rlineto 5 0 rlineto 0 5 rlineto closepath
fill
162 98 moveto
0 -5 rlineto 5 0 rlineto 0 5 rlineto closepath
fill
167 98 moveto
0 -5 rlineto 5 0 rlineto 0 5 rlineto closepath
fill
177 98 moveto
0 -5 rlineto 5 0 rlineto 0 5 rlineto closepath
fill
182 98 moveto
0 -5 rlineto 5 0 rlineto 0 5 rlineto closepath
fill
12 93 moveto
0 -5 rlineto 5 0 rlineto 0 5 rlineto closepath
fill
22 93 moveto
0 -5 rlineto 5 0 rlineto 0 5 rlineto closepath
fill
37 93 moveto
0 -5 rlineto 5 0 rlineto 0 5 rlineto closepath
fill
47 93 moveto
0 -5 rlineto 5 0 rlineto 0 5 rlineto closepath
fill
57 93 moveto
0 -5 rlineto 5 0 rlineto 0 5 rlineto closepath
fill
67 93 moveto
0 -5 rlineto 5 0 rlineto 0 5 rlineto closepath
fill
72 93 moveto
0 -5 rlineto 5 0 rlineto 0 5 rlineto closepath
fill
92 93 moveto
0 -5 rlineto 5 0 rlineto 0 5 rlineto closepath
fill
102 93 moveto
0 -5 rlineto 5 0 rlineto 0 5 rlineto closepath
fill
107 93 moveto
0 -5 rlineto 5 0 rlineto 0 5 rlineto closepath
fill
112 93 moveto
0 -5 rlineto 5 0 rlineto 0 5 rlineto closepath
fill
117 93 moveto
0 -5 rlineto 5 0 rlineto 0 5 rlineto closepath
fill
127 93 moveto
0 -5 rlineto 5 0 rlineto 0 5 rlineto closepath
fill
132 93 moveto
0 -5 rlineto 5 0 rlineto 0 5 rlineto closepath
fill
142 93 moveto
0 -5 rlineto 5 0 rlineto 0 5 rlineto closepath
fill
152 93 moveto
0 -5 rlineto 5 0 rlineto 0 5 rlineto closepath
fill
157 93 moveto
0 -5 rlineto 5 0 rlineto 0 5 rlineto closepath
fill
162 93 moveto
0 -5 rlineto 5 0 rlineto 0 5 rlineto closepath
fill
177 93 moveto
0 -5 rlineto 5 0 rlineto 0 5 rlineto closepath
fill
182 93 moveto
0 -5 rlineto 5 0 rlineto 0 5 rlineto closepath
fill
187 93 moveto
0 -5 rlineto 5 0 rlineto 0 5 rlineto closepath
fill
17 88 moveto
0 -5 rlineto 5 0 rlineto 0 5 rlineto closepath
fill
27 88 moveto
0 -5 rlineto 5 0 rlineto 0 5 rlineto closepath
fill
32 88 moveto
0 -5 rlineto 5 0 rlineto 0 5 rlineto closepath
fill
42 88 moveto
0 -5 rlineto 5 0 rlineto 0 5 rlineto closepath
fill
47 88 moveto
0 -5 rlineto 5 0 rlineto 0 5 rlineto closepath
fill
52 88 moveto
0 -5 rlineto 5 0 rlineto 0 5 rlineto closepath
fill
57 88 moveto
0 -5 rlineto 5 0 rlineto 0 5 rlineto closepath
fill
72 88 moveto
0 -5 rlineto 5 0 rlineto 0 5 rlineto closepath
fill
77 88 moveto
0 -5 rlineto 5 0 rlineto 0 5 rlineto closepath
fill
82 88 moveto
0 -5 rlineto 5 0 rlineto 0 5 rlineto closepath
fill
87 88 moveto
0 -5 rlineto 5 0 rlineto 0 5 rlineto closepath
fill
102 88 moveto
0 -5 rlineto 5 0 rlineto 0 5 rlineto closepath
fill
117 88 moveto
0 -5 rlineto 5 0 rlineto 0 5 rlineto closepath
fill
137 88 moveto
0 -5 rlineto 5 0 rlineto 0 5 rlineto closepath
fill
142 88 moveto
0 -5 rlineto 5 0 rlineto 0 5 rlineto closepath
fill
147 88 moveto
0 -5 rlineto 5 0 rlineto 0 5 rlineto closepath
fill
167 88 moveto
0 -5 rlineto 5 0 rlineto 0 5 rlineto closepath
fill
172 88 moveto
0 -5 rlineto 5 0 rlineto 0 5 rlineto closepath
fill
182 88 moveto
0 -5 rlineto 5 0 rlineto 0 5 rlineto closepath
fill
27 83 moveto
0 -5 rlineto 5 0 rlineto 0 5 rlineto closepath
fill
32 83 moveto
0 -5 rlineto 5 0 rlineto 0 5 rlineto closepath
fill
37 83 moveto
0 -5 rlineto 5 0 rlineto 0 5 rlineto closepath
fill
52 83 moveto
0 -5 rlineto 5 0 rlineto 0 5 rlineto closepath
fill
82 83 moveto
0 -5 rlineto 5 0 rlineto 0 5 rlineto closepath
fill
87 83 moveto
0 -5 rlineto 5 0 rlineto 0 5 rlineto closepath
fill
92 83 moveto
0 -5 rlineto 5 0 rlineto 0 5 rlineto closepath
fill
112 83 moveto
0 -5 rlineto 5 0 rlineto 0 5 rlineto closepath
fill
117 83 moveto
0 -5 rlineto 5 0 rlineto 0 5 rlineto closepath
fill
122 83 moveto
0 -5 rlineto 5 0 rlineto 0 5 rlineto closepath
fill
127 83 moveto
0 -5 rlineto 5 0 rlineto 0 5 rlineto closepath
fill
132 83 moveto
0 -5 rlineto 5 0 rlineto 0 5 rlineto closepath
fill
142 83 moveto
0 -5 rlineto 5 0 rlineto 0 5 rlineto closepath
fill
152 83 moveto
0 -5 rlineto 5 0 rlineto 0 5 rlineto closepath
fill
162 83 moveto
0 -5 rlineto 5 0 rlineto 0 5 rlineto closepath
fill
167 83 moveto
0 -5 rlineto 5 0 rlineto 0 5 rlineto closepath
fill
172 83 moveto
0 -5 rlineto 5 0 rlineto 0 5 rlineto closepath
fill
177 83 moveto
0 -5 rlineto 5 0 rlineto 0 5 rlineto closepath
fill
7 78 moveto
0 -5 rlineto 5 0 rlineto 0 5 rlineto closepath
fill
42 78 moveto
0 -5 rlineto 5 0 rlineto 0 5 rlineto closepath
fill
67 78 moveto
0 -5 rlineto 5 0 rlineto 0 5 rlineto closepath
fill
77 78 moveto
0 -5 rlineto 5 0 rlineto 0 5 rlineto closepath
fill
92 78 moveto
0 -5 rlineto 5 0 rlineto 0 5 rlineto closepath
fill
102 78 moveto
0 -5 rlineto 5 0 rlineto 0 5 rlineto closepath
fill
112 78 moveto
0 -5 rlineto 5 0 rlineto 0 5 rlineto closepath
fill
117 78 moveto
0 -5 rlineto 5 0 rlineto 0 5 rlineto closepath
fill
142 78 moveto
0 -5 rlineto 5 0 rlineto 0 5 rlineto closepath
fill
147 78 moveto
0 -5 rlineto 5 0 rlineto 0 5 rlineto closepath
fill
157 78 moveto
0 -5 rlineto 5 0 rlineto 0 5 rlineto closepath
fill
162 78 moveto
0 -5 rlineto 5 0 rlineto 0 5 rlineto closepath
fill
177 78 moveto
0 -5 rlineto 5 0 rlineto 0 5 rlineto closepath
fill
182 78 moveto
0 -5 rlineto 5 0 rlineto 0 5 rlineto closepath
fill
12 73 moveto
0 -5 rlineto 5 0 rlineto 0 5 rlineto closepath
fill
37 73 moveto
0 -5 rlineto 5 0 rlineto 0 5 rlineto closepath
fill
42 73 moveto
0 -5 rlineto 5 0 rlineto 0 5 rlineto closepath
fill
47 73 moveto
0 -5 rlineto 5 0 rlineto 0 5 rlineto closepath
fill
52 73 moveto
0 -5 rlineto 5 0 rlineto 0 5 rlineto closepath
fill
57 73 moveto
0 -5 rlineto 5 0 rlineto 0 5 rlineto closepath
fill
62 73 moveto
0 -5 rlineto 5 0 rlineto 0 5 rlineto closepath
fill
72 73 moveto
0 -5 rlineto 5 0 rlineto 0 5 rlineto closepath
fill
77 73 moveto
0 -5 rlineto 5 0 rlineto 0 5 rlineto closepath
fill
82 73 moveto
0 -5 rlineto 5 0 rlineto 0 5 rlineto closepath
fill
92 73 moveto
0 -5 rlineto 5 0 rlineto 0 5 rlineto closepath
fill
97 73 moveto
0 -5 rlineto 5 0 rlineto 0 5 rlineto closepath
fill
102 73 moveto
0 -5 rlineto 5 0 rlineto 0 5 rlineto closepath
fill
117 73 moveto
0 -5 rlineto 5 0 rlineto 0 5 rlineto closepath
fill
122 73 moveto
0 -5 rlineto 5 0 rlineto 0 5 rlineto closepath
fill
127 73 moveto
0 -5 rlineto 5 0 rlineto 0 5 rlineto closepath
fill
132 73 moveto
0 -5 rlineto 5 0 rlineto 0 5 rlineto closepath
fill
142 73 moveto
0 -5 rlineto 5 0 rlineto 0 5 rlineto closepath
fill
152 73 moveto
0 -5 rlineto 5 0 rlineto 0 5 rlineto closepath
fill
157 73 moveto
0 -5 rlineto 5 0 rlineto 0 5 rlineto closepath
fill
162 73 moveto
0 -5 rlineto 5 0 rlineto 0 5 rlineto closepath
fill
172 73 moveto
0 -5 rlineto 5 0 rlineto 0 5 rlineto closepath
fill
177 73 moveto
0 -5 rlineto 5 0 rlineto 0 5 rlineto closepath
fill
182 73 moveto
0 -5 rlineto 5 0 rlineto 0 5 rlineto closepath
fill
187 73 moveto
0 -5 rlineto 5 0 rlineto 0 5 rlineto closepath
fill
7 68 moveto
0 -5 rlineto 5 0 rlineto 0 5 rlineto closepath
fill
12 68 moveto
0 -5 rlineto 5 0 rlineto 0 5 rlineto closepath
fill
17 68 moveto
0 -5 rlineto 5 0 rlineto 0 5 rlineto closepath
fill
22 68 moveto
0 -5 rlineto 5 0 rlineto 0 5 rlineto closepath
fill
42 68 moveto
0 -5 rlineto 5 0 rlineto 0 5 rlineto closepath
fill
67 68 moveto
0 -5 rlineto 5 0 rlineto 0 5 rlineto closepath
fill
82 68 moveto
0 -5 rlineto 5 0 rlineto 0 5 rlineto closepath
fill
87 68 moveto
0 -5 rlineto 5 0 rlineto 0 5 rlineto closepath
fill
92 68 moveto
0 -5 rlineto 5 0 rlineto 0 5 rlineto closepath
fill
107 68 moveto
0 -5 rlineto 5 0 rlineto 0 5 rlineto closepath
fill
112 68 moveto
0 -5 rlineto 5 0 rlineto 0 5 rlineto closepath
fill
117 68 moveto
0 -5 rlineto 5 0 rlineto 0 5 rlineto closepath
fill
132 68 moveto
0 -5 rlineto 5 0 rlineto 0 5 rlineto closepath
fill
137 68 moveto
0 -5 rlineto 5 0 rlineto 0 5 rlineto closepath
fill
142 68 moveto
0 -5 rlineto 5 0 rlineto 0 5 rlineto closepath
fill
147 68 moveto
0 -5 rlineto 5 0 rlineto 0 5 rlineto closepath
fill
167 68 moveto
0 -5 rlineto 5 0 rlineto 0 5 rlineto closepath
fill
182 68 moveto
0 -5 rlineto 5 0 rlineto 0 5 rlineto closepath
fill
17 63 moveto
0 -5 rlineto 5 0 rlineto 0 5 rlineto closepath
fill
22 63 moveto
0 -5 rlineto 5 0 rlineto 0 5 rlineto closepath
fill
27 63 moveto
0 -5 rlineto 5 0 rlineto 0 5 rlineto closepath
fill
32 63 moveto
0 -5 rlineto 5 0 rlineto 0 5 rlineto closepath
fill
37 63 moveto
0 -5 rlineto 5 0 rlineto 0 5 rlineto closepath
fill
42 63 moveto
0 -5 rlineto 5 0 rlineto 0 5 rlineto closepath
fill
57 63 moveto
0 -5 rlineto 5 0 rlineto 0 5 rlineto closepath
fill
62 63 moveto
0 -5 rlineto 5 0 rlineto 0 5 rlineto closepath
fill
67 63 moveto
0 -5 rlineto 5 0 rlineto 0 5 rlineto closepath
fill
72 63 moveto
0 -5 rlineto 5 0 rlineto 0 5 rlineto closepath
fill
77 63 moveto
0 -5 rlineto 5 0 rlineto 0 5 rlineto closepath
fill
82 63 moveto
0 -5 rlineto 5 0 rlineto 0 5 rlineto closepath
fill
92 63 moveto
0 -5 rlineto 5 0 rlineto 0 5 rlineto closepath
fill
97 63 moveto
0 -5 rlineto 5 0 rlineto 0 5 rlineto closepath
fill
122 63 moveto
0 -5 rlineto 5 0 rlineto 0 5 rlineto closepath
fill
132 63 moveto
0 -5 rlineto 5 0 rlineto 0 5 rlineto closepath
fill
142 63 moveto
0 -5 rlineto 5 0 rlineto 0 5 rlineto closepath
fill
147 63 moveto
0 -5 rlineto 5 0 rlineto 0 5 rlineto closepath
fill
157 63 moveto
0 -5 rlineto 5 0 rlineto 0 5 rlineto closepath
fill
167 63 moveto
0 -5 rlineto 5 0 rlineto 0 5 rlineto closepath
fill
172 63 moveto
0 -5 rlineto 5 0 rlineto 0 5 rlineto closepath
fill
22 58 moveto
0 -5 rlineto 5 0 rlineto 0 5 rlineto closepath
fill
27 58 moveto
0 -5 rlineto 5 0 rlineto 0 5 rlineto closepath
fill
42 58 moveto
0 -5 rlineto 5 0 rlineto 0 5 rlineto closepath
fill
62 58 moveto
0 -5 rlineto 5 0 rlineto 0 5 rlineto closepath
fill
72 58 moveto
0 -5 rlineto 5 0 rlineto 0 5 rlineto closepath
fill
82 58 moveto
0 -5 rlineto 5 0 rlineto 0 5 rlineto closepath
fill
87 58 moveto
0 -5 rlineto 5 0 rlineto 0 5 rlineto closepath
fill
92 58 moveto
0 -5 rlineto 5 0 rlineto 0 5 rlineto closepath
fill
97 58 moveto
0 -5 rlineto 5 0 rlineto 0 5 rlineto closepath
fill
102 58 moveto
0 -5 rlineto 5 0 rlineto 0 5 rlineto closepath
fill
112 58 moveto
0 -5 rlineto 5 0 rlineto 0 5 rlineto closepath
fill
122 58 moveto
0 -5 rlineto 5 0 rlineto 0 5 rlineto closepath
fill
157 58 moveto
0 -5 rlineto 5 0 rlineto 0 5 rlineto closepath
fill
162 58 moveto
0 -5 rlineto 5 0 rlineto 0 5 rlineto closepath
fill
167 58 moveto
0 -5 rlineto 5 0 rlineto 0 5 rlineto closepath
fill
177 58 moveto
0 -5 rlineto 5 0 rlineto 0 5 rlineto closepath
fill
182 58 moveto
0 -5 rlineto 5 0 rlineto 0 5 rlineto closepath
fill
7 53 moveto
0 -5 rlineto 5 0 rlineto 0 5 rlineto closepath
fill
12 53 moveto
0 -5 rlineto 5 0 rlineto 0 5 rlineto closepath
fill
17 53 moveto
0 -5 rlineto 5 0 rlineto 0 5 rlineto closepath
fill
37 53 moveto
0 -5 rlineto 5 0 rlineto 0 5 rlineto closepath
fill
42 53 moveto
0 -5 rlineto 5 0 rlineto 0 5 rlineto closepath
fill
47 53 moveto
0 -5 rlineto 5 0 rlineto 0 5 rlineto closepath
fill
57 53 moveto
0 -5 rlineto 5 0 rlineto 0 5 rlineto closepath
fill
67 53 moveto
0 -5 rlineto 5 0 rlineto 0 5 rlineto closepath
fill
72 53 moveto
0 -5 rlineto 5 0 rlineto 0 5 rlineto closepath
fill
82 53 moveto
0 -5 rlineto 5 0 rlineto 0 5 rlineto closepath
fill
92 53 moveto
0 -5 rlineto 5 0 rlineto 0 5 rlineto closepath
fill
102 53 moveto
0 -5 rlineto 5 0 rlineto 0 5 rlineto closepath
fill
112 53 moveto
0 -5 rlineto 5 0 rlineto 0 5 rlineto closepath
fill
117 53 moveto
0 -5 rlineto 5 0 rlineto 0 5 rlineto closepath
fill
147 53 moveto
0 -5 rlineto 5 0 rlineto 0 5 rlineto closepath
fill
152 53 moveto
0 -5 rlineto 5 0 rlineto 0 5 rlineto closepath
fill
157 53 moveto
0 -5 rlineto 5 0 rlineto 0 5 rlineto closepath
fill
162 53 moveto
0 -5 rlineto 5 0 rlineto 0 5 rlineto closepath
fill
167 53 moveto
0 -5 rlineto 5 0 rlineto 0 5 rlineto closepath
fill
177 53 moveto
0 -5 rlineto 5 0 rlineto 0 5 rlineto closepath
fill
47 48 moveto
0 -5 rlineto 5 0 rlineto 0 5 rlineto closepath
fill
72 48 moveto
0 -5 rlineto 5 0 rlineto 0 5 rlineto closepath
fill
77 48 moveto
0 -5 rlineto 5 0 rlineto 0 5 rlineto closepath
fill
82 48 moveto
0 -5 rlineto 5 0 rlineto 0 5 rlineto closepath
fill
87 48 moveto
0 -5 rlineto 5 0 rlineto 0 5 rlineto closepath
fill
107 48 moveto
0 -5 rlineto 5 0 rlineto 0 5 rlineto closepath
fill
122 48 moveto
0 -5 rlineto 5 0 rlineto 0 5 rlineto closepath
fill
137 48 moveto
0 -5 rlineto 5 0 rlineto 0 5 rlineto closepath
fill
147 48 moveto
0 -5 rlineto 5 0 rlineto 0 5 rlineto closepath
fill
167 48 moveto
0 -5 rlineto 5 0 rlineto 0 5 rlineto closepath
fill
177 48 moveto
0 -5 rlineto 5 0 rlineto 0 5 rlineto closepath
fill
7 43 moveto
0 -5 rlineto 5 0 rlineto 0 5 rlineto closepath
fill
12 43 moveto
0 -5 rlineto 5 0 rlineto 0 5 rlineto closepath
fill
17 43 moveto
0 -5 rlineto 5 0 rlineto 0 5 rlineto closepath
fill
22 43 moveto
0 -5 rlineto 5 0 rlineto 0 5 rlineto closepath
fill
27 43 moveto
0 -5 rlineto 5 0 rlineto 0 5 rlineto closepath
fill
32 43 moveto
0 -5 rlineto 5 0 rlineto 0 5 rlineto closepath
fill
37 43 moveto
0 -5 rlineto 5 0 rlineto 0 5 rlineto closepath
fill
52 43 moveto
0 -5 rlineto 5 0 rlineto 0 5 rlineto closepath
fill
57 43 moveto
0 -5 rlineto 5 0 rlineto 0 5 rlineto closepath
fill
82 43 moveto
0 -5 rlineto 5 0 rlineto 0 5 rlineto closepath
fill
87 43 moveto
0 -5 rlineto 5 0 rlineto 0 5 rlineto closepath
fill
107 43 moveto
0 -5 rlineto 5 0 rlineto 0 5 rlineto closepath
fill
117 43 moveto
0 -5 rlineto 5 0 rlineto 0 5 rlineto closepath
fill
122 43 moveto
0 -5 rlineto 5 0 rlineto 0 5 rlineto closepath
fill
132 43 moveto
0 -5 rlineto 5 0 rlineto 0 5 rlineto closepath
fill
137 43 moveto
0 -5 rlineto 5 0 rlineto 0 5 rlineto closepath
fill
147 43 moveto
0 -5 rlineto 5 0 rlineto 0 5 rlineto closepath
fill
157 43 moveto
0 -5 rlineto 5 0 rlineto 0 5 rlineto closepath
fill
167 43 moveto
0 -5 rlineto 5 0 rlineto 0 5 rlineto closepath
fill
177 43 moveto
0 -5 rlineto 5 0 rlineto 0 5 rlineto closepath
fill
7 38 moveto
0 -5 rlineto 5 0 rlineto 0 5 rlineto closepath
fill
37 38 moveto
0 -5 rlineto 5 0 rlineto 0 5 rlineto closepath
fill
47 38 moveto
0 -5 rlineto 5 0 rlineto 0 5 rlineto closepath
fill
67 38 moveto
0 -5 rlineto 5 0 rlineto 0 5 rlineto closepath
fill
77 38 moveto
0 -5 rlineto 5 0 rlineto 0 5 rlineto closepath
fill
87 38 moveto
0 -5 rlineto 5 0 rlineto 0 5 rlineto closepath
fill
92 38 moveto
0 -5 rlineto 5 0 rlineto 0 5 rlineto closepath
fill
97 38 moveto
0 -5 rlineto 5 0 rlineto 0 5 rlineto closepath
fill
107 38 moveto
0 -5 rlineto 5 0 rlineto 0 5 rlineto closepath
fill
112 38 moveto
0 -5 rlineto 5 0 rlineto 0 5 rlineto closepath
fill
122 38 moveto
0 -5 rlineto 5 0 rlineto 0 5 rlineto closepath
fill
127 38 moveto
0 -5 rlineto 5 0 rlineto 0 5 rlineto closepath
fill
137 38 moveto
0 -5 rlineto 5 0 rlineto 0 5 rlineto closepath
fill
147 38 moveto
0 -5 rlineto 5 0 rlineto 0 5 rlineto closepath
fill
167 38 moveto
0 -5 rlineto 5 0 rlineto 0 5 rlineto closepath
fill
177 38 moveto
0 -5 rlineto 5 0 rlineto 0 5 rlineto closepath
fill
182 38 moveto
0 -5 rlineto 5 0 rlineto 0 5 rlineto closepath
fill
187 38 moveto
0 -5 rlineto 5 0 rlineto 0 5 rlineto closepath
fill
7 33 moveto
0 -5 rlineto 5 0 rlineto 0 5 rlineto closepath
fill
17 33 moveto
0 -5 rlineto 5 0 rlineto 0 5 rlineto closepath
fill
22 33 moveto
0 -5 rlineto 5 0 rlineto 0 5 rlineto closepath
fill
27 33 moveto
0 -5 rlineto 5 0 rlineto 0 5 rlineto closepath
fill
37 33 moveto
0 -5 rlineto 5 0 rlineto 0 5 rlineto closepath
fill
47 33 moveto
0 -5 rlineto 5 0 rlineto 0 5 rlineto closepath
fill
57 33 moveto
0 -5 rlineto 5 0 rlineto 0 5 rlineto closepath
fill
62 33 moveto
0 -5 rlineto 5 0 rlineto 0 5 rlineto closepath
fill
72 33 moveto
0 -5 rlineto 5 0 rlineto 0 5 rlineto closepath
fill
77 33 moveto
0 -5 rlineto 5 0 rlineto 0 5 rlineto closepath
fill
87 33 moveto
0 -5 rlineto 5 0 rlineto 0 5 rlineto closepath
fill
92 33 moveto
0 -5 rlineto 5 0 rlineto 0 5 rlineto closepath
fill
107 33 moveto
0 -5 rlineto 5 0 rlineto 0 5 rlineto closepath
fill
112 33 moveto
0 -5 rlineto 5 0 rlineto 0 5 rlineto closepath
fill
147 33 moveto
0 -5 rlineto 5 0 rlineto 0 5 rlineto closepath
fill
152 33 moveto
0 -5 rlineto 5 0 rlineto 0 5 rlineto closepath
fill
157 33 moveto
0 -5 rlineto 5 0 rlineto 0 5 rlineto closepath
fill
162 33 moveto
0 -5 rlineto 5 0 rlineto 0 5 rlineto closepath
fill
167 33 moveto
0 -5 rlineto 5 0 rlineto 0 5 rlineto closepath
fill
172 33 moveto
0 -5 rlineto 5 0 rlineto 0 5 rlineto closepath
fill
177 33 moveto
0 -5 rlineto 5 0 rlineto 0 5 rlineto closepath
fill
187 33 moveto
0 -5 rlineto 5 0 rlineto 0 5 rlineto closepath
fill
7 28 moveto
0 -5 rlineto 5 0 rlineto 0 5 rlineto closepath
fill
17 28 moveto
0 -5 rlineto 5 0 rlineto 0 5 rlineto closepath
fill
22 28 moveto
0 -5 rlineto 5 0 rlineto 0 5 rlineto closepath
fill
27 28 moveto
0 -5 rlineto 5 0 rlineto 0 5 rlineto closepath
fill
37 28 moveto
0 -5 rlineto 5 0 rlineto 0 5 rlineto closepath
fill
67 28 moveto
0 -5 rlineto 5 0 rlineto 0 5 rlineto closepath
fill
82 28 moveto
0 -5 rlineto 5 0 rlineto 0 5 rlineto closepath
fill
87 28 moveto
0 -5 rlineto 5 0 rlineto 0 5 rlineto closepath
fill
92 28 moveto
0 -5 rlineto 5 0 rlineto 0 5 rlineto closepath
fill
97 28 moveto
0 -5 rlineto 5 0 rlineto 0 5 rlineto closepath
fill
102 28 moveto
0 -5 rlineto 5 0 rlineto 0 5 rlineto closepath
fill
117 28 moveto
0 -5 rlineto 5 0 rlineto 0 5 rlineto closepath
fill
122 28 moveto
0 -5 rlineto 5 0 rlineto 0 5 rlineto closepath
fill
127 28 moveto
0 -5 rlineto 5 0 rlineto 0 5 rlineto closepath
fill
137 28 moveto
0 -5 rlineto 5 0 rlineto 0 5 rlineto closepath
fill
142 28 moveto
0 -5 rlineto 5 0 rlineto 0 5 rlineto closepath
fill
147 28 moveto
0 -5 rlineto 5 0 rlineto 0 5 rlineto closepath
fill
152 28 moveto
0 -5 rlineto 5 0 rlineto 0 5 rlineto closepath
fill
157 28 moveto
0 -5 rlineto 5 0 rlineto 0 5 rlineto closepath
fill
162 28 moveto
0 -5 rlineto 5 0 rlineto 0 5 rlineto closepath
fill
172 28 moveto
0 -5 rlineto 5 0 rlineto 0 5 rlineto closepath
fill
182 28 moveto
0 -5 rlineto 5 0 rlineto 0 5 rlineto closepath
fill
187 28 moveto
0 -5 rlineto 5 0 rlineto 0 5 rlineto closepath
fill
7 23 moveto
0 -5 rlineto 5 0 rlineto 0 5 rlineto closepath
fill
17 23 moveto
0 -5 rlineto 5 0 rlineto 0 5 rlineto closepath
fill
22 23 moveto
0 -5 rlineto 5 0 rlineto 0 5 rlineto closepath
fill
27 23 moveto
0 -5 rlineto 5 0 rlineto 0 5 rlineto closepath
fill
37 23 moveto
0 -5 rlineto 5 0 rlineto 0 5 rlineto closepath
fill
52 23 moveto
0 -5 rlineto 5 0 rlineto 0 5 rlineto closepath
fill
57 23 moveto
0 -5 rlineto 5 0 rlineto 0 5 rlineto closepath
fill
62 23 moveto
0 -5 rlineto 5 0 rlineto 0 5 rlineto closepath
fill
67 23 moveto
0 -5 rlineto 5 0 rlineto 0 5 rlineto closepath
fill
72 23 moveto
0 -5 rlineto 5 0 rlineto 0 5 rlineto closepath
fill
77 23 moveto
0 -5 rlineto 5 0 rlineto 0 5 rlineto closepath
fill
82 23 moveto
0 -5 rlineto 5 0 rlineto 0 5 rlineto closepath
fill
92 23 moveto
0 -5 rlineto 5 0 rlineto 0 5 rlineto closepath
fill
107 23 moveto
0 -5 rlineto 5 0 rlineto 0 5 rlineto closepath
fill
112 23 moveto
0 -5 rlineto 5 0 rlineto 0 5 rlineto closepath
fill
117 23 moveto
0 -5 rlineto 5 0 rlineto 0 5 rlineto closepath
fill
122 23 moveto
0 -5 rlineto 5 0 rlineto 0 5 rlineto closepath
fill
127 23 moveto
0 -5 rlineto 5 0 rlineto 0 5 rlineto closepath
fill
152 23 moveto
0 -5 rlineto 5 0 rlineto 0 5 rlineto closepath
fill
157 23 moveto
0 -5 rlineto 5 0 rlineto 0 5 rlineto closepath
fill
172 23 moveto
0 -5 rlineto 5 0 rlineto 0 5 rlineto closepath
fill
7 18 moveto
0 -5 rlineto 5 0 rlineto 0 5 rlineto closepath
fill
37 18 moveto
0 -5 rlineto 5 0 rlineto 0 5 rlineto closepath
fill
47 18 moveto
0 -5 rlineto 5 0 rlineto 0 5 rlineto closepath
fill
62 18 moveto
0 -5 rlineto 5 0 rlineto 0 5 rlineto closepath
fill
72 18 moveto
0 -5 rlineto 5 0 rlineto 0 5 rlineto closepath
fill
82 18 moveto
0 -5 rlineto 5 0 rlineto 0 5 rlineto closepath
fill
87 18 moveto
0 -5 rlineto 5 0 rlineto 0 5 rlineto closepath
fill
92 18 moveto
0 -5 rlineto 5 0 rlineto 0 5 rlineto closepath
fill
102 18 moveto
0 -5 rlineto 5 0 rlineto 0 5 rlineto closepath
fill
107 18 moveto
0 -5 rlineto 5 0 rlineto 0 5 rlineto closepath
fill
112 18 moveto
0 -5 rlineto 5 0 rlineto 0 5 rlineto closepath
fill
142 18 moveto
0 -5 rlineto 5 0 rlineto 0 5 rlineto closepath
fill
157 18 moveto
0 -5 rlineto 5 0 rlineto 0 5 rlineto closepath
fill
162 18 moveto
0 -5 rlineto 5 0 rlineto 0 5 rlineto closepath
fill
177 18 moveto
0 -5 rlineto 5 0 rlineto 0 5 rlineto closepath
fill
182 18 moveto
0 -5 rlineto 5 0 rlineto 0 5 rlineto closepath
fill
7 13 moveto
0 -5 rlineto 5 0 rlineto 0 5 rlineto closepath
fill
12 13 moveto
0 -5 rlineto 5 0 rlineto 0 5 rlineto closepath
fill
17 13 moveto
0 -5 rlineto 5 0 rlineto 0 5 rlineto closepath
fill
22 13 moveto
0 -5 rlineto 5 0 rlineto 0 5 rlineto closepath
fill
27 13 moveto
0 -5 rlineto 5 0 rlineto 0 5 rlineto closepath
fill
32 13 moveto
0 -5 rlineto 5 0 rlineto 0 5 rlineto closepath
fill
37 13 moveto
0 -5 rlineto 5 0 rlineto 0 5 rlineto closepath
fill
47 13 moveto
0 -5 rlineto 5 0 rlineto 0 5 rlineto closepath
fill
57 13 moveto
0 -5 rlineto 5 0 rlineto 0 5 rlineto closepath
fill
67 13 moveto
0 -5 rlineto 5 0 rlineto 0 5 rlineto closepath
fill
72 13 moveto
0 -5 rlineto 5 0 rlineto 0 5 rlineto closepath
fill
92 13 moveto
0 -5 rlineto 5 0 rlineto 0 5 rlineto closepath
fill
102 13 moveto
0 -5 rlineto 5 0 rlineto 0 5 rlineto closepath
fill
107 13 moveto
0 -5 rlineto 5 0 rlineto 0 5 rlineto closepath
fill
117 13 moveto
0 -5 rlineto 5 0 rlineto 0 5 rlineto closepath
fill
122 13 moveto
0 -5 rlineto 5 0 rlineto 0 5 rlineto closepath
fill
127 13 moveto
0 -5 rlineto 5 0 rlineto 0 5 rlineto closepath
fill
132 13 moveto
0 -5 rlineto 5 0 rlineto 0 5 rlineto closepath
fill
152 13 moveto
0 -5 rlineto 5 0 rlineto 0 5 rlineto closepath
fill
157 13 moveto
0 -5 rlineto 5 0 rlineto 0 5 rlineto closepath
fill
167 13 moveto
0 -5 rlineto 5 0 rlineto 0 5 rlineto closepath
fill
177 13 moveto
0 -5 rlineto 5 0 rlineto 0 5 rlineto closepath
fill
182 13 moveto
0 -5 rlineto 5 0 rlineto 0 5 rlineto closepath
fill
187 13 moveto
0 -5 rlineto 5 0 rlineto 0 5 rlineto closepath
fill